* Sea-Bird SBE 19plus Data File:
* FileName = C:\Users\mseas\Desktop\seabird\data\ctd-data\leg2\SpongeReef15\SpongeReef15.afm
* Software Version SeatermAF 2.1.4.55
* Temperature SN = 
* Conductivity SN = 
* System UpLoad Time = May 30 2023 09:33:02 (localtime) = May 30 2023 16:33:02 (UTC)
** Site SpongeReef15
** Cast 38
** Winch Payout Length 72
**  
** Issues/Notes 
** Latitude (decimal degrees) 54 28.834
** Longitude (decimal degrees) 130 33.017
** First cast of the day
* ds
* SBE 55 V 1.4.1  SERIAL NO. 210  30 May 2023 16:31:33
* main battery = 12.50 volts
* lithium battery =  3.14 volts
* SBE 55 is NOT ARMED
* A>
*END*

1  2   30 May 2023 16:25:12  confirmed   12.5  1922
    00AA000782
    00AA000783
    00AA000784
    00AA000785
    00AA000786
2  5   30 May 2023 16:26:57  confirmed   12.5  2343
    0066000928
    0066000929
    006600092A
    006600092B
    006600092C
A>