* Sea-Bird SBE 19plus Data File:
* FileName = C:\Users\mseas\Desktop\seabird\data\ctd-data\leg1\5Ver\5Ver.afm
* Software Version SeatermAF 2.1.4.55
* Temperature SN = 
* Conductivity SN = 
* System UpLoad Time = May 24 2023 13:52:15 (localtime) = May 24 2023 20:52:15 (UTC)
** Site 5Ver
** Cast 10
** Winch Payout Length 24
**  
** Issues/Notes 
** Latitude (degrees decimal minutes) 53.505483
** Longitude (degrees decimal minutes) -129.058739
* ds
* SBE 55 V 1.4.1  SERIAL NO. 210  24 May 2023 12:50:33
* main battery = 12.88 volts
* lithium battery =  3.15 volts
* SBE 55 is NOT ARMED
* A>
*END*

1  2   24 May 2023 12:40:37  confirmed   12.9  2600
    007C000A29
    007C000A2A
    007C000A2B
    007C000A2C
    007C000A2D
2  5   24 May 2023 12:41:49  confirmed   12.9  2889
    0066000B4B
    0066000B4C
    0066000B4D
    0066000B4E
    0065000B4F
A>