* Sea-Bird SBE 19plus Data File:
* FileName = C:\Users\mseas\Desktop\seabird\data\ctd-data\leg2\16Gul_RCA\16Gul_RCA.hex
* Software Version SeatermAF 2.1.4.55
* Temperature SN = 4345
* Conductivity SN = 4345
* System UpLoad Time = May 31 2023 11:34:07 (localtime) = May 31 2023 18:34:07 (UTC)
** Site 16Gul_RCA
** Cast 45
** Winch Payout Length 83
**  
** Issues/Notes 
** Latitude (decimal degrees) 54 10.698
** Longitude (decimal degrees) 130 32.187
* ds
* SeacatPlus V 1.6  SERIAL NO. 4345    31 May 2023  10:32:23
* vbatt = 11.2, vlith =  7.7, ioper =  62.8 ma, ipump = 130.4 ma, 
* iext01 =  33.3 ma
* status = not logging
* number of scans to average = 1
* samples = 225706, free = 333534, casts = 45
* mode = profile, minimum cond freq = 3155, pump delay = 40 sec
* autorun = no, ignore magnetic switch = no
* battery type = alkaline, battery cutoff =  7.3 volts
* pressure sensor = strain gauge, range = 1450.0
* SBE 38 = no, Gas Tension Device = no
* Ext Volt 0 = yes, Ext Volt 1 = yes, Ext Volt 2 = no, Ext Volt 3 = no
* echo commands = yes
* output format = converted HEX for AFM
* S>
* cast  45 31 May 2023 10:16:32 samples 222886 to 225706, avg = 1, stop = mag switch

*END*
06E8170A71D70801F860338015012E
06E8140A71CC0801F76033801700FE
06E8110A71EA0801F56034801B0100
06E8010A71EE0801F46032801C00CE
06E7C30A72020801F46032801900CE
06E75B0A72430801F5603380190121
06E6CF0A723C0801F66031801F011E
06E6360A72450801F76033801A0139
06E5A70A72650801F660348017013B
06E5160A72680801F8603380180100
06E4840A72790801F96037801600FC
06E3EA0A729C0801F66035801A011D
06E34E0A729B0801F860358018011E
06E2B20A72B00801F56037801900DE
06E2160A72C20801F76038801B00DB
06E1840A72BC0801F66035801B0120
06E0FB0A72CF0801F56035801A011C
06E07A0A72E20801F76036801C0101
06DFFE0A72DC0801F66038801C00FC
06DF810A72E10801F86037801600ED
06DF090A72F00801F76038801D00EC
06DE960A72BF0801F86037801A00FB
06DE320A72D90801F66037801B00FE
06DDE20A72DC0801F760378022013E
06DDA00A72B60801F86038801F013A
06DD700A72B00801F660378020010C
06DD490A72900801F7603580200109
06DD2B0A72700801F66036801C00DD
06DD080A726A0801F66039801900E1
06DCDD0A72560801F76038801F00DE
06DCAF0A72360801F66038801F011F
06DC830A72250801F760378028011A
06DC560A72080801F86039801C010C
06DC2F0A71DF0801F86039801F010D
06DC1D0A71C40801F76039801D011C
06DC140A71990801F7603B801E011F
06DC1A0A716A0801F7603B802200DD
06DC3B0A71480801F96039802400DD
06DC5A0A712A0801F96039801E011D
06DC780A710D0801F86037801E011C
06DC9A0A70F60801F8603A801C010F
06DCB40A70DC0801F8603A801D010F
06DCCE0A70C50801F860398019010B
06DCE90A70A00801F9603A8020010B
06DD0A0A708D0801FA603A8020011B
06DD310A70790801F760398022011B
06DD590A70650801FA60388022012A
06DD820A706B0801F7603B8020012D
06DDA30A706A0801F96039802300FB
06DDB00A705F0801F76039801F00FE
06DDBD0A705D0801FA603C801F0129
06DDCA0A704B0801F8603A801A012A
06DDD90A703C0801F9603B8024010E
06DDEE0A70430801F8603B8024010D
06DDF70A70330801F6603A801C011A
06DE000A701A0801F7603B8017011C
06DE1A0A70110801F6603B801C00F9
06DE420A700A0801F8603C802200FA
06DE630A70050801F7603A801F00F8
06DE7E0A70000801F96038801A0100
06DEA10A6FFF0801F86038801900FC
06DEBB0A6FF90801F7603D801B00FE
06DEDA0A70050801F86039801A00F9
06DEF50A6FEB0801F9603980190109
06DF130A6FD90801FA603A801B0108
06DF450A6FDF0801F7603C801B011B
06DF7A0A6FD90801F8603B8014011E
06DFA40A6FD90801F7603B801D011A
06DFD60A6FDF0801F86039801A011D
06E00A0A6FDC0801F7603C8017010E
06E0410A6FEE0801F6603A8017010A
06E0710A6FFB0801F9603B80170129
06E08D0A700B0801F8603C801B012B
06E09A0A70150801F86039801A010B
06E0A40A701C0801F8603B80160110
06E0A20A70100801F8603B801C010B
06E0A60A700E0801F8603B8018010C
06E0C30A701F0801F9603A801D011E
06E0D50A70310801F7603B8018011B
06E0DD0A704B0801F8603B801500DD
06E0D50A70600801F6603A801C00DC
06E0C20A70700801F6603C801800FD
06E0AE0A70790801F9603D801800FE
06E0990A70700801F8603C8012010D
06E0960A70700801F7603C8015010F
06E09F0A706F0801F7603D8016010D
06E0A70A70790801F7603C801B010B
06E0A70A707C0801F6603A801A012E
06E0A80A707F0801F7603B8011012E
06E0AC0A70890801F7603A801A011F
06E0AE0A708D0801F7603A801B011B
06E0B30A708C0801F8603A80180120
06E0C20A70930801F8603B8020011B
06E0D20A709C0801FA603E8014010D
06E0D50A70A30801F8603A801F0110
06E0D70A70B30801F6603D801F00FB
06E0C60A70B00801FA603C801E00FB
06E0B60A70B60801FA603B801700FB
06E0A90A70CA0801F8603C801A012A
06E0870A70D00801F6603C801A0129
06E0600A70CA0801F8603D8019011D
06E0450A70CB0801F7603B801B0119
06E0280A70D30801FA603C8018011F
06DFFB0A70DE0801FA603B80190120
06DFBF0A70E20801F8603A801900FD
06DF790A70E10801F6603C801700FE
06DF350A70D60801F8603E801F011C
06DEF50A70D40801F8603C801A011C
06DEAA0A70DC0801F9603C801C011C
06DE570A70DC0801F8603B801A011C
06DE020A70D40801F8603E801E010B
06DDB10A70DC0801F5603B801A010C
06DD5B0A70CC0801F7603C801D011A
06DD090A70B90801F9603B8020011C
06DCC70A70B00801F7603D8015011E
06DC870A709C0801F6603D801C011F
06DC4F0A70960801F9603E801E0137
06DC160A708B0801F8603B80220139
06DBD90A70760801F8603A801A00DC
06DB9E0A706F0801F7603D801900DC
06DB660A70680801F6603B802000FD
06DB2F0A70500801F8603B801E00FA
06DAFF0A70390801F8603B801E010B
06DAD50A702C0801F9603C801E010D
06DAAA0A70160801F8603C8022011E
06DA820A70150801F7603D8022011D
06DA530A70130801F7603F801E0109
06DA180A700B0801F8603D8022010D
06D9DD0A70000801F8603B801D00FE
06D9A40A6FF90801F6603C801A00F9
06D9760A6FE10801F7603D801F00FE
06D9520A6FD10801F7603F802700FB
06D9340A6FC00801F7603C801E00FC
06D91E0A6FA20801F7603B801D012C
06D90C0A6F970801F76043801E012D
06D8FA0A6F8E0801FA603E801A012A
06D8E10A6F770801F5603B8023012B
06D8CE0A6F720801F8603C80220108
06D8B60A6F710801F6603E801C010C
06D89F0A6F580801FA603F8022012C
06D88E0A6F4E0801F8603C8020012B
06D88B0A6F4B0801F9603E801F010D
06D87C0A6F310801F7603B80260111
06D86F0A6F220801F8603D8026011B
06D86D0A6F250801F9603F801C011C
06D85E0A6F080801F7603C801E0109
06D8590A6EF60801F8603C8025010C
06D8630A6EEE0801F7603D801B0109
06D8670A6ED70801F8603B8028010C
06D86C0A6ECE0801F7603A8020010D
06D8740A6ECB0801F7603C8022010F
06D86B0A6EBD0801F9603C801C00F8
06D8690A6EB70801F6603E802000FA
06D8630A6EAE0801F7603F802200FE
06D8590A6E9A0801F7603D802400F8
06D8640A6E870801F7603D80240108
06D8730A6E800801F6603B801C010C
06D87D0A6E7A0801FA603E80230101
06D8840A6E7D0801F7603D802300FD
06D8850A6E740801FA603D8022011F
06D8890A6E680801F8603B801C011C
06D8990A6E600801F9603F8025010C
06D8A00A6E5E0801F9603E8022010B
06D8A40A6E490801F6603E8023012B
06D8BB0A6E120801F7603E8025012B
06D8DB0A6E2D0801F8603E8020012D
06D8FF0A6E230801F8603E8022010C
06D91C0A6E280801F6603D8021010D
06D92F0A6E2F0801F5603E8022011A
06D9430A6E2A0801F8603F8020011D
06D9550A6E290801F8603D8022010A
06D9630A6E290801F8603D8020010F
06D9730A6E1E0801F9603E8026010E
06D9890A6E170801F7603E80200108
06D99A0A6E180801F7603E802400FB
06D9B00A6E150801F8603D802000FB
06D9BD0A6E230801F8603E801C010C
06D9B90A6E2F0801F6603D8023010F
06D9B90A6E290801F6603D801D0128
06D9B70A6E250801F9603F801C012F
06D9C10A6E320801F7603E801A011D
06D9CA0A6E2D0801F8603D801F0118
06D9C90A6E2F0801F8603E8018010A
06D9D30A6E320801F7603B801A0110
06D9D80A6E400801F9603C802000FC
06D9CA0A6E4F0801F8603E801D00FB
06D9B80A6E560801F6603C801E010D
06D9A10A6E5A0801F8603D801A010A
06D98C0A6E560801F7603D801E012A
06D9880A6E540801F66041801F0129
06D9860A6E540801F8603E801D010E
06D97F0A6E660801F9603F801D010A
06D9750A6E6C0801F8603E802200FA
06D9600A6E630801F7603F802000F8
06D95B0A6E690801F8603D801B00FA
06D9530A6E730801F8603F801D00FB
06D93A0A6E7D0801F7603D801C010B
06D9230A6E7D0801F6603E8020010E
06D9140A6E7D0801F8603D801E00EB
06D9070A6E7D0801F9603D802300EB
06D9020A6E830801F6603F802100E9
06D8FB0A6E830801F7603E802000CD
06D8F30A6E870801F8603D801D00CD
06D8EB0A6E8B0801F9603F8020010C
06D8E50A6E850801F7603F801C0110
06D8D20A6E8E0801F9603E8026010F
06D8C50A6E940801F7603C8029010D
06D8AE0A6E940801F8603F802300EB
06D89E0A6E8E0801F8603F802100EE
06D8970A6E8F0801F8603D802900FB
06D8840A6E940801F7603E801C00FA
06D8740A6E8F0801F6603E801D00DB
06D8700A6E890801F6603F801F00DB
06D8680A6E8A0801F9603D8022012A
06D8630A6E8E0801F8603F8021012A
06D85C0A6E8B0801F760408023011A
06D8500A6E8A0801F76041801E011C
06D8440A6E8B0801F96040802100D9
06D8350A6E800801F9603F802700DD
06D82D0A6E770801F9603E801E010D
06D8300A6E730801F6603F8020010B
06D82E0A6E6E0801F6603E801C00EA
06D8270A6E6C0801F9603E801E00EB
06D8280A6E1E0801F86040801D010A
06D8330A6EBA0801F9603F801D010C
06D8420A6EE70801F7603F801D011E
06D84F0A6EEB0801F8603E8025011C
06D85D0A6EE70801FA603F8025011C
06D86A0A6EF40801F8603E8023011A
06D87C0A6F000801F8603E80270101
06D8860A6EFE0801F8603D802000F9
06D8940A6F020801F8603F8022011B
06D8B10A6F080801F8603E8019011A
06D8C40A6F110801F9603E801C010F
06D8C90A6F2C0801F7603F801E00FE
06D8D30A6F340801F76040802200FE
06D8D80A6F2A0801F8603F801F00FC
06D8DB0A6F280801FA6040802100F9
06D8E90A6F0E0801F7603E8025010B
06D8FD0A6EF40801F9603E8020010B
06D9140A6EF70801F9603E801F00ED
06D9270A6EF40801F8603F802500EA
06D9340A6ED10801FA603F802A010C
06D94F0A6EDA0801F9603E8021010B
06D96E0A6ECE0801F5603F801D010E
06D9810A6EAB0801F860408022010B
06D9A40A6EAE0801FA603F801F010F
06D9C70A6EC00801FA603D801E010B
06D9D90A6EA90801F8603F802100EB
06D9E70A6EA80801F96040802400EB
06D9FD0A6EB30801F7603F8022011C
06DA0C0A6E940801F7603F8022011F
06DA2A0A6E8E0801F7603E802400F9
06DA470A6E8C0801F8603E802200FA
06DA670A6E770801F7603E802000FB
06DA8B0A6E680801F86040801C00FE
06DAAD0A6E710801FB603F802000E9
06DACC0A6E610801F9603E802100EB
06DAEE0A6E540801F9603E801F00FC
06DB0D0A6E540801F8603E802200FC
06DB250A6E470801F8603F8019010B
06DB470A6E320801F7603E8020010D
06DB6B0A6E2A0801F76040801E011C
06DB8E0A6E1A0801F96040801C011D
06DBB50A6E090801F76040801E011E
06DBDD0A6DFD0801F9603F8024011E
06DC070A6DF70801F960408020012C
06DC320A6DE00801F9603D8022012B
06DC620A6DD20801F76040801F012C
06DC960A84F10801FC6040801F019D
06D5390EFD9008020A603F8023019A
06BC5E0F055C080217603E8025188F
06AA430F01150802196040801D188E
069E8E0EF6DD08021E603F801D18DF
0697001259F008022B6040802018DF
06912112A05A08023F604080271A8A
068E6012A3E3080254603D801D1A8A
068AD812A676080266603F801A1B18
06862312A792080277603E80201B1A
0682FD12A7BD080289603F80201ACB
0680E812A75D0802A0603E80221AC8
067FAB12A6600802B4604280371B18
067EAE12A54D0802CA603F80471B15
067E2312A2520802DD604080641BB4
067E4012A02B0802EC6041808A1BB1
067DED129F760802FD604080C61B45
067E1512A1180803176041810B1B42
067E5E12A28008032C6041814A1AB6
067E3912A24D08033C603F81AB1AB9
067E7A12A178080342604281FA1930
067F1E12A23808033E60408253192D
067EFD12A50B080333603F82B81B18
067ED812A616080330604083671B16
067EF812A65B08032F604083EA1ADB
067EC412A66D08032F603F842C1ADA
067E4012A660080333603F844E1AFA
067DB212A66D08032F603F84531AF9
067D2F12A687080331604184501B84
067CD212A6A1080330603F842B1B85
067CBF12A64E08032D604083F51B6F
067CC312A5AD080330603F83A51B62
067CBA12A5170803316040834C1B64
067CAD12A4B4080337604082DE1AF9
067C9312A45908033A6040826A1AF7
067C6912A40108033D604081E41B1C
067C3E12A3AA08033E603F81631B16
067C1312A39F080342603F80D01BC3
067BE512A461080345604080441BC2
067BBC12A4D308034960417FA01B71
067BA912A4A308034D60407F261B74
067BBF12A43608034C60407E991A8A
067BE112A3F4080348603F7E071A8B
067BDB12A4FB08034360407D7C1A8A
067BBC12A585080345603E7CEB1A8A
067BC112A5A4080344603D7C661BF4
067BE512A58B080344603F7BE71BF4
067C0112A54408034660417B6E1A46
067C1812A4DF08034360407AF21A49
067C3112A46608033F60417A891B18
067C2A12A4A708033D60417A291B15
067C0B12A53708033B604279C71B44
067BF812A503080336603E797D1B43
067C0012A4A3080331603F792F1C76
067C2A12A42A08032E603F78F21C74
067C3112A58A08032C603F78C11B45
067C1F12A60D08032A603F78941B41
067C2A12A55C08032C6040786F1AE8
067C9012A312080328604178441AE7
067D5712A3D6080325603F78241A98
067D7912A5B008032A604077EB1A98
067D1812A6BB080330604277FA1C02
067CF112A59D080339604277EA1C02
067D5712A0FE08033B604077DF1C01
067D4E129FD208033E604177DA1C22
067D3112A21F08033E603F77E11C21
067DD012A4D7080341604277F71B35
067DBB12A79108034E604078081B39
067D6A12A33008035E6041782A1B94
067D6012A0FA08036C604078421B93
067CED12A09508037A6041785B1C6E
067CBA12A09F080386604278881C73
067CBC12A043080397603F78BC1CF1
067CC5129F5B0803A5604278E41CF3
067CD1129EE70803B2604279261C02
067CDC129ED50803BD6040797A1C02
067CE2129F770803C7604079D91CB2
067CE812A1510803D660417A321CB1
067CE212A3000803E760417A841C72
067CC312A46208040460407AD01C71
067C8612A59B08042660437B031C45
067C4312A67708044D60407B351C43
067C1E12A6C008047160427B5E1E30
067C1412A6D108049460427B781E2E
067C1712A6CF0804B960417B8621A4
067C1812A6D60804DF60417B8321A9
067C0212A72008050560427B7E2237
067BEB12A77608052A60427B702235
067BDF12A7FA08055060407B552177
067BFB12A88608057860427B3A2176
067C7812AA1C0805A060437B1E185B
067D4012B3DD0805CD60447B02185B
067E6412C46B0805FA60417AE30780
06817712D25B08062860407AC70784
0688A612DDB008065760437AB0074C
0693DA12F8F808068460427A8D04CA
069F1D1317390806B360437A7004C6
06A8F51335220806E360417A5004B9
06B13D1362BF08071560427A3404B7
06B7851390C908074560437A21063A
06BB1613B8E708077B60457A0C063B
06BBC213DAF00807AF604579EE07A6
06BC4614017B0807E7604079DB07A4
06BF04141BEE080822604579B20A45
06C31B142D2F08085A604279820A44
06C7EF143ADB0808956042793B0894
06CD681445730808D3604479120896
06D2E5144CBF080910604478ED08F5
06D7C214532C08094F604478F308F4
06DCD51461240809936042792107B1
06E29B146AFF0809D76043796607B6
06E88814746C080A1D604479DF0668
06EE3B147CAB080A6360457A5A0667
06F31114823B080AAD60447AF30629
06F6CD14860D080AF560457B950629
06F98B14888C080B3F60447C3C05A9
06FB8E148BA3080B8A60447CDD05A6
06FD73148FE6080BD260457D8104F6
06FFA614931C080C1960457E0E04F9
0701FF1495C7080C5C60447E7F04C2
07045114987B080C9860477EDA04C7
070674149AEC080CD560477F1B0408
07089A149F05080D0E60467F3A0405
070B1A14A219080D4360477F400437
070D6414A450080D7B60467F260436
070F4514A576080DB560467EDE03F4
0710D214A6A8080DEF60487E7C03F5
07121514A7BA080E2860477E0F03F5
07132114A88C080E6560487D7A0425
07140F14A972080E9E60477CF30425
0714E414AA6F080ED560477C770427
07159014A9EF080F0560487C110427
0715E1148F2D080F2960477BB20429
0715F01474DE080F4060487B5F0426
0714F8146507080F5560497B0703C6
0711B2145038080F6260487AB203C4
070D011448E0080F6860497A4E03D5
0701E51443AE080F6E604B79EF03DB
06F907143F72080F706049797F03D3
06F323143EBE080F736048790A03D7
06EE9D1441C7080F786049789B03E4
06EB8D1444B5080F7C604C785A03E7
06E9D8144800080F7D604B77DE0467
06E97C144CBF080F7E604A77880464
06EA9B14511E080F7D604A773C0438
06EB49145439080F7E604C76E30437
06EB5514569C080F7D604C76940437
06EBD71458DE080F7D604A763B043A
06ECA2145C2D080F7B604975D20408
06ED10145F07080F7B604B757B0406
06ED2E146160080F7B604B75120437
06ED3D1463CE080F7A604B74970436
06ED5714661C080F7A604C74400449
06ED90146830080F78604C73D80449
06EE05146A07080F76604B73680457
06EEA8146B8C080F74604D72F50456
06EF43146CF4080F74604B72850536
06EFAC146E14080F74604F72160537
06EFC9146DFB080F76604C71B5043A
06EF97146BC7080F77604D713D0438
06EF0D1467EB080F7B604E70D50435
06EE5314663F080F7E6050706C0467
06EDE1149CC5080F8360516FF60468
06F7FF14AEE6080F8560506F470425
07087514AF33080F8B60506E870424
0711CA14AF34080F9060506E210435
07161914AF42080F93604F6E2D043A
07180514AF55080F9360516EA70395
0718DA14AF5A080F9560546F580398
07193814AF5D080F946050702703F5
07195914AF4B080F956052710103F8
07195814AF50080F96605071CE0547
07195614AF62080F9460517289054B
07193E14AF50080F976053732F0457
07191B14AF47080F96605273C60456
07191F14AF25080F976052743504E9
07194614AF2A080F956052749A04E7
07195E14AF17080F95605274FA0475
07197214AF25080F90605475420477
07198614AF1B080F89605275880485
07199014AF08080F85605475BC0489
07199014AF02080F7F605275E30406
07199414AF25080F796055760A0404
07197D14AF42080F746054762B04BB
07195414AF58080F6F6054764E04B8
07193214AF50080F6C605476540498
07193214AF55080F6860547679049A
07192A14AF4B080F676055768A04B9
07191714AF3F080F676056769E04B8
07191514AF17080F68605676A50569
07192314AF03080F6A605476AD056A
07194414AF02080F6B605576BC0447
07195814AEFA080F6F605776BE03E7
07196314AEF0080F72605676D003E5
07197214AEE8080F79605776CD0458
07197D14AEF0080F7D605676D30458
07197F14AEF0080F83605876DB03D7
07198714AEF8080F85605576DC03D7
07198D14AEF5080F89605776DD0445
07199014AEEB080F90605976E10449
07199514AED9080F91605876E103F5
07199914AED8080F91605776E103F4
0719A114AEE6080F93605976E00417
0719A014AEE8080F93605876E80416
07199C14AEE2080F91605A76EA03B5
07199914AEFE080F8E605876E403B8
07198814AEF5080F8B605976E1045A
07197A14AEF2080F89605B76E50458
07197E14AEF5080F86605A76E6048C
07198314AF08080F86605A76EB0487
07197814AEFD080F83605976EA04B9
07197014AF0D080F81605976EC04B8
07196814AF03080F80605976E70425
07196414AEFD080F7F605976F30428
07196914AEFE080F7C605A76E80488
07196A14AEFA080F7D605976E2048A
07196C14AF02080F7B605976E004A6
07196B14AEFA080F7E605A76DF04A8
07196914AEE6080F7E605A76E003E5
07197714AEDE080F80605C76DA03E4
07198D14AEE6080F7F605E76D803FB
07199314AEE2080F80605C76DB03F5
07199114AEDE080F7E605D76D30457
07199C14AECE080F7C605C76CA0458
0719A714AED8080F7B605C76D20452
0719AC14AED8080F7B605B76C40428
0719AE14AED4080F7C605A76BA0429
0719B814AEE2080F79605D76BE0489
0719B414AEDD080F7B605D76BF048A
0719AF14AEDE080F7B605E76BE0404
0719A614AECE080F7B605E76BD0404
0719AC14AECA080F7B605E76BC0458
0719B714AEC5080F7B605C76BF045A
0719C114AEC5080F7C605D76BE04DA
0719C914AEC0080F7C605D76BD04DB
0719C714AEB6080F7D605E76BE065A
0719CD14AEBB080F82605D76B3065C
0719D814AEB2080F86606076BB04E9
0719E114AEB1080F88605F76BF04E5
0719ED14AEB2080F8C606176B404A8
0719EF14AEBB080F90605E76BF04A3
0719ED14AEB6080F90605F76BA0499
0719EA14AEA3080F94605D76BC0497
0719F714AE9A080F91605D76B50599
071A0814AEA1080F93605F76B20597
071A1214AEAD080F90605D76B504D8
071A1214AE9A080F90605E76B404D9
071A1914AEAD080F8E605F76B205A8
071A1414AE8D080F89605F76AD05AB
071A1F14AEA8080F89605D76AA049A
071A1A14AEA3080F86606276A70498
071A1214AE92080F83605F76A50449
071A1F14AEB6080F7F605E76A8044A
071A1214AEB6080F7C605E76A70468
071A0214AEC5080F7A606176A30467
0719F614AEA3080F78606076A50536
0719FE14AE95080F77606076A20535
071A1814AE88080F756061769F053A
071A2714AE95080F756060769C0499
071A2114AE90080F776062769A0497
071A1C14AE88080F76606176970456
071A1C14AE82080F7A60637698045A
071A2614AE90080F7B605F769704F7
071A2614AE92080F7D605E769604FC
071A2314AE90080F7E606176980438
071A2014AE95080F7E606076960439
071A2114AE92080F806062769A0448
071A2514AE90080F846061769C0447
071A2B14AE9A080F82605F769506AA
071A2E14AEA3080F85605F768E06A7
071A2714AEAC080F836061769603F7
071A1E14AEAD080F836060769903F5
071A1614AEB6080F826061769204C6
071A1314AEBB080F836060769004C7
071A0814AEAD080F82606276900429
071A0B14AEA8080F85606176910429
071A1114AE83080F87606176940408
071A1714AEB6080F87606076980406
071A1414AEA8080F896061769D04A6
071A1C14AE9C080F8A6061769404A5
071A2A14AE8B080F8D605E7696047A
071A3A14AE8B080F8E605F76920479
071A4614AE88080F8D606176980428
071A4D14AE86080F8E606076940428
071A5114AE7D080F8B606176970446
071A5814AE79080F896064769A0446
071A5C14AE73080F86605F7694046A
071A6414AE6A080F8660617690046C
071A7014AE65080F836062768904A8
071A7914AE65080F846061768A04A8
071A8114AE65080F826061768B04A5
071A8214AE65080F806060768903E8
071A7E14AE65080F846062768F03EA
071A7914AE73080F806062768B04D8
071A6D14AE73080F7D6060768D04D6
071A6114AE74080F7E60627686044A
071A5514AE82080F7D606176890446
071A4614AE90080F7E605F76810435
071A3014AE88080F8060607687043A
071A2314AE7D080F8260617686044A
071A2514AE73080F876060768E0446
071A2E14AE7E080F876060768A042A
071A2A14AE90080F886061768B0429
071A1F14AE8B080F886062768803F7
071A1014AE92080F866061768B03F7
071A0014AE9E080F846061768A04B9
0719F214AEAD080F7D6062768804B9
0719E214AEBB080F7A6060768A04A8
0719D014AEAD080F766060768A04A9
0719C514AEBB080F726063768B040A
0719BF14AEB6080F6F606076860408
0719BB14AEBB080F6E605F768804A9
0719B314AEB6080F6D6063768D04A8
0719AE14AEB6080F6D6061768A0458
0719AD14AEB6080F6D6062768A0457
0719AF14AEB2080F706061768F043C
0719B214AEB2080F70606076910437
0719B314AEB6080F75606076940489
0719B214AEBB080F75605F769C0487
0719B614AEBB080F776061769F0456
0719BD14AEB6080F7A605E769E045A
0719BC14AEC0080F7A606176A40483
0719BB14AEBB080F7F606076A1048A
0719BB14AEC5080F80605F76A90488
0719B814AEBB080F87605E76AA0464
0719B914AEC0080F8A605F76A9046A
0719BB14AEB6080F8F606176AA0407
0719BF14AECA080F90605F76AE0409
0719BA14AEC0080F91605F76B503E7
0719B614AECA080F90605D76B703E5
0719B914AECA080F8D606076BE0448
0719BE14AEC5080F8C606076BF0446
0719C114AEC5080F8A606076BD047A
0719C714AEC0080F89606076BD0478
0719C914AEC0080F88605F76C604EE
0719CA14AEC5080F84605F76C004E7
0719CB14AECF080F84606076C50448
0719C414AECA080F82605E76CA044A
0719C214AEC5080F7F606076C10419
0719D014AEBB080F7C605E76BE0417
0719D914AEC5080F76605F76BB0537
0719D814AEC0080F73605D76C1053B
0719D114AEC5080F6F605E76BB0489
0719C614AEC5080F6B606176B50487
0719BA14AEC0080F6B605F76AF0406
0719B314AEC0080F6E605F76B80407
0719B214AEBB080F6D606076B703E7
0719B514AEB6080F70606176B503E7
0719B914AEBB080F73606276BF049B
0719BF14AEBB080F77605E76C0049B
0719C514AEBB080F7B606076BE0448
0719C214AEC0080F7D605F76BE044B
0719BB14AEC5080F7F605B76CD0438
0719AE14AEC0080F84605E76C10437
0719A714AEC5080F85605E76C40447
0719A214AEC5080F84605D76C60456
07199814AEC5080F84605D76C40458
07198D14AECA080F83605B76BD042B
07198214AECA080F7D605E76BA042A
07197C14AECE080F7B605E76B70449
07197B14AECE080F78605E76B20448
07197E14AECF080F76606076B204C9
07197B14AED3080F76605D76B604C7
07197C14AEE2080F7A605C76B20419
07197114AED4080F7C605B76AF0417
07197114AED3080F7E605E76B803C6
07197214AECA080F7D605D76B603C8
07197214AED9080F81605D76B703C8
07197314AECE080F80605B76BE03CB
07197814AECE080F7E605D76BF03C6
07198314AEC5080F7F605C76C903C5
07198B14AECA080F7F605C76C60448
07198F14AECE080F82605D76CA0446
07198D14AECF080F84605976C904FC
07198814AECE080F87605B76CF04F9
07198714AECA080F87605C76C904B4
07198714AECE080F87605B76CD04B8
07198914AECF080F86605A76CB0466
07198714AECE080F83605C76CD0468
07198A14AED3080F7D605C76CB0448
07198314AECA080F79605A76CF0448
07197A14AEC0080F72605976D30448
07197814AEC5080F6E605A76DB0448
07197B14AEBB080F6C605B76D80435
07197E14AEB6080F6B605B76D60436
07198514AEAD080F6B605A76D60437
07198714AEAC080F6D605A76D30438
07198214AEA8080F6D605A76D90438
07197D14AEAD080F73605A76D40445
07197514AEB6080F72605976DA0448
07196714AEAD080F75605A76D30488
07196214AEA8080F75605A76D40489
07196314AEA6080F73605A76D50419
07196414AEB2080F75605876D80414
07196514AEAD080F75605876D704B5
07196A14AEB1080F75605876D204B6
07197114AEB2080F77605A76D50479
07197714AEBB080F78605776DC0478
07197514AEBB080F79605976DB0487
07197614AEBB080F7E605B76D9048A
07197C14AEBB080F7F605876D9041A
07197E14AEC0080F88605876DD0418
07197B14AEC5080F88605876E504AB
07197514AEC5080F91605676E404A6
07196F14AEC5080F91605676E90409
07197114AEC0080F92605876E6040A
07197814AEBB080F92605976E603D9
07198314AEB6080F8F605776EB03D5
07198814AEB6080F8D605876EE03F4
07198414AEB6080F89605876EC03F5
07197814AEBB080F8A605776EA0475
07197014AEC5080F87605576EC0478
07196B14AEC5080F84605876EE03F7
07196A14AEB6080F80605676F003F7
07196914AEB1080F79605676EC0487
07196E14AEAD080F77605676EE048B
07197114AEB6080F74605576EC0469
07197014AEB1080F70605476F0046C
07196E14AEAD080F70605576F204F8
07197014AEAD080F6E605476F204F9
07197214AEAD080F6E605676EB04F8
07197714AEA6080F6F605676E903F8
07197714AE9A080F6F605676ED03F5
07197414AE9A080F6E605476E803B7
07196F14AE92080F6F605476E603B7
07196914AE9A080F6E605576E50408
07196A14AE9A080F70605376E70407
07196D14AE97080F6D605476E5044B
07197214AE95080F70605376E40446
07197414AE95080F72605476E50419
07197214AE8D080F75605576DF0416
07196F14AE8B080F78605376E703DA
07196914AE90080F7A605376EA03D9
07196014AE8D080F7E605376E7043B
07195814AE90080F82605376EC0435
07195214AE90080F86605176F103C7
07194E14AE88080F89605376EB03C6
07194C14AE86080F8D605476EB0446
07194E14AE8B080F8E605376F20449
07195214AE92080F8F605076EB0E92
07195914AE90080F91605276F20E8D
07195F14AE90080F90605176F00439
07196214AE90080F8F605376F00437
07196414AE92080F8B605176F10459
07196B14AE95080F8A605076F10459
07196D14AE8B080F89605176EF0464
07197114AE8D080F88605276F0046A
07197114AE8B080F85605076ED0409
07196E14AE86080F84605076E70405
07196314AE7E080F83605076EA0466
07195814AE86080F82605176E20464
07195214AE86080F7F605076DB0457
07195114AE8D080F7B605076DF045B
07195814AE8B080F78604F76DF0458
07195814AE86080F75605176DC0465
07195214AE88080F70604E76DD046A
07194A14AE82080F6F604D76D804C6
07194914AE7D080F6C604F76D904C6
07194814AE7E080F6D604E76DB04AB
07194B14AE82080F6F604E76DA04AB
07194914AE82080F70604D76DB0477
07194F14AE79080F73604E76E20478
07195614AE7D080F76604C76DD0437
07195514AE7D080F78604C76E70434
07195714AE7D080F7B604C76E705B9
07195614AE7E080F7D604B76EB05BE
07195514AE82080F7E604D76E50436
07195914AE7D080F80604D76E80438
07195D14AE7E080F80604C76E404B8
07196214AE82080F84604C76EA04BA
07196614AE86080F86604C76EB0407
07196614AE8D080F89604B76E80407
07196614AE86080F88604B76EC048A
07196214AE86080F88604C76E70489
07195C14AE8D080F85604C76EE0446
07195C14AE95080F81604A76E80447
07195514AE95080F7D604B76EA0436
07194B14AE8D080F77604C76E90439
07194A14AE95080F72604B76E80415
07194A14AE86080F6E604A76F10415
07194814AE8D080F6B604976EB04A6
07194514AE86080F6A604A76F004A6
07194614AE86080F6C604B76EC0425
07194714AE7E080F6E604876EE0427
07194F14AE82080F70604A76F10426
07195614AE82080F73604976F0042A
07195C14AE86080F76604976F20426
07195F14AE88080F75604A76F00378
07196014AE8B080F76604776EB0378
07195E14AE8B080F77604876EF03D8
07195614AE7E080F7A604776E903DA
07195214AE82080F7C604876E903E4
07194F14AE82080F7C604876E903EA
07194A14AE7E080F82604776E703E6
07194914AE7D080F85604776EB03E6
07194F14AE82080F86604876EC0424
07195414AE7E080F8B604776E60428
07195514AE73080F8B604376EF0465
07195314AE73080F8A604676EB046B
07194D14AE74080F8A604476ED0419
07194514AE82080F8A604676EC0416
07193414AE73080F87604476EA03E8
07192C14AE74080F85604576EC03E7
07192E14AE6E080F83604476EC0487
07193114AE6A080F80604576EC0489
07192E14AE65080F7F604376F0041C
07193014AE65080F81604476E50414
07193214AE65080F80604476EE0454
07193314AE6E080F80604576EE0457
07193214AE79080F82604576EB03D5
07193714AE82080F80604276EB03D9
07193C14AE7D080F7C604276EA041A
07193F14AE6A080F7A604376EE0418
07193F14AE6E080F76604176EE0467
07193B14AE7D080F76604376F6046B
07193714AE7E080F74604376EF0477
07193814AE73080F72604376EE0477
07193914AE78080F74604376F30477
07193814AE6F080F73604076EE061C
07193C14AE6E080F73604176F60619
07193E14AE73080F72604076EF04FA
07193A14AE74080F71604076F304F7
07193514AE73080F70604176F9044B
07193214AE6E080F71604076FC0448
07193414AE74080F73604076F703F5
07193814AE6E080F7A603F76F703F7
07193B14AE6E080F7D604076FA03A4
07193D14AE74080F7F603E76F303A7
07194014AE73080F85604176F503E7
07194214AE6E080F8A604076F503E7
07194814AE73080F8A604076F603C8
07194D14AE74080F8F603D76F003C8
07195214AE7D080F92603E76EE0458
07195814AE7D080F93603B76F10459
07195C14AE79080F93603D76F103E5
07196214AE86080F93603D76FB03E6
07196D14AE86080F94603D76FA03C7
07197414AE88080F93603E76F703C5
07198314AE82080F8E603F76FD0489
07198F14AE86080F90603C76F9048A
07198D14AE83080F92603D76FA04DA
07198514AE82080F8E603C76F904D5
07198314AE86080F8A603876F60437
07197A14AE83080F84603A76F70435
07197614AE8B080F80603B76F20418
07197314AE86080F7D603C76F60414
07197014AE88080F77603D76F3049A
07197214AE86080F75603C76F10497
07197914AE86080F74603876EB0465
07198714AE88080F70603B76EA0465
07199814AE8B080F6F603D76EB0464
0719A014AE86080F6E603976E50429
07199914AE86080F6D603A76E50425
07198C14AE83080F6B603976E50486
07198214AE82080F6A603976E1048B
07197C14AE82080F67603976E80497
07197514AE83080F66603976DE0493
07197614AE7D080F69603976E30449
07197414AE7D080F6B603776E40445
07197414AE7E080F6C603976E50445
07197614AE82080F6C603676E40447
07197E14AE86080F6D603776DE0438
07198A14AE83080F6E603776E40438
07199414AE7D080F6E603776D90448
07199514AE8B080F6D603876E00445
07199014AE8D080F6D603576E80436
07198C14AE86080F6F603776E20439
07199614AE82080F73603676E30417
0719A514AE88080F79603776DF0418
0719B014AE82080F7C603676DD0418
0719BE14AE7D080F82603476DC041A
0719C814AE7E080F87603376DB0459
0719D214AE86080F88603476D80457
0719DA14AE82080F8D603476D603D4
0719DF14AE86080F8E603276D603D5
0719E414AE83080F8E603476D10417
0719E914AE8B080F8D603376CD0417
0719EC14AE8B080F8C603576CE0496
0719DD14AE88080F8E603176CA0496
0719C914AE8B080F90603576CD0478
0719BB14AE86080F8F603376C10476
0719B514AE88080F8F603376C604AA
0719B114AE8B080F8F603476CB04A8
0719B714AE8B080F8D603476C104A7
0719BE14AE88080F86603276BE054B
0719C514AE8B080F89603076C1054B
0719C614AE8B080F82603276C7043A
0719CB14AE88080F7D603176C00439
0719CC14AE8B080F78603176CA052A
0719CB14AE86080F72603276C60529
0719CE14AE83080F6C603176C30488
0719D114AE86080F66603176C90484
0719CE14AE8B080F62603076BD0405
0719C714AE8D080F63602F76BE040D
0719BE14AE8B080F60602E76BD04DB
0719BB14AE86080F62602E76BA04D9
0719C014AE88080F61602D76BD04B9
0719C414AE8B080F61602F76C004BC
0719C214AE8B080F62602E76BD0445
0719C614AE8B080F61602E76C10448
0719BA14AE88080F5E602E76BF0418
0719B614AE82080F5F602F76BA0416
0719B314AE82080F65602F76BD0407
0719B214AE79080F6C602E76B8040A
0719B414AE7D080F73602C76BE03C7
0719B514AE82080F7B602D76C003C5
0719B514AE83080F83602F76C003E4
0719BA14AE86080F89602C76C803E7
0719C114AE82080F8D602B76CB03D7
0719C814AE83080F93602C76C603D5
0719CC14AE7D080F93602B76C903C6
0719D214AE82080F94602A76CB03C7
0719DE14AE83080F93602A76C40415
0719EA14AE86080F93602B76C70417
0719F114AE82080F92602B76C6047B
0719FA14AE88080F8D602876CA0485
0719F714AE82080F8C602B76CF0489
0719F814AE82080F88602A76CF0477
071A0014AE7E080F86602976CF047A
071A0114AE82080F82602A76CF0426
071A0914AE78080F7E602A76D20429
071A1614AE7D080F7D602676C80456
071A1814AE83080F78602976CF045A
0719FC14AE8B080F74602776D004B3
0719DE14AE82080F6F602976CE04B7
0719C314AE83080F6B602776CF0418
0719AE14AE86080F67602776C80418
0719A014AE86080F64602776C90424
07199C14AE83080F65602776C90424
07199414AE8B080F6A602676C80416
07198F14AE86080F6E602776C70418
07198D14AE88080F75602876CD03E4
07198C14AE82080F7C602576C703E8
07198C14AE86080F7F602676C803D7
07198914AE8D080F80602576C803D5
07198B14AE8B080F81602476CE03B5
07198B14AE82080F81602676D403B5
07198714AE83080F7D602776D603C4
07198214AE8B080F7C602276D103C4
07197D14AE8B080F7C602676D60446
07197C14AE83080F7D602376D30448
07198414AE8B080F7C602576DA03F3
07198614AE86080F7C602676D803F8
07198914AE90080F7C602576DB045B
07198C14AE92080F7B602376D70459
07199014AE90080F79602276D70447
07199414AE90080F75602376D70449
07199214AE8D080F75602376DC04DC
07199014AE90080F70602376D4059A
07198D14AE90080F6F602076D9059B
07198714AE92080F69602276DF0431
07198014AE48080F59602376DE043B
07197F14AE9A080F43602076DD0427
07197614AEA1080F31602176E10427
07196914AEA8080F1E602176E203E7
07195C14AEA8080F10602476E203E6
07195214AEA1080F00602276E303E7
07194D14AE9E080EF4602076E703E5
07194E14AE9E080EE5601F76E50405
07194C14AE97080ED6601F76E90408
07194B14AE95080EC8602076E6047B
07194814AE90080EB4602076E70473
07194514AE88080EA0602076E8047B
07194014AE86080E8B601E76E40479
07193A14AE8B080E73601F76E70419
07193314AE82080E5C601E76E90419
07192B14AE7E080E48601D76EA0416
07192814AE82080E30601F76E30418
07192014AE73080E14601D76E5050E
07191614AE19080DF8601E76E8050A
0718FD14ADB8080DD5601D76E90416
0718E414AD88080DAE601976ED041A
0718CE14AD1B080D88601C76F00417
0718B514ACA2080D60601B76F1041A
07189A14AC72080D3A601B76F10435
07187A14AC3C080D16601C76F40438
07185414AC4B080CF3601A76FA0447
07183014AC76080CD7601B76F90449
07181D14ABF5080CBC601A76F804B7
0717F514ABF5080CA5601A76F904B7
0717D614ABB2080C94601B76FD04B7
0717A114AB11080C83601A76FF051A
07171B14AB43080C71601976FD0517
0716C514AAAF080C5F601976FB0447
07167E14A92C080C49601876FC0445
0715A014A955080C32601977020497
0714F814A8DE080C1A601B77070499
07148E14A7C4080BFE601977070508
0713D714A7B9080BE3601977130507
07135114A6CF080BCE6018772004DA
0712BB14A690080BB26016772D04D5
07123D14A5C3080B9B6015772F04DA
0711A714A589080B826018773B04DA
07111714A3FA080B686017774D04E6
07102414A206080B4D6018776504E6
070E6A14A0F1080B2F601877790515
070C9014A049080B126017778F0518
070AFC14A03B080AEF601777AA0538
070A1114A055080ACD601877BB0535
0709BA149FAC080AB0601777D2053B
070944149F3E080A8D601577DF0537
0708AB149E9E080A70601778160618
07080B149E75080A55601678200618
07076D149DEE080A3B601378510585
0706C2149DBB080A2360147867058C
070630149D9A080A09601378880627
0705D5149CC50809EE601478AD062C
07056F149BD00809D4601578CC065A
0704C6149A6E0809BB601578F0065D
0703F414993E0809A36013790C0657
0702E21497A90809846013792A0658
0701691495440809696012794E0658
06FF981491B308094860107971065B
06FCD814913F0809296013798F0656
06FAAA148E2D080909601279C10719
06F8AE148AC00808EA601279E60717
06F5D114868F0808CB60107A1C070A
06F2D01487CF0808AF60107A51070A
06F0C414873308088E60117A910729
06EF671484FB08086E60107ACB072A
06ED481482EF08084E600E7B1E076B
06EA2C14812008082B60117B700765
06E6D3147F46080807600F7BCF07A7
06E372147F7C0807E360107C4D07A4
06E178147EAB0807BE60107CBE0795
06DFEE147F1908079E60117D330795
06DF79147BB7080782600F7DAE07C2
06DDA8147935080767600E7E3207C3
06DA9514712708074C600E7ED007CF
06D60B14674D080735600E7F7B07D2
06D32B145960080719600E800F06B7
06D16F143957080702600E80A006BA
06CF941427480806E6600F81410567
06CF16140D460806C9600D81E6056A
06CF4F1400390806AE600E828D0558
06CF1813F239080697600D8330055A
06CE7513E68008067E600E83C604FA
06CDA113CC9808066F600D844804F9
06CCA313B3DB08065F600A84A205AA
06CA6E139025080650600C84E505AA
06C52A1389D4080644600A85140865
06BF8113616C080635600C85400869
06B93E134A91080627600C85590E7E
06B0C0132CB9080616600885720E80
06A605132172080601600B858F1568
069C2E1324800805EA600C85C317B1
06963F131D9C0805D2600985E017AC
0692981314BE0805BF600A86071D56
068FE5130A6E0805AA600B864A1D53
068D8413017D0805976009869D1FCD
068ACD12F4FC080585600A87151FCD
06882112EF8C080572600B87A7202F
06865212EE0A08056560088826202B
06856612E657080556600988CA2247
0684B212DC61080547600889542247
06839112DD13080539600889E621F6
06827C12DBA008052B60068A6D21F8
0681F012D11B08051E60098AEB210C
06811D12CC4408051160068B63210C
06804B12C75F08050560068BDD1F5C
067F9C12C4970804F560058C441F61
067EE212C10B0804E860088CA9209C
067E3312BEA40804DA60088D08209B
067D8112C09F0804C960068D5E210B
067D1112C1090804B760078DB12108
067CEA12C16E0804A560048DFB1F24
067CFF12C1CF08049060078E3A1F21
067D2512C28D08047D60068E7E1EE5
067D5412C1D408046B60078EB71EE1
067D4D12BF4908045660048EE61F0F
067D1612BBDE08044160048F191F11
067CAC12BA7108042B60058F421E96
067C4A12BAA608041760048F6E1E94
067C2F12BB7208040060028F881E71
067C5212BC2D0803ED60048FB01E75
067C8C12BCEF0803DC60058FC91EEF
067CBF12BC030803CB60038FE41F7C
067CCA12BA190803B960038FFB1F7A
067C9212B9030803A860039010204C
067C5612B87B08039760049026204C
067C4412B73A080385600290351E43
067C2512B648080373600190471E43
067BEC12B583080367600490501E00
067B9F12B60B080360600390681E02
067B7B12B56D08035F600290761CE4
067B5A12B5EC08035B600290801CE7
067B5712B42C08035A600190891DD6
067B2412B35808035A6000908F1DD3
067ACC12B37D080362600290961B85
067A9112B35A08036B600090A11B87
067A5E12B30E080375600090AC1A98
067A3212B2C008037A5FFF90AC1A9A
067A0D12B1CA080379600190B219EA
0679F312B1E8080373600190BE19EB
067A0F12B15408036C600090BC1A77
067A4412B1420803675FFD90BC1A77
067A6012B01808035E600090C11AAD
067A4512AF8F080359600090BA1AAA
0679FB12AFD20803555FFF90C81A9A
0679D812AFD70803535FFF90D11A9C
0679E512AFFA0803535FFF90DA1B95
0679EF12B0670803555FFE90E31B93
0679DF12B0D90803595FFC90E51B0D
0679D112B12008035F5FFD90ED1B0B
0679C812B2900803655FFE90F41A88
0679BD12B34C0803695FFF90EF1A8C
0679C112B29E08036B5FFC90FC1A3B
0679DD12B2520803685FFE90FF1A3B
067A0312B19A0803655FFC90FF1A38
067A4412B1E90803665FFD91031A4D
067A8012B3BA08036B5FFD91031A47
067A8412B52708036E5FFB91041A2B
067A6E12B5220803715FFC91051A2D
067A5412B4E00803745FFF91021A78
067A4C12B3EF0803785FFC91021A78
067A3612B22B08037A5FFC90FE1AA9
0679F712B2BA0803825FFC90FB1AAA
0679D712B3510803865FFD90F91BD6
0679D512B33F0803885FFC90FA1BD5
0679CF12B3130803825FFC90FB1DB4
0679C512B2E80803785FFB90FC1DB6
0679D012B32508036D5FFA90FD1AFB
0679F812B3480803645FFA90FD1AFB
067A1312B32A08035E5FF990F81C23
067A2C12B35508035F5FFB90F81C24
067A3012B18408036A5FFB90FE1C28
0679FE12AE2408037D5FFA91011C26
06798412AE8A08038F5FFC910E1C38
06793B12AE810803995FF991161C31
06791912AEB90803A75FFB911A1D53
06791112AE590803B35FFA91241D58
06790A12AE5E0803BC5FFA91261CD1
06790612AE550803C55FFA912A1CD6
06790712AE610803D05FFA912E1D99
06790812AEBA0803E05FFA912B1D95
06791412AF650803F75FFA912A1E13
06792E12B26108040B5FF891301E15
06798512B3060804205FF891301E06
0679E112BE4308043A5FF8912E1E01
067AB812C28C0804505FF791281E01
067BFC12C5500804655FF8912B1FDE
067CC712C31B08047E5FFA912A1FDC
067D2812C41F0804935FF991271F12
067D8312C68F0804B05FF991271F13
067DC012C3A60804CE5FF691211E75
067DAD12B5C90804EB5FFA911A1E76
067C8112B2C008050B5FF891141FAB
067B2C12B1E80805345FF991201FAE
067A6812B09C08055F5FF8911E200B
0679E512B7DD0805905FF89119200E
0679F712E9440805C45FFB911E216C
067BED1301990805F55FF991162168
0681BD13638108062C5FF791051988
069A4B139C750806625FF9907F198C
06B26E13B7D10806975FFA8FBE052B
06BFFF13D0100806CC5FFA8F400527
06C751140B820807015FFA8EDE0439
06CB32142AB00807345FF88E6E043A
06CBC91453E60807665FF98DE00586
06C7A3146F7D08079B5FF88D580587
06C4B11475E60807D25FF88CBE076A
06C69814782008080A5FF78C25076B
06CA60147BC80808485FF78B9C08D1
06CEA2147E390808845FF88B4D08D4
06D3B21480C10808C15FF98B2D08B6
06D9AD1481060808FC5FF98B3608B6
06DF391480B30809375FF98B2707B4
06E2C41480210809755FF98B1A07B3
06E527148CDC0809B15FF88AFC08D5
06E9BC1490A40809EC5FF88AC808D8
06F003149842080A2B5FF98A5C079E
06F69C149AF6080A6C5FF889DB0772
06FC0F149D4E080AAE5FFA894B0772
06FF8F149D7D080AF25FF988B406A9
07016F149D89080B385FFA882B06A9
070259149DB7080B7C5FFA875C058C
0702DC149F45080BBF5FF8869A0587
0703F114A066080BFF5FFA85C40597
07064114A15F080C455FF884F10599
07087214A359080C895FF884200598
070A7414A46F080CCC5FF783580596
070C5A14A738080D105FFA829404F8
070DD314AAE9080D575FFA81E704F9
0710A114AB35080D9E5FFA812F04D9
07139A14AB95080DE55FFB808604D7
07159B14AC50080E2A5FF97FF5059A
0716F814AD36080E715FFB7F530598
0717BD14ADAE080EB35FFA7EBF03C4
07182B14AE5F080EF95FFB7E3B03C6
07186A14AF0D080F3A5FF87DAE03FB
0718AA14AF1B080F805FFA7D3103F7
0718DD14AF25080FC75FFD7CBA0467
07192214AF1B08100D5FFD7C450467
07197E14AF170810545FFA7BE40408
0719C014AF070810A05FFB7B740409
0719F414AF080810E85FFC7B1A03D8
071A1E14AE900811345FFC7ABD03D5
071A7114AE8B08117C5FFA7A720466
071AC614AE740811C85FF97A290466
071AF914AE650812165FFB79E40417
071B1A14AE480812655FFE79A40417
071B3914AE370812B75FFD79670409
071B4D14AE130813055FFB792F0408
071B6B14AE180813565FFD78FA042E
071B8414AE040813A55FFB78C8047A
071B9E14ADFB0813F55FFE78950476
071BB714AD620814435FFD78640435
071C0614AD3F0814925FFF785B0437
071C6214AD4A0814DC5FFF78250449
071C9014AC550815275FFC77F20443
071D4314AA6F08156D5FFD77D10408
071FB214A9720815B25FFE779F0406
07236C14AA3C0815F25FFF776704A7
07269814AAF30816335FFE773104A7
0728EB14AAE30816775FFE77040417
072A7614AAA00816BB5FFD76C70416
072B6D14AA9D0816F9600076980388
072C0314AAED08173A5FFE76560387
072C7114ABD308177B5FFF762205CC
072CD114AC880817BB600075D405CE
072D1214ACFD0817FD600075970408
072D3B14AD7E08183F6000754F0404
072D4914ADFA0818856002750F032C
072D4E14AD3B0818CB600174D3032A
072DC114ACF30819116001749B035B
072E5814AD4408195D60007458035A
072EB714B07A0819A660017426035B
072DFA14B1E30819F6600373FD035B
072C7514B32B081A40600373DF0377
072B1914B652081A8C600373BC0375
07291C14B88B081AD76004739E030A
07272714B9D8081B256003737D030B
07258814BB65081B746003736F02CA
07242014BC6D081BBF6001736902CC
07230114BCD2081C106004736702AC
07226814BEFE081C5D6003737702AD
07221714BFB2081CA86005738C02AA
07225414BC5A081CF3600473AC02C1
07250714B85B081D3D600573D102BB
07295914B5ED081D87600473EF029D
072D7014B532081DCF600674010297
07301214B510081E146005742602CB
07317414B4E4081E5A6005743C02CC
07322914B4CC081E9E6006745302EB
07328314B4B9081EE36004745602ED
0732BB14B3FD081F296007744E02CD
07333414B3DD081F716005743B02C9
0733A014B3AC081FB760087425034B
07342914B57F08200160077404034D
07345E14B6A408204D600573E602ED
07341614B6F6082099600673C102ED
0733B914B7180820E16007739D02DC
07337414B74D08212F6005737B02DC
07334014B78F08217D6008736102EF
07331314B8170821C86007734502EE
0732E314B89E08221960097327031C
0732B114B92F08226660097311031C
07327D14BA710822B4600872FE030D
07322614BC4B082301600872E7030C
07319114BD6D08234F600872E102CD
0730E414BD9808239A600972D902CC
07307014BE570823EA600C72D002BF
07300814C1B1082431600972D402BE
072EE514C23908247A600972D6032B
072DC114C42B0824C2600C72DE032B
072CB614C58B082507600B72E903B7
072B8514C4FB082552600B72FC03B8
072AE514C62D08259A600A731302DB
072A6714C7290825E1600B732202E0
07299F14C7AE08262D600D734302DA
07290114C8FA082674600B736A027C
07285514C9B70826BC600B738B0279
0727A514CDF2082703600C73BB025A
07262F14D3F908274E600C73E4025E
0723B414D49B082797600C7419020E
0721F314D4D90827E4600D744F020A
07211C14D50E08282F600C7483020C
0720BD14D52708287B600C74B7020A
07209F14D53F0828C8600B74F7020E
0720B014D588082916600E753E020C
0720D014D5A2082962600D758001FA
0720EA14D5E50829B2600E75C601FD
0720FD14D6070829FE600F761301DC
07211314D61F082A4B600D765501DC
07212814D68F082A99600E76960220
07212D14D709082AE7600D76CD021C
07216E14D6BB082B31600E770B01F6
0722BB14D63C082B7E6011773901FD
07249714D615082BC8600F7761020F
0725DC14D60C082C1660107783020D
07269714D5FD082C61600F77A001FD
07270E14D5DB082CAA601077B901FA
07277814D5EE082CF3601077C201FC
0727AF14D5BB082D3D600E77C001FD
0727E414D535082D84601177B8020B
07287914D527082DCC601177A2020C
0728F214D4E7082E18600F7787020E
07295514D455082E686012776A020F
072A1014D392082EB3601177510219
072B5914D31A082F0260117724021B
072CDC14D2E8082F516011770801FF
072E1D14D282082F9F600F76E001F9
072F0314D25B082FEF601076B20219
072FB214D23D08303C60117697021F
07302314D20908308A60107665021F
07308314D1EB0830D46011763A0248
0730D914D1F008312460157608024A
07312214D1DC08316C601175D4020C
07316A14D1850831B86011759E0209
0731EF14D1670832036013756A026B
07328714D11D08324B60127538026A
07335F14D11908329360137502021E
07341A14D10B0832DA601374D7021F
07348C14D0C7083321601274A4023A
0734F114D09B08336660127478023B
07354B14D0A70833AE60137449022E
07357B14D0910833F46013741E022D
07359814D07E083438601273F7021F
0735BA14D07408347B601473CA021C
0735D314D05C0834BF601273A4020D
0735F814D03A0835036015737A020C
07363514D04A0835476014735B020C
07365414D04308358B6014732A020D
07365F14D03A0835D160137306021B
07367314D03A083618601272EB021D
07369114D03A083667601472CB021C
0736A914D0360836B2601372AD0220
0736B214D03A0836FE60137297020C
0736BA14D00E08375260167278020F
0736EC14CFF60837A460157261022C
07373314CFFF0837F86015724E022C
07376014D00808384C601372390229
07377314CFFF08389E60147220022B
07377F14D0090838F36014720D022A
07378314D009083944601571FE022B
07379114D009083994601471E8020E
07379D14D0090839E2601371D8020A
0737AA14D00D083A2F601571C5020C
0737B614D01C083A78601371B7021F
0737BF14D026083AC3601571B30219
0737C614D035083B096016718D02AB
0737CC14D02B083B4F6014717002AC
0737CE14D045083B9860147177024B
0737C914D052083BDF601471780249
0737CE14D061083C256013714701FA
0737D914D057083C6A6015716101FD
0737DD14D05C083CB160147143021C
0737E414D040083CF660157150021C
0737E714D021083D3960167140022C
07381314CFFF083D7F60127136022C
07386D14CF94083DC360157128023F
07390714CF47083E0C60147123023E
0739D514CF38083E56601471190251
073A6214CF30083E9E6012710F024D
073AA814CEFE083EE5601471080220
073AEB14CE89083F2A601470F7021E
073B8914CE36083F72601270E3020D
073C5614CE36083FB9601470D6020A
073CD114CE07084001601370C001EA
073D3114CDB808404D601370B301ED
073DA214CD6A0840956014709C01F9
073E1A14CD0E0840E46015708501F9
073EA614CCB208412E60117067026D
073F5614CC9008417B6014704C026B
073FD614CC4C0841C66012703A021C
07404A14CBEA0842136014701B021D
0740E014CBC408426060136FF601DD
07416914CBB00842AD60136FDD01DD
0741C814CB710842F960136FC0020C
07423914CB3708434760136F9D020C
0742CA14CB2308439560166F82021B
07439614CB100843E360146F56021C
07446A14CAE408442C60136F3E021C
07454F14CAC308447960136F1901FA
07463814CA8D0844C060146EF901FF
07471414CA7908450860146ED201E8
0747CC14CA6B08454F60136EA401ED
07485F14CA6108459260136E8101EA
0748D414CA610845DB60156E6401EC
07491514CA6608462460126E3501FC
07494214CA6B08466C60126E0201FD
07496F14CA580846B860126DD1022D
0749CC14CA4D08470360126DA0022F
074A2A14CA3108474F60156D7D01DD
074A8C14CA1D08479A60116D4401DD
074B0F14CA0A0847E660126D1B01BC
074BDB14CAE408483260146CEC01BC
074CED14CBC808488060126CB901CD
074E6014CC5A0848CC60136C8701CA
074FBC14CD4D08491660116C56019C
0750D814CDD508496260106C26019A
0751CB14CE010849AB60126BEE01BF
07525814CE3A0849F660126BB901BA
0752A014CE62084A3E60106B82019D
0752D114CE67084A8560126B24019C
0752FB14CE75084ACD60116AD101C0
07530F14CE7A084B13600E6A7801BF
07531914CE82084B5760126A1B01AC
07532114CE84084B9A601169BE01AC
07532B14CE89084BDF600E695E01AD
07533A14CE8E084C226013690C01AF
07534D14CE93084C67601168B101AA
07535E14CE87084CAF6010686001AC
07536214CE8E084CF66011681401AD
07536B14CE93084D40601367CF01B0
07536F14CE98084D89600F678D01AD
07537514CEA1084DD6600F674A01AD
07537514CEA0084E226010671201AD
07537814CEAB084E6F601066E20199
07537D14CEB0084EBD600E66AE01A0
07538114CEB5084F076010668801C0
07538714CEB0084F526010666201BF
07538314CEB0084F9A600E662D01EA
07537F14CEC4084FDF6011661E01ED
07539014CEC8085027600F65F7019C
0753AB14CECD085070600E65D1019A
0753C214CECD0850B6600E65B201AF
0753D314CECD085102600D659601AA
0753DE14CED4085148600E658101AA
0753E314CED2085192600D656B01B0
0753EF14CEDC0851D9600D654F019C
07540414CEDC085223600D6539019A
07541C14CEE5085269600D6523019A
07543B14CEF80852B3600D6511019D
07546E14CF070852FD600D650D019D
0754A114CF2E08534A600D64F5019C
0754E314CF72085397600E64EB01AC
07555314CF810853E1600C64D101AA
0755B914CF9C08542D600D64C4017F
07561D14D026085479600D64B5017D
0756E214D0260854C6600D64A0017F
07578F14D061085511600B6488017E
07580D14D0FC08555D60096474018D
0758AA14D0E40855AA600B645A018E
07590414D0D00855F2600C642E018C
07592514D0DA08563D600C6415018A
07593514D11008568A600B63F2018D
07595814D1320856D1600963BD018F
0759A814D145085718600963A4018B
0759EB14D14B08575C600A636B018E
075A2014D1DC0857A4600963340189
075A6D14D1D20857EA600A6304017E
075AA814D1E608582F600962D1017C
075AC414D1E6085875600B6299017E
075AD714D1F40858BF6009626F0177
075AE614D1EA085906600962420191
075AE714D1E108594C6008620F0189
075AE214D203085991600961E4017E
075AEB14D1F40859D7600861B6017C
075AEB14D1F9085A1B60086193018A
075AEA14D209085A616009616B018D
075AF114D203085AA660066145017F
075AF214D203085AEA60056120017D
075AF314D212085B2D600860FA018A
075AF514D212085B70600860E0018C
075AF714D217085BB8600760C0017D
075AFA14D219085C00600760A80179
075AFC14D212085C4960076091017C
075AFF14D225085C8F60066081017D
075B0514D22A085CDB60046067017D
075B1014D23D085D2160056058017C
075B1C14D23D085D6B600460410179
075B2714D239085DB360056034017F
075B3314D256085DFD600660230169
075B4514D264085E4760036016016D
075B6014D278085E976005600D019D
075B7B14D278085EE560045FFA019C
075B8D14D27F085F3460045FEB017E
075B9714D282085F8660045FE1017D
075B9D14D282085FD260035FD1017B
075B9F14D28208602460045FC6017C
075B9D14D28208607160025FB8017D
075B9C14D28B0860BF60045FA8017F
075BA014D28A08610860035F9A018C
075BA114D29008614E60025F8E018D
075BA314D29008619260015F83018C
075BA514D2950861D960005F76016A
075BA814D29508621B60025F68016B
075BA914D28F08626060015F5D018A
075BA414D2A408629E60005F55018A
075BA814D29F0862DD5FFF5F51018C
075BB114D2A408631760005F47018A
075BB314D2A40863545FFF5F3E0169
075BB314D2A408639160005F360170
075BB214D29E0863CC5FFE5F34017E
075BB114D29A08640D5FFE5F29017E
075BAF14D29508644E5FFE5F27017A
075BA314D29A0864925FFC5F20017C
075BA214D29F0864D85FFE5F1601C0
075BA514D2A408651E5FFD5F1601BD
075BA714D2A30865665FFC5F17017A
075BAC14D2B70865AA5FFE5F0F017D
075BB114D2B70865F15FFD5F02017E
075BAC14D2C60866375FFE5EFA017B
075BB114D2A908667B5FFC5EFF017D
075BAB14D2A30866B95FFC5F02017E
075B9C14D2B20866EE5FFB5EFF018A
075B9A14D2C608671E5FFB5EFF018B
075BA514D2D00867495FFB5EEE016B
075BB914D2D00867745FFB5EF8016A
075BC614D2E308679B5FFB5EEB017D
075BCB14D2E10867C05FFB5EF2017B
075BD414D2D00867E65FF85EEC0169
075BD214D2D90868095FF85EE5016B
075BD014D2ED08682A5FF85EDF016E
075BDC14D2E808683F5FF75EDC016C
075BE514D2EB0868475FF95ED30177
075BE414D2ED0868485FF85ED4017B
075BDF14D2F608684A5FF85ECE0175
075BD814D2F608684C5FF65ED20169
075BD114D2F608684B5FF65ECE016A
075BCD14D30008684E5FF65EC3016B
075BCB14D2F608684E5FF65EC2016C
075BC914D30008684D5FF55EC30159
075BC714D30008684E5FF55EC10159
075BC814D30008684C5FF35EB8019D
075BC514D30508684B5FF75EB8019C
075BC714D30008684A5FF55EB9018A
075BC914D30008684A5FF65EAA018A
075BCC14D30A08684A5FF45EA8016B
075BCD14D30A08684B5FF25EA4016C
075BCF14D30F08684B5FF35EA9017D
075BD414D30A08684F5FF25E9D017B
075BD614D30A0868515FF05EA0017D
075BD714D3050868555FF35E9D0179
075BDD14D30A0868575FF25E9A017E
075BE314D3000868575FF05E9A017D
075BE714D30508685E5FF05E990167
075BE914D3050868615FF15E94016C
075BEA14D3050868645FEF5E8D0169
075BE914D30508686A5FEE5E90016B
075BE814D30508686B5FF05E830168
075BE714D30A0868725FEC5E8C016A
075BE514D3050868745FF05E82016D
075BE514D30508687A5FEE5E87016B
075BE514D30008687D5FED5E83017B
075BE714D3050868805FEE5E84017C
075BE514D3050868855FEB5E82016B
075BE414D3000868885FEB5E82016E
075BDF14D30508688A5FEB5E84016C
075BDE14D30008688A5FEA5E84016C
075BDC14D2FB0868885FEA5E87016C
075BDC14D2FB0868855FEA5E860169
075BDF14D3000868825FE95E84016C
075BDC14D30A08687E5FE95E7F018D
075BD614D30F0868785FE95E87018D
075BD114D30A0868715FE85E85016B
075BD514D30F08686F5FE85E84016E
075BD914D30A08686D5FE75E85017C
075BDA14D30A08686F5FE75E810179
075BD414D30A08686D5FE65E82018C
075BD314D30A08686F5FE55E85018B
075BD514D30A08686D5FE65E83017D
075BDB14D30508686E5FE55E85017C
075BE314D30508686F5FE45E85017C
075BE214D3050868725FE55E83017F
075BE014D3050868735FE65E84015D
075BD814D3050868775FE35E86015E
075BCF14D30508687A5FE35E7E0189
075BC914D30508687D5FE45E84018D
075BC514D30008687F5FE25E7E017C
075BC514D2F60868805FE05E82017C
075BC514D2F60868835FE35E81017E
075BC814D2FB0868815FE35E7F017E
075BC414D30508687F5FE15E84017D
075BC814D30A0868805FE05E810180
075BC214D3050868815FDE5E81018C
075BBF14D3000868815FDF5E88018C
075BC314D2FB0868815FDC5E820190
075BCC14D3000868855FDE5E85018B
075BCC14D3050868865FE05E87017D
075BCA14D3050868895FDF5E890179
075BC714D30008688A5FDD5E7F017B
075BC614D2FB08688A5FDE5E81017B
075BC114D3000868885FDD5E80017B
075BBD14D2FB08688A5FDD5E7E017F
075BB914D2FB08688A5FDC5E83018F
075BBD14D2FB08688F5FDC5E83018E
075BC014D3000868915FD95E81018B
075BC214D3050868965FDC5E88017D
075BC114D3000868985FDA5E81017C
075BC014D2FB08689B5FDA5E800190
075BC214D2F608689F5FD95E7E018B
075BC514D2FB0868A05FD95E7B018D
075BC514D2FB0868A25FD95E7C018F
075BC014D2F60868A15FD65E81017E
075BBE14D2F60868A05FD75E7A017C
075BBF14D2FB0868A15FD65E7B0170
075BBE14D2F60868A45FD65E82016B
075BBD14D2F20868A55FD55E7F019F
075BC014D2F60868A85FD65E7D0199
075BC614D3000868A85FD55E7D017B
075BC714D3000868AA5FD65E84017C
075BCD14D3000868AA5FD45E82017D
075BD714D30A0868AB5FD45E80017F
075BDC14D30A0868A85FD25E83017D
075BE014D3140868A95FD15E82017A
075BE014D31A0868A45FD15E7F017D
075BDA14D3140868A35FD15E7D017C
075BDD14D31408689F5FD15E82016B
075BDC14D30A08689D5FD05E82016C
075BE214D3050868995FD05E7A019D
075BE814D30F0868995FD15E7A019F
075BE514D3050868975FD05E76018D
075BE914D30A0868965FCF5E78018A
075BED14D3050868955FCE5E790189
075BEE14D30A0868935FCE5E77018C
075BF014D3050868925FCE5E75017A
075BF314D30A0868915FCD5E700180
075BF414D30A0868925FCD5E6E01A8
075BF014D3140868925FCC5E7401AD
075BF014D30F0868935FCC5E75019D
075BEF14D3190868945FCD5E74016E
075BEF14D3140868975FCC5E730168
075BF314D3140868975FC85E7201AA
075BF814D31F0868965FC95E6E01AD
075BF714D3220868955FCA5E68017F
075BF214D3220868945FCA5E72017B
075BEF14D3270868915FC95E6A018B
075BF014D33108688D5FCA5E6F018D
075BED14D32E08688E5FC75E69017B
075BEE14D32C08688B5FC95E650180
075BEA14D32C08688A5FC65E60017E
075BE814D33108688C5FC75E62017B
075BE814D32708688C5FC65E5E018E
075BEA14D3270868935FC65E5E018C
075BF014D3240868975FC75E5A0189
075BF914D32208689E5FC35E60018C
075C0214D3220868A35FC35E62016A
075C0414D3220868AB5FC55E5B016D
075C0814D3190868B15FC35E60017A
075C0C14D31D0868BB5FC35E590181
075C1114D3240868C15FC35E580189
075C0F14D3220868C65FC35E54018D
075C0F14D3220868CD5FC25E560170
075C1114D31D0868CD5FC25E5B016C
075C1214D3270868CF5FC15E50018A
075C1214D3290868CA5FC15E55018A
075C0B14D32C0868C65FC15E560179
075C0814D3310868BF5FC05E57017B
075C0714D33F0868B85FBE5E55019A
075BFC14D33F0868B15FBD5E51019C
075BF814D33B0868AA5FBF5E51019A
075BF214D3430868A15FBF5E4B019F
075BF014D33B08689D5FBD5E4E01AD
075BEC14D33F0868975FBD5E5201AD
075BED14D33B0868925FBA5E4501AD
075BEC14D3310868905FBC5E46018B
075BEF14D33608688E5FBD5E410188
075BF214D33808688C5FBB5E47017C
075BF414D33608688A5FB95E47017B
075BF814D33B08688A5FB95E4201DD
075BF614D33B0868895FBB5E4601DD
075BF614D32C08688A5FB75E3F018A
075BF614D32E0868875FB85E51018F
075BFB14D33608688A5FB75E45016C
075BF614D33F0868895FB85E43016F
075BEC14D33B0868825FB85E4E016A
075BE914D3490868835FB75E52016B
075BE614D3490868805FB75E53017E
075BE414D3480868825FB85E40017D
075BDE14D33F0868845FB45E510189
075BE214D3360868855FB55E47018A
075BE714D33108688A5FB55E4F01A9
075BEF14D32C08688F5FB35E4F01AA
075BF814D32C0868955FB55E3E0179
075BFB14D3290868975FB35E43017E
075BFE14D32C08689D5FB25E44016B
075BFF14D3220868A45FB45E45016B
075C0314D3220868A75FB25E4B018A
075C0A14D3190868B05FB05E44018D
075C1614D3190868BA5FAF5E46017B
075C1B14D3140868C35FB15E53017D
075C1F14D3140868CA5FB05E4501AA
075C2214D30F0868D15FAF5E4701B0
075C2214D30F0868D75FAD5E47020E
075C2514D3140868D75FB05E46020B
075C2514D3140868D95FAF5E45018B
075C2214D3190868D45FAD5E56018D
075C1E14D3270868CE5FAD5E510170
075C1614D32C0868C85FAD5E55016D
075C0A14D32C0868C35FAC5E3F016B
075C0214D3360868BB5FAA5E47017E
075BFF14D33E0868B25FAE5E46017C
075BF414D33F0868AC5FAA5E46016D
075BEE14D33B0868A45FA85E460168
075BEE14D33B0868985FAA5E54018D
075BED14D33B08688F5FA95E520189
075BEF14D3440868825FAA5E510189
075BEE14D3430868785FA85E42018C
075BEB14D33B08686F5FA75E4F019D
075BEC14D3310868675FA95E47019D
075BED14D3360868615FA85E42018B
075BF014D32C08685D5FA65E4E018B
075BF414D32E08685D5FA65E4D01BD
075BF714D32708685D5FA75E4E01BF
075BFB14D3220868625FA75E53017E
075C0014D3220868665FA45E4F0177
075C0914D31D08686B5FA55E52017C
075C1314D3140868705FA35E54017B
075C1814D3140868795FA35E4B017B
075C1C14D30F0868805FA35E51017F
075C2014D3140868865FA35E53018D
075C2114D30F0868905FA35E55018D
075C2314D30F0868995FA15E4E019A
075C2714D30F0868A45FA25E41019A
075C2614D30F0868AE5FA15E54017A
075C2814D30F0868B55FA15E52017D
075C2614D3050868BF5FA15E4E017E
075C2814D30A0868C75FA05E4A0179
075C2914D30A0868CB5F9F5E4D017E
075C2A14D30F0868CE5F9D5E52017E
075C2714D30F0868D15F9D5E41017A
075C2714D3140868D05F9F5E45017B
075C2414D3190868CB5F9D5E42017A
075C1F14D31D0868C85F9B5E44018C
075C1914D3220868C15F9D5E35018A
075C1314D3240868BF5F9B5E43017C
075C0C14D32C0868B95F9C5E43017C
075C0814D3270868B15F9D5E36018B
075C0514D3270868A95F9A5E46018F
075C0514D3270868A55F995E47015A
075C0314D33108689E5F9D5E46015E
075BFC14D32E0868995F9A5E43017C
075BF814D32C0868945F9A5E38017D
075BF914D3270868905F9B5E45016A
075BF914D32C08688F5F995E48016C
075BF914D33108688E5F995E47018C
075BF414D32C08688E5F985E550187
075BF214D33308688D5F955E42018D
075BEE14D33608688C5F955E4A018A
075BE714D33108688F5F955E44017D
075BE914D32C08688E5F965E46017C
075BEE14D32C08688E5F955E49016C
075BF514D32908688F5F965E58016D
075BF114D32C08688D5F945E510179
075BF314D32C08688B5F945E4D0179
075BF214D32C0868865F955E4501AD
075BF314D3220868825F955E4801AA
075BF014D32C0868805F935E450177
075BED14D33308687C5F915E4F0179
075BEC14D33B0868805F915E480179
075BE614D32C08687F5F925E49017B
075BE714D32C0868845F925E53016C
075BE914D3310868875F915E4E0169
075BEB14D32C08688E5F915E53016E
075BED14D3290868965F8F5E52016B
075BF314D3220868995F905E4F016A
075BF314D32208689C5F905E53016A
075BF714D31D08689F5F905E50016B
075BF914D31D08689D5F905E47017D
075BFA14D31F08689E5F8D5E48017D
075BFE14D31D08689D5F8D5E46018C
075BFF14D3190868A35F8F5E55018C
075BFF14D3190868A25F8B5E51018A
075BFF14D31D0868A75F8B5E4E018A
075BFF14D31D0868AE5F8B5E4F017C
075C0114D31A0868B35F8C5E49017C
075C0114D3190868B75F895E56017A
075C0514D3190868B75F8A5E46017C
075C0314D31D0868B65F895E4A019D
075C0114D3190868B25F8A5E4F019C
075BFF14D31D0868A95F8A5E4E018A
075BFA14D3240868A25F885E53018C
075BF614D3220868995F885E4E018B
075BF414D31D0868915F885E500189
075BF514D31D08688A5F895E50017B
075BFA14D32208688B5F885E4F0179
075BFD14D31D0868855F875E4A017B
075BFC14D3140868875F865E4F017A
075BFC14D3190868885F855E48017C
075BFA14D31408688B5F875E4D017C
075BF614D30F08688D5F855E4A017C
075BF214D30A0868905F845E4E017B
075BED14D3050868905F855E520189
075BE514D2F608688F5F865E42018B
075BE114D2ED08688D5F845E51017C
075BD914D2F208688F5F855E4E017B
075BD514D2E80868935F825E3F018A
075BD214D2E30868975F845E43018B
075BCF14D2E108689B5F825E45019D
075BCC14D2D90868A65F835E42019A
075BCA14D2DE0868AA5F815E4C0176
075BC814D2D40868B15F815E51016D
075BC614D2D90868B35F815E530166
075BC514D2D90868B25F7E5E5C0178
075BC114D2D70868B05F7E5E5D017A
075BC014D2D90868AC5F7F5E62018A
075BBD14D2E30868A55F7D5E62018B
075BB814D2DE0868A25F7D5E67018B
075BB614D2E308689F5F7D5E680189
075BB314D2E608689F5F7D5E6D016E
075BB414D2E30868A05F7D5E71016C
075BB314D2E30868A15F7D5E7B018B
075BB314D2E308689F5F7B5E78018F
075BB114D2E308689C5F7B5E78018C
075BB314D2E80868995F7B5E7D018C
075BB214D2E60868945F7B5E7F017D
075BB314D2F208688F5F7C5E83017C
075BB014D2FB08688A5F7A5E81016A
075BAB14D2F60868865F7A5E84016D
075BA614D2F60868855F785E87018D
075BA514D2F20868845F795E81018B
075BA714D2F10868885F795E85017A
075BAB14D2E808688C5F755E7F0179
075BAF14D2E808688F5F775E86018C
075BB414D2E80868925F765E80018B
075BB514D2E80868965F765E81019A
075BB314D2E10868995F775E84019C
075BB414D2E308689B5F775E7F017C
075BB514D2E308689E5F765E7F017E
075BB314D2DE0868A05F765E82019A
075BB214D2E80868A25F755E7D019A
075BB014D2E80868A45F755E8201CF
075BAC14D2E60868A45F745E8201C9
075BAA14D2ED0868AA5F745E860189
075BA714D2E80868A85F735E84018C
075BA414D2ED0868A65F755E850188
075BA114D2F20868A55F725E84017F
075B9D14D2F20868A25F725E860179
075B9814D2F108689E5F715E85018B
075B9414D2F208689C5F715E85018D
075B9514D2F60868995F715E84016D
075B9514D2F60868955F6F5E85016A
075B9314D2F60868945F6F5E82017C
075B9214D2F60868945F705E84017A
075B9314D2F60868935F715E88017A
075B9214D2F60868955F6F5E88017C
075B9114D2F608689A5F6E5E86019C
075B9214D2F208689F5F6E5E92019D
075B9214D2FB0868A55F6E5E8E017B
075B9414D2F60868A85F6C5E8E0179
075B9514D2F20868AB5F6D5E8D0168
075B9614D2F20868A95F6E5E8E016E
075B9614D2ED0868AA5F6D5E8D018F
075B9914D2E80868A95F6C5E8F018D
075B9D14D2ED0868A55F6C5E8D017A
075BA114D2EB0868A15F695E900179
075BA114D2F208689E5F6A5E880187
075B9D14D2F608689C5F6B5E8B0188
075B9914D2F208689B5F6A5E85016A
075B9714D2860868985F665E85016D
075B9514D2F10868995F695E83019C
075B9214D2ED0868955F695E81019C
075B9314D2E80868935F685E82017D
075B9714D2ED0868935F665E830179
075B9514D2ED08688E5F685E80019A
075B9814D2ED08688D5F675E83019C
075B9514D2F108688A5F685E8901B6
075B9114D2F208688B5F665E8701BD
075B8E14D2ED08688D5F665E87017C
075B9014D2ED08688F5F655E87017D
075B9414D2ED0868955F655E8D017B
075B9614D2F208689B5F665E88019D
075B9514D2EB0868A25F655E90019A
075B9714D2E80868A65F645E90018B
075B9A14D2F20868A85F645E85018E
075B9914D2E80868A65F635E88019A
075B9B14D2E80868A45F635E8A019D
075BA314D2E60868A35F635E84016C
075BA614D2E80868A15F635E8C016B
075BA614D2E80868A05F615E90018B
075BA314D2ED0868A15F615E94018A
075BA214D2F20868A65F615E94018C
075BA014D2F20868A75F625E95018C
075BA014D2F10868A65F615E97016B
075BA314D2ED0868A75F5F5E92016E
075BA714D2F20868A55F605E91016A
075BAA14D2ED0868A35F605E92016E
075BAD14D2ED08689E5F5F5E94017D
075BB114D2F20868995F5F5E95017C
075BB314D2F60868985F5C5E8C0178
075BB214D2F20868955F5C5E8D017B
075BB214D2F20868945F5D5E89018D
075BB614D2ED0868935F5C5E87018C
075BB914D2ED0868925F5D5E93016C
075BBB14D2EB0868935F5C5E8D016B
075BBC14D2ED0868915F5B5E8F019F
075BC014D2ED0868945F5B5E910198
075BC214D2E80868955F5B5E8F017C
075BC414D2E80868975F5B5E920178
075BCA14D2E80868965F5A5E91019D
075BCA14D2EB0868955F5A5E95019A
075BC914D2F60868945F585E8E016B
075BCA14D2F60868935F5A5E90016D
075BCA14D2ED0868925F595E86016E
075BC714D2F20868955F595E8F016C
075BC814D2ED0868975F575E86016A
075BCD14D2E608689A5F575E88018B
075BCC14D2E308689E5F575E89018E
075BD114D2E808689F5F575E800170
075BD114D2E30868A25F565E86016F
075BCF14D2E30868A35F555E7B017D
075BCD14D2E10868A15F565E79017C
075BCA14D2E308689F5F565E78017C
075BC914D2DE08689D5F555E7B0179
075BC614D2DE08689C5F545E7A0188
075BC614D2DE08689D5F545E7D018A
075BC714D2E30868A15F555E76017C
075BC814D2DC0868A55F545E790179
075BC614D2DE0868A85F525E76017B
075BC814D2DE0868AA5F515E76017B
075BC914D2DE0868A95F525E79017D
075BCD14D2E30868AA5F515E7A017E
075BD014D2E30868A45F525E780177
075BD114D2E608689E5F525E7C017F
075BCF14D2E808689B5F505E7B0199
075BCE14D2ED0868985F515E78019A
075BCC14D2F20868935F4F5E7C0188
075BC814D2F20868915F515E7B0189
075BC614D2F108688F5F515E7A0179
075BC614D2ED08688E5F505E750179
075BCA14D2ED0868905F505E72016C
075BCD14D2E80868925F4E5E72016D
075BCF14D2E80868955F4F5E76019A
075BD014D2E80868955F4F5E7B019D
075BD514D2E60868975F4C5E7A0179
075BD814D2E80868955F4E5E74017C
075BD914D2E80868955F4E5E740197
075BDC14D2E80868905F4E5E75019D
075BDB14D2ED08688F5F4C5E710198
075BDC14D2ED08688D5F4C5E75016B
075BD714D2F10868895F4C5E7A0169
075BD614D2F208688C5F4B5E79018D
075BD514D2F208688E5F495E7B018B
075BD314D2ED0868945F4A5E730178
075BD714D2ED0868985F495E74017C
075BE014D2EB08689C5F485E740179
075BE614D2E808689E5F495E75017D
075BEA14D2ED0868A15F485E76017C
075BEB14D2F20868A35F485E73017F
075BEA14D2F20868A15F4A5E72017D
075BEB14D2F20868A35F465E75017B
075BE914D2EB0868A75F485E76016D
075BEC14D2F20868AA5F465E71016D
075BEE14D2F20868AC5F485E74017D
075BEF14D2F20868B15F455E73017C
075BF114D2F20868B55F465E6E017A
075BF214D2F20868B75F465E72017D
075BF214D2F10868B85F455E6A016A
075BF214D2F20868B45F465E72016B
075BF314D2F20868B15F435E730188
075BF514D2F20868AB5F455E6C018A
075BF514D2F20868A15F445E6E0179
075BF214D2F108689D5F455E6A017E
075BF514D2F20868965F425E6D017B
075BF314D2ED0868935F425E6C017A
075BF314D2F20868915F435E6F017D
075BF414D2F208688C5F425E6C0179
075BF114D2F20868895F425E670188
075BF114D2F60868885F405E6C018B
075BED14D2F60868875F445E670177
075BE714D2F20868855F3F5E670179
075BE114D2F60868885F415E680188
075BDF14D2F20868865F405E6A018B
075BE114D2ED0868895F405E620189
075BE514D2FB08688B5F3C5E67018D
075BE914D2F60868915F3F5E69018C
075BEB14D2F60868945F3F5E640188
075BEA14D2F20868965F3F5E6E018B
075BEA14D2F60868995F3B5E6A016A
075BEA14D2F108689C5F3E5E69016A
075BEC14D2ED08689F5F3D5E66017B
075BEF14D2ED0868A05F3F5E6C017A
075BEE14D2F60868A05F3C5E68017B
075BEE14D2F608689E5F3C5E61017F
075BF114D2F208689C5F3D5E5F017A
075BF714D2FB0868995F3C5E68017D
075BFB14D3000868975F3B5E65017B
075BF614D3000868955F3A5E60017D
075BF314D3000868955F395E66017C
075BEE14D30008689A5F3B5E620181
075BF014D2FB08689F5F3B5E64016C
075BF114D2FB0868A55F3B5E6B0169
075BF414D2F60868A75F3A5E6A016A
075BFD14D2FB0868AA5F395E69016A
075C0014D2FB0868AB5F375E60017D
075C0414D2F60868AA5F3A5E67017B
075C0614D2FB0868A55F395E5C018E
075C0914D2FB0868A25F395E5F018D
075C0914D3050868A15F385E63018B
075C0514D30008689E5F385E5D018B
075C0114D30008689D5F385E5B017A
075C0314D30008689E5F395E5C0177
075C0514D30008689D5F375E59018E
075C0714D3000868A35F385E5B018C
075C0A14D2FB0868A45F375E5801CC
075C0B14D3000868A45F355E5401CA
075C0A14D2FB0868A55F365E5901BA
075C0714D3050868A25F345E55018C
075C0914D2FB0868A05F355E520187
075C0714D2FB0868995F345E54016D
075C0A14D3000868995F345E5C016A
075C0914D3000868955F345E53017B
075C0514D3050868935F335E590177
075C0414D3050868945F345E57018F
075C0414D3000868935F345E5E0189
075C0014D3000868915F305E56017C
075C0214D3050868915F315E570179
075C0214D30A08688E5F325E5C01A0
075C0114D30008688E5F2F5E57019D
075BFF14D30008688D5F325E55017F
075C0414D2FB08688B5F315E57017C
075C0614D2FB08688A5F305E58019D
075C0A14D2FB08688B5F305E4F019C
075C0A14D30008688D5F315E52018A
075C0A14D2F608688C5F305E47018B
075C0714D30008688F5F2D5E51018F
075C0914D2FB0868915F2F5E4E018D
075C0B14D2F60868925F2D5E41019A
075C0F14D2F20868965F2C5E43019D
075C1214D2F20868935F2E5E4F018C
075C1414D2F20868955F2E5E35018C
075C1414D2F108689A5F2D5E46016E
075C1514D2F208689A5F2B5E460169
075C1214D2F208689A5F2C5E42018C
075C1414D2F208689C5F2B5E430189
075C1314D2F20868A05F2E5E3E0178
075C1514D2F10868A55F2B5E41017B
075C1614D2ED0868A75F2B5E45016E
075C1A14D2ED0868AB5F2C5E37016C
075C1A14D2E80868AF5F2C5E370168
075C1C14D2E80868B25F2A5E46016C
075C1E14D2E80868B15F295E3B016A
075C2014D2EB0868B25F2C5E32018B
075C1F14D2E80868B55F295E3C018B
075C2214D2E80868B45F2A5E47017B
075C2014D2ED0868B35F2A5E35017C
075C1E14D2F20868B25F2B5E3F017B
075C1B14D2ED0868B15F295E470178
075C1914D2F10868B05F285E3F016F
075C1714D2F20868AD5F285E39016A
075C1614D2F20868AE5F275E450178
075C1614D2F20868AD5F275E43017E
075C1614D2F20868A95F255E43018F
075C1414D2F10868A85F275E39018B
075C1514D2F20868A15F275E44016B
075C1714D2F608689C5F275E40016A
075C1714D2FB08689A5F275E48018C
075C1714D3000868945F275E46018D
075C1214D30008688F5F255E3D017C
075C0E14D2F608688F5F255E360180
075C0E14D2FB08688B5F235E41018A
075C0D14D2FB08688A5F255E46018D
075C0D14D2FB08688B5F245E460179
075C0E14D2FB08688A5F245E45017C
075C0C14D2FB08688C5F225E46016B
075C0C14D2FB08688E5F225E53016A
075C0C14D2FB08688D5F255E480199
075C0D14D2F60868905F225E43019A
075C1014D2F20868925F215E430178
075C1214D2F60868935F225E43017A
075C1314D2FB0868975F215E43017A
075C1514D3000868995F205E44017E
075C1314D30508689E5F215E470178
075C1714D3050868A45F215E46017C
075C1814D30F0868AB5F205E52017C
075C1914D30A0868B25F205E54017F
075C1D14D30F0868B45F205E4A017D
075C1D14D3140868B95F1E5E4E016B
075C2014D3190868B95F1E5E49016B
075C2214D30A0868B35F1D5E51019C
075C2314D30A0868AE5F1D5E46019A
075C1F14D3190868A75F1E5E44018D
075C1F14D30A08689F5F1C5E43018D
075C2214D3050868975F1E5E4A018D
075C2314D3190868875F1C5E460188
075C2314D31908687B5F1D5E49017D
075C2114D32208686B5F1C5E450179
075C2014D3240868545F1C5E4A017E
075C1D14D32208683C5F1C5E45017B
075C1F14D31D08681F5F1D5E42017D
075C2114D3220868015F1D5E42017C
075C2514D3270867E15F1B5E3E017B
075C2314D3220867C15F1B5E3B017C
075C2314D3240867A05F1C5E3A016C
075C2114D32708677A5F1B5E33016B
075C2014D3220867505F1B5E2E018D
075C2314D31D0867275F1A5E33018D
075C2614D3220866F75F1A5E270171
075C2514D31D0866C85F1A5E2D016D
075C2214D3240866935F185E2F018C
075C1D14D31D0866595F185E310188
075C1E14D32208661E5F165E2D018D
075C2214D31D0865E15F195E32018C
075C2214D3220865A45F185E2B018D
075C2314D31D0865695F175E2A018D
075C1D14D31408652B5F195E2D019A
075C1E14D31D0864EE5F185E2F019D
075C1B14D31D0864B15F175E2E019A
075C1914D30F08647A5F165E2E019D
075C1B14D30A08643D5F155E2A019C
075C1E14D30F0864025F195E30017B
075C2014D2F60863C15F165E30017C
075C2214D2F20863805F135E30018C
075C2114D2E30863385F155E32018C
075C1D14D2D00862ED5F155E34018C
075C1014D2C10862A55F135E37018A
075BFE14D2B80862595F135E31017B
075BEC14D2B208620B5F165E34017D
075BE014D2B70861C25F115E34018D
075BDB14D2B70861785F105E370188
075BD814D2AD0861305F135E32017B
075BD414D29A0860E45F115E370177
075BCB14D28A0860915F125E35017E
075BC114D28208603D5F115E3B0179
075BB514D273085FE75F105E3E0179
075BA614D278085F905F105E48017D
075B9B14D260085F3C5F105E3F017F
075B9014D25B085EEA5F105E47017B
075B8214D256085E995F105E50017E
075B7B14D251085E4B5F115E540180
075B7514D247085DFD5F0F5E5D0189
075B7214D247085DB65F105E6B0189
075B7114D23D085D665F0F5E6E017D
075B7014D23D085D1A5F0E5E740178
075B6A14D225085CCA5F105E81017B
075B5E14D217085C785F105E86017B
075B4D14D220085C2B5F0D5E8E018F
075B4514D217085BDF5F0F5E8E018A
075B3E14D214085B905F0F5E96018A
075B3514D217085B465F0D5EA1018B
075B3214D1F4085AFB5F0D5EA8017B
075B2514D1DC085AB35F0D5EAA017B
075B1114D1CE085A6B5F0C5EB5018B
075AFD14D1BA085A245F0D5EB9018D
075AEA14D1BC0859DC5F0B5EBF018A
075ADD14D1B50859945F0B5EC6018A
075AD414D1B508594F5F0B5ECF0188
075AD014D1A708590C5F0B5ED2017A
075ACC14D1A20858C75F0B5EDC017A
075AC214D1930858815F0C5EE2016B
075AB814D18E08583E5F0B5EEF016B
075AAF14D1760857F75F095EFF017A
075AA014D1710857B05F0A5EF5017E
075A9114D16C08576D5F085F01017B
075A8614D16C0857265F0B5F00017D
075A8014D1410856E15F0A5F0E017E
075A7014D14008569A5F085F1F017C
075A5F14D1280856525F085F1D018B
075A4D14D10B08560A5F095F2A018C
075A3314D1060855C35F085F37019A
075A1B14D0E408557D5F095F41019C
075A0014D0B30855335F065F4B018A
0759CC14D0830854EB5F085F52018B
07598C14D06108549E5F075F64018C
07594514D03F0854545F085F73018E
07590114D03A0854065F075F7B018C
0758CE14D0170853BB5F065F86018A
07589414CFEC0853705F075F9A018C
07584314CFCA0853285F085FAE0189
0757EE14CFE20852DC5F065FBA018B
0757BE14CF550852905F065FD0018C
07574E14CEFD0852405F045FE401AC
07569A14CEF40851F35F065FFE01AD
07561314CEEF0851A65F086012019C
0755C314CF110851595F0460370198
0755BF14CEF408510F5F05605101AD
0755BD14CEED0850C95F04607401AC
07559F14CECD08507F5F04609A0194
07556A14CEDC08503A5F0460CB018F
07554B14CEC3084FF55F0660ED018B
07552814CEBA084FAF5F056112019C
07550414CEBA084F6C5F046146019D
0754E514CEB5084F295F03615F01AD
0754CE14CE98084EE35F03618E01AA
0754A514CE7F084E985F0161B801BD
07545A14CE67084E4F5F0361D101BD
07540214CE5D084E055F0161F701AD
0753C014CE5E084DBA5F02622001AA
0753A214CE5D084D735F02624001C0
07539614CE5D084D2B5F00625D01BD
07539414CE58084CE35EFF6280019C
07538D14CE53084C9A5F00629C0199
07538B14CE44084C4F5F0162BD01AD
07538114CE40084C065F0062D501A9
07537814CE36084BBC5EFF62F7018C
07536C14CE31084B715F00630F018D
07536114CE23084B295F0163280197
07535914CE25084ADF5EFD633F019C
07535314CE2D084A965F02635801AF
07535614CE23084A4D5EFE636F01AA
07535114CE19084A025EFE637D019A
07534814CDF70849BB5EFF6396019A
07533614CDF20849715EFD63A101AC
07532814CDCB0849255EFF63B601AC
07531714CDD00848D95EFE63C9019A
07530B14CDBD08488D5F0163D8019A
0752FC14CD5C0848415EFE63E601AA
0752E214CD720847F55EFE63F901A8
0752C514CD4D0847AD5EFE640501CA
0752AD14CD130847655EFB641401CD
07527E14CCE208471B5EFC642101AA
07524F14CCB20846D25EFD643401AD
07521B14CC860846895EFD644301A8
0751E314CC550846405EFA645301BC
07519114CBEF0845F65EFD645F01BD
07511E14CBA20845AE5EFC648001C9
07509814CB9D0845655EFA649301CC
07503014CB8608451D5EFB64A101E0
074FEE14CAEE0844D65EF964C501DA
074F0F14CA9208448D5EF964EB01ED
074DBB14CA790844455EFA650801EA
074CAB14CA610844005EFA652901DD
074C0E14CA710843B85EFA655101DD
074B8914CA790843725EF8657B01DA
074B3214CA6608432B5EFB65B701DA
074ADF14CA610842E35EF865E701DD
074A6414CA7908429D5EF8664A01DD
0749C114CA7B0842555EF9666A01FA
07491314CA9B0842115EF866AE01FA
07484B14CAAF0841CB5EF866FA022B
07476D14CAC70841865EF9673F022B
0746B114CAC80841415EF8677E01FA
07462814CAD60840F95EF767C101FA
0745CE14CB100840B35EF8680701FD
07453114CB150840685EF7684701FD
0744A514CB590840205EF7689201ED
0743F014CB90083FD65EF768D501EA
07435314CBBF083F8D5EF86914020D
0742B914CC08083F415EF66956020A
07421314CC69083EF55EF669A001FD
07416414CC47083EAB5EF569DB01FC
07411014CCA0083E635EF56A1A01F8
0740A214CCB2083E1A5EF56A5101FA
07403F14CCCF083DD05EF76A9901EA
073FF014CD18083D865EF56AD201EC
073F8F14CD2B083D395EF66B0B0220
073F3C14CD1B083CEF5EF46B47021B
073F1514CD6A083CA35EF56B7F021B
073EC514CDA9083C585EF46BAF021D
073E4914CE0B083C0F5EF36BE0021C
073DA614CE23083BC65EF36C18021B
073D2114CE16083B7F5EF56C4A0219
073CE314CE67083B385EF26C74021D
073C8314CEC8083AF25EF36CA3021D
073BDD14CEBE083AAF5EF26CD4021C
073B8514CEB5083A6C5EF36CFF0217
073B5C14CEF9083A265EF26D22023D
073B0C14CF110839E05EF46D54023E
073AB514CF200839975EF06D73021D
073A6B14CF2E08394D5EF26DA4021C
073A2814CF5A0839025EF16DCE020B
0739CE14CF6D0838B45EF06DEA0209
07397E14CF7808386A5EF26E100208
07394214CF860838215EF26E34020E
07391214CF8B0837D65EF16E56021C
0738EC14CF9E08378B5EF16E82021C
0738C014CFA80837415EF06E97021C
07389014CFAB0836F55EF16EB3021C
07387114CF990836A95EF06ED3021D
07386214CF9E0836625EEE6EEE021B
07385B14CFA80836165EF06F0C022B
07385014CFA80835CF5EEF6F280229
07384314CFA10835875EEF6F43021D
07383A14CFA80835425EF06F5B021D
07382C14CFA30834FC5EEE6F6F020C
07381814CF9E0834B75EEE6F89020B
07381214CF990834725EEC6FA6021D
07380B14CF9908342F5EED6FB80219
0737FD14CF970833E55EEE6FC9024D
0737F114CF9E08339E5EEF6FD3024C
0737E914CF940833575EEE6FEA022A
0737E514CF8F0833135EEC6FF9021A
0737E214CF8F0832C95EED7003021B
0737DA14CF970832845EEC7007022F
0737CB14CFA308323A5EEC7019022B
0737B014CFA80831EE5EED7029021F
07379814CFA80831A25EEB702F021D
07378314CFC00831555EEB703B020E
07375F14CFDF0831085EEB7043020E
07371914CFF10830BC5EEC704C020C
0736DC14CFEC0830725EEA7052020A
0736B314D0040830255EE9705F023E
07369414D018082FD75EEA7064023D
07367114D009082F8D5EE9707A022A
07366214D01C082F405EEA70870227
07364814D03F082EF55EEA708E022D
07360C14D03A082EAA5EE9709C022C
0735E114D04D082E615EEC70B0020C
0735B014D048082E185EE970BC020B
07359F14D04A082DD25EEA70C90209
07359014D048082D8E5EEB70D7020C
07358714D06A082D4A5EE870DC0218
07355B14D083082D055EE870E7021C
07350D14D0A0082CC45EE870F4021D
0734A614D0C1082C805EEA7102021D
07344714D0D0082C3E5EE97113023E
0733EE14D0E9082BFA5EE87121023C
07339314D0E4082BB85EE8712A0200
07335714D0EE082B735EE9713901FA
07333514D10B082B2F5EE7714B020D
07330714D165082AE85EE87148020D
07329214D1D7082A9D5EE8716701FA
0731B814D1EB082A505EE7717A01FA
07311714D26E082A035EE87179020F
07304014D2C60829B35EE7718A020E
072F3414D2B80829675EE871AC020D
072EAA14D3140829185EE771C2020C
072DFC14D2950828CA5EE771D7020D
072E1B14D36208287C5EE771F2020C
072D6A14D3A10828305EE57206020C
072C6E14D3FD0827E25EE5722901EA
072B7214D4250827965EE6724E01ED
072AA214D43D08274A5EE6727601EA
0729EC14D4550827015EE6729D01EC
07295714D4500826BB5EE672C001FF
07290614D4900826755EE472ED01FA
07284514D4CA08262C5EE3731301FC
07273214D4E80825E55EE573460200
07265614D4F10825A35EE4737601FA
07259914D4E708255E5EE473AE01FC
07250714D4DE08251B5EE573DA020D
07248A14D3EF0824D65EE5740E020C
07244614D2780824905EE37442022B
07243B14D12C08244C5EE574810228
07247414D1540824095EE274B8027D
07249D14D0A50823C75EE274F4027B
0724A914D1890823805EE47534026D
07249414D03008233A5EE37571026C
07249D14CDED0822F55EE275A6029F
07252A14C9730822AA5EDF75D1029E
07264F14C7070822625EE375F302BC
0727F614C4090822175EE2760F02BD
0729CA14C2F10821CB5EE3763302BE
072B5414C5AA0821825EE3763F02BF
072B9314C39508213A5EE1765602ED
072BEE14C2B20820F15EE5766502EB
072C5814C1D80820A75EE2765E030C
072CE614C17808205F5EE1764E030A
072D5A14C14C0820165EE3763702FB
072DA914C011081FCE5EE3761F02EE
072E1314BE1B081F845EE375FD02EB
072EC814BCBA081F3B5EE275E002EC
072F8C14BBE1081EF45EE275B802E9
07303D14BA03081EA55EE0759902FB
0730E714B968081E5C5EDF756B02FD
07317014B92F081E165EE0754A02FC
0731CD14B904081DCE5EE2751902FE
07320214B809081D825EE274FC02DB
07323514B78F081D365EE074D102DA
07326314B757081CEB5EE174AF030A
07327414B774081C9F5EDF7478030B
07326114B6F6081C525EDF745202AD
07324614B700081C055EDF742802AD
07322414B6DE081BBC5EDF740702BC
07320114B6F6081B6C5EDF73E002B9
0731C414B79E081B1F5EDF73BE02D9
07312514B848081AD35EDF739A02DB
07300F14B85B081A885EDF738102BE
072F4F14B977081A3F5EDF736C02BA
072E4A14B9810819F95EDD735002AF
072D1514B91C0819B45EDE734902AE
072CC314BA200819755EDF733802DA
072B8D14B9EC0819315EDC732F02D9
072AD514B9FE0818EE5EDE7332032C
072A5414BA2A0818AC5EDD732F032E
07292B14B9F008186C5EDF7332031F
07286414B92B0818295EDC7343031B
0727EB14B6DE0817E75EDE734D034B
0727B514B5D00817A35EDE7363034E
0727E414B43308175F5EDC737C03B5
07286F14B45908171C5EDD737F03B5
07290514B2510816D85EDD739003B2
0729D514B1440816935EDD73AC03A4
072AAF14AFB808164B5EDD73B703A7
072B6C14AF800816035EDF73BE0357
072BDF14B0100815B45EDD73C7035F
072BF014AFCD0815655EDD73C90375
072BE514AE820815195EDD73C00373
072BF614ADCB0814CC5EDB73B603C8
072C1414ACF808147E5EDD73AD03C5
072C1C14ACDB0814315EDA739703D8
072C1A14ABFE0813E65EDB737F03D5
072BE214AB950813995EDE736E0415
072B1E14AB5B08134D5EDC73580416
0729AC14AB860813025EDA73470418
0727AE14ABA90812BA5EDC7339041A
0725C414ABD308126D5ED9732F0449
07240C14AC330812215EDC73220446
07227114AC790811D65EDA73160438
07209B14AC7B08118A5EDB730E0437
071F8514AC850811425EDB73130457
071F2B14AC6F0810F65EDC73170458
071F4714AC720810B15EE073250428
071F7B14AC800810655EDB733A0427
071F6B14ACC50810175EDB734D044A
071EFC14ACE0080FCB5EDC73700448
071E8D14AD4E080F825ED9739103F5
071DF114AD8B080F395EDC73B603F5
071D3B14AD9B080EEE5EDD73D30419
071CC014AD92080EA65EDA73F90415
071C8114ADC2080E585ED874160408
071C2714ADEB080E0B5ED974330407
071B8414ADE3080DC05EDA745E0424
071AF414ADDE080D765EDA747B0428
071AB914ADBD080D2C5EDB749A0425
071A8D14AD9B080CE45ED874CF0408
071A5914AD8D080C9B5EDA74E70406
071A1C14AC92080C535ED974FF0439
07199214AC3D080C0F5ED975210437
0718F714AC25080BC55ED975480497
0718C014AA60080B7E5ED975650495
0717B414A80B080B375EDA757F04B8
07159314A887080AEE5ED975A804B5
0714B114A78D080AA55EDA75C30536
0713C414A5AF080A605ED975E80538
07122B14A427080A215EDB760D0565
07105514A3120809E65ED976310567
070E7614A2230809AF5ED976570639
070CF514A0A008097B5ED9767C063F
070B4D149FD708094C5ED976A106BC
0709BB149E620809255ED976CB06B7
070837149E850809035ED676F706C7
070752149C8F0808E35EDC772906CA
07063014927B0808C95EDA775705CA
070188148DF40808AF5ED8778E05CB
06FB4D1494050808965ED977DE0659
06FA851491530808815ED977EB0659
06FA2B14906608086B5ED8783A061B
06F931148FF50808565ED8788C0614
06F7F6148D9E0808415ED978DD065E
06F65B148A030808295ED7792A065B
06F2DF1487830808175EDA7992069A
06EF491486580808025ED779EB069B
06EBB71484D10807F05ED87A5507C8
06E89D1482C20807DA5ED97ABA07C4
06E5D3147F560807C15ED87B2E06D9
06E24C147F1E0807A85ED97BA506DB
06DFA6147E2D08078C5ED67C3006DB
06DE00147D8108076C5ED87CBD0698
06DD0614767308074A5EDA7D55069A
06DB04146CDC08072C5ED67DF606BB
06D7301455A808070F5EDA7EA506BC
06D2571453FC0806F35ED77F6905C9
06CE3A143ED60806D75ED9801A05C9
06CBDD14390E0806BB5ED780D20589
06CAF8142EDD08069F5ED9817F0588
06CAF51413680806865EDA823E052A
06CB6114033E08066B5ED882F8052C
06CBEA13E5030806505ED783A60497
06CC5713E0170806365ED684610498
06CC8F13DC6808061C5ED984EC0489
06CCB013C9C40806005ED7855A0489
06CCBC13BF740805E35ED885A80498
06CCA213BF5D0805C65ED785CA0498
06CC5013BBC90805A55ED885D70498
06CBF713AC5A0805855ED985C90493
06CB6713941508055F5ED785A606F8
06C86E13863408053D5ED9857906FB
06C46713703A08051A5ED9855A0D63
06BF611354FD0804FA5EDB85430D62
06B7EF134B060804DD5ED9852112F5
06B1A9133A700804C25ED7851012F5
06ABA61334050804A95ED8850116E7
06A6C91311DF0804955ED684FE16E3
069EAB13027B08047F5ED8850F191E
06964712F5BA08046D5ED88554191D
068FBC12EFB508045D5ED8859E1E42
068B0112EC9008044D5ED985F61E43
06885412EAA208043B5ED886561E3A
0686CE12EB5808042C5EDA86D81E32
0685FE12EC8B0804195EDA87611E33
0685F912EBC10804085ED987FD1DD7
0685F012EDDD0803F95ED788861DD7
0685E312F04E0803EB5EDB89201FBE
06862E12EA3F0803DD5ED889B01FBD
0685B712EB1B0803CD5ED78A3B1E74
06852212EAC10803BE5ED88AC21E76
0684C212E6B00803AC5ED98B3A1F3F
06843912DEC008039C5ED98B9E1F3F
0682F212D9BF0803865ED88C0520DB
06818612D78E0803765ED88C6720D9
06809D12D65F0803645ED88CB920BE
067FFE12D6320803575ED98D1820BC
067FCA12D6990803585EDA8D671FAD
067FCA12D49008035A5ED68DB01FAD
067FC612CB1F08035B5ED78DF21F8A
067EFC12C3F808035E5ED78E3E1F8C
067DA712C63F08035D5ED78E831F13
067CBD12C73708035C5ED98EB81F13
067C7012C8450803585ED98EED203A
067C7912C54C0803565EDA8F22203B
067C5F12BDB60803575ED98F471FCD
067BED12B25F08035A5ED98F731FCD
067AA712B30F0803595ED98FA32029
0679C212B4E908035A5ED88FD5202D
06799212B41608035C5ED890001EF2
06799B12B4A708035C5ED8901B1EF0
0679B412B6A50803585ED9903F1FDF
0679A412C0A30803525ED7905B1FDA
067A0A12B96408034B5EDA907B1FDC
067A8B12B8390803455ED7908C205A
067A9212B9120803425ED890A5205B
067AA112B9B80803425EDA90B9205B
067AA212BA5F0803435ED790D3205B
067A8112B9820803445EDA90E61EF3
067A2B12B6F80803495EDB90F71EF7
0679DF12B90C08034C5ED9910B1FA9
0679C212BBD508034A5ED9910D1FAB
0679E212B9C40803485ED8911E1FB0
0679F612BB2108033E5ED991261FAE
067A0F12B7EA0803385EDC912F1EA4
067A5612B7D40803315EDB91311EA3
067AEF12B76F08032A5EDA91331E26
067B3B12B7EE0803235EDB913A1E22
067B2612BCD908031D5ED991441C8A
067B2B12C1850803165EDB91431C86
067B7612CDF708030F5ED991491E66
067C3012CE920803075EDC91441E68
067CED12CEA40802FF5EDA914C1F12
067D6012D6630802F15EDB91471F11
067DBB12D68B0802E35ED8914A1F91
067DE912D1710802DA5EDA91471F8C
067DB712CC870802D15ED891401E63
067D5912C6DE0802C95EDB91431E61
067D0F12C0000802BC5ED891441E97
067CC212BDCE0802AC5EDB91411E97
067C5312BAAA0802A05EDB91391DA2
067BB212B5C50802965EDA91321DA5
067AD512B69308028C5EDB91381B2E
067A6712B4D70802835EDC91401B2F
067A5612B41F0802745EDC91481B2B
067A5612B2C908025B5EDC9145199D
067A0812B3B10802415EDB9149199A
0679CE12B38E0802305EDE915416B4
0679C612B2A60802305EDB914F16B3
06798212B2A20802235EDB91551561
06794412B26D08020A5EDB91511560
06790912B1E50801EB5EDB914C1349
0678EE12B1E50801EB5EDB913F134C
06794B12B1FB0801EE5EDA912F02DB
0679E712B2190801EB5EDC910102DA
067AAF12B26D0801EA5EDB90D00776
067B5C12B2940801EB5EDB90880772
067BD912B2A60801EC5EDC903B28E7
067C4312B28B0801EF5EDB8FEF28E5
067CA112B22E0801EC5EDB8FA82D7D
067D070FBC650801ED5EDA8F602D7F
067D7A0C72570801EC5EDB8EF41736
067DD20C83E30801EC5EDB8E571735
067DF10C94650801EC5EDD8D7A0507
067E030C8A5F0801EC5EDC8C6D0507
067E150C70DD0801ED5EDC8B31030B
067E310C541E0801EA5EDD89CD030D
067E610C36A80801EC5EDD8851023B
067E9D0C20090801EB5EDD86DC023D
067EE30C0D040801EC5EDD85620373
067F290BFD380801EF5EDF83F40375
067F730C0FF90801ED5EDF82990375
067FB90C28350801EC5EDE814B0375
067FFF0C10B90801ED5EDF801904B3
0680440BED6B0801EB5EDF7EFE04B6
06808B0BD9DD0801ED5EDF7DF604B8
0680D00BD6E40801EE5EDE7D0204B5
0681180BCCEA0801ED5EDF7C2A04B7
06815E0BBB990801EB5EDF7B6905C9
0681A10BAC790801EC5EDF7ABD05C3
0681E50BA6CA0801EB5EF57A1F0498
0682260B9D780801ED5EDF799D0498
06826B0B8A2E0801EC5EE079250515
0682AC0B86770801EC5EE078BD0519
0682EE0B7CA40801EE5EE178660558
06832D0B6BDB0801EE5EE0781B0557
06836E0B670B0801ED5EE277DD063C
0683B10B60740801ED5EDF77B30639
0683F20B4F660801EC5EE27784058A
0684350B50980801EF5EE177640588
06847A0B49750801ED5EE3774D04F6
0684C10B46550801EB5EE4774304F9
0685050B3FCD0801EC5EE277400479
06854C0B37190801EA5EE1773B0478
0685910B35C20801EE5EE4774004C8
0685D50B2D980801EC5EE4774C04C7
06861C0B2CC80801ED5EE5775A0519
0686630B2F510801ED5EE677730517
0686AA0B399B0801EF5EE6778304B3
0686F00B3FC10801EE5EE6779D04B7
0687360B475B0801EF5EE577C10488
06877B0B404B0801EE5EE677D5048A
0687C00B56120801ED5EE578040519
0688080B5AD50801EF5EE578120518
06884B0B55CC0801ED5EE7782C0556
0688910B4BA30801EB5EE678670559
0688D60B44A00801ED5EE6788B0494
06891B0B3DDE0801EF5EE678B60494
0689600B37CF0801ED5EEB78DD0538
0689A50B32BD0801ED5EE879050535
0689EA0B2AE60801F05EEA79300536
068A2C0B25100801EF5EEA795504C8
068A6E0B20360801EE5EEA798A04C5
068AB20B18D60801F05EE979AC0486
068AF30B16600801EF5EEA79D90488
068B330B23020801EF5EEC7A0604F8
068B760B2C4F0801ED5EEC7A3204FC
068BB60B32640801EE5EED7A5B05CB
068BF80B34C90801F05EEC7A8605CD
068C3A0B37D50801F05EEC7AAB05DC
068C7B0B308E0801F05EED7ADA05D9
068CBA0B27700801EF5EED7AFE05C7
068CFA0B1EAA0801EE5EEE7B2D05C7
068D3A0B16FB0801EF5EED7B5905A9
068D7A0B0F960801ED5EEE7B7D05AA
068DBC0B08490801EF5EEE7BA70559
068DFC0B01880801F15EEF7BC80559
068E3E0AFAF60801EF5EF07BF5057A
068E7F0AF5A00801EE5EF17C1D0578
068EBD0AEF4F0801EE5EF27C4104D7
068EFC0AEA830801F25EF37C6704D9
068F3A0AE67E0801F05EF37C8D0489
068F750AE2060801EE5EF27CAD048A
068FB30ADDDA0801EF5EF27CD305F7
068FF30ADA610801EF5EF37CF405FD
06902E0ADA850801EF5EF47D0B0568
06906C0AE7680801EE5EF27D31056B
0690AA0AF5610801EE5EF57D5305A9
0690E60B036A0801F05EF77D6905A5
0691210B02620801EF5EF67D8905D5
0691600B0D4A0801F15EF57DA705DB
06919E0B0AB30801F35EF67DC50540
0691DD0B042E0801F05EF77DD904DB
06921B0AFE3A0801F25EF87DF104D5
0692590AF8FD0801F25EF77E0904A7
0692950AF3EA0801F15EF87E1D04A4
0692D20AEFA90801F15EF87E320446
0693100AEBD10801F05EFA7E4A0447
06934C0AE7E10801F25EF97E5E03E7
0693860AE4970801F25EFB7E7003E7
0693C30AE1A90801F15EFC7E7F03A6
0693FF0ADE680801F25EFB7E8A03A1
0694380ADBD40801F35EF97E9803B3
06946F0AD9EE0801F25EFB7EA903B7
0694AA0ADEA60801F25EFD7EB003D7
0694E40AEE6B0801F25EFF7EC603D5
06951C0B06370801F15EFE7ECE03F5
0695540B10730801F25EFE7EDA03F9
06958A0B1F050801F15EFE7EE80466
0695C30B24C50801F15EFE7EF20466
0695F90B1F110801F15EFF7EFC04F6
06962D0B18B30801F15EFF7F0904F6
0696640B13090801F35F017F0804F6
0696990B0A7A0801F15F037F1404F7
0696CE0B06AD0801F35F017F19034B
0697080B02170801F25F047F240351
0697400AFAE80801F15F037F2B030C
0697770AF62E0801F15F027F34030B
0697AE0AF1FE0801F15F027F390397
0697DE0AECC70801F05F037F3F0395
0698100AEA130801F15F057F45029B
0698420AE53D0801F35F057F4B029D
0698770AE14C0801F15F047F4C022E
0698A80AE5FF0801F35F067F4F022A
0698D90AF22B0801F25F067F57021F
06990D0B003B0801F25F067F5A01FA
06993E0B0CFE0801F35F077F6401FA
0699720B15170801F25F097F62022C
0699A50B1E290801F35F067F65022C
0699DA0B1D1C0801F45F0A7F6D01FA
069A0F0B19570801F45F097F6501FA
069A420B14690801F35F087F680226
069A780B10A10801F45F0A7F6B0229
069AAE0B0ADC0801F35F0B7F7B022A
069AE30B06310801F15F0B7F6F022D
069B1F0B02DB0801F25F0B7F7201E9
069B5A0AFD820801F35F0B7F8801ED
069B970AF9CA0801F15F0C7F7A0209
069BD70AF58C0801F25F0C7F940208
069C140AF0980801F25F0E7F8C01F9
069C4F0AEE970801F55F0E7F9501FD
069C8D0AEB3B0801F25F0D7F76020B
069CC60AE5CD0801F35F0F7F750209
069D000AE3F10801F25F0F7F7401DF
069D3D0AE1600801F35F107F9201D6
069D730ADC3D0801F45F117F8F01F8
069DAA0AD9AB0801F35F117F8501FC
069DDF0AD75C0801F35F0F7F7001B9
069E160AD2390801F35F117F7201BA
069E4F0ACFD70801F35F127F8701DD
069E800ACE9B0801F45F147F8001D8
069EB20ACF8E0801F45F127FAC021B
069EE30AD9CA0801F35F117F6C021B
069F120AE2650801F55F137FAF023D
069F440AF0050801F45F137F6F023B
069F740AF4140801F35F157F6A022B
069FA30AF2500801F35F177F84022D
069FD00AF7180801F65F177F9C020D
069FFC0AF6530801F55F177F80020C
06A02C0AEFCC0801F55F197F75020E
06A0590AEC150801F45F167F6E027C
06A0850AE6E30801F35F197FAE0279
06A0B10ADFF60801F45F1A7F6F026C
06A0DF0ADEA00801F45F1A7FAB026C
06A10C0ADB8E0801F55F1A7F8502FC
06A13C0AD6930801F55F197F7A02FD
06A16C0AD9170801F35F197FAE01EA
06A19A0AE5FF0801F35F197FA401EA
06A1CA0AEFB00801F55F1B7F73022A
06A1FA0B02A40801F45F1C7F7F0227
06A2290B02030801F55F1B7F8B01E8
06A2580B06790801F45F1F7FA101EA
06A2870B0AF00801F55F1E7F9F03B3
06A2B60B01CA0801F55F1E7F7003B3
06A2E80AFA9B0801F45F1E7F95028A
06A3140AF49D0801F65F1F7FAB028A
06A3430AED9B0801F45F207FAC020C
06A3750AEAB90801F45F1E7F8D020A
06A3A70AE6890801F55F207FA7032A
06A3DB0AE1B10801F55F237FB3032C
06A4100ADED60801F55F217F8A02BB
06A4420ADA6F0801F55F217FA302BB
06A4760AD6320801F55F227FB4031A
06A4A90AD32A0801F75F217FA60318
06A4DE0AD14A0801F55F237FB1028D
06A5100ACFA10801F55F247FA4028C
06A5450ACD890801F55F237FB00408
06A5770ACBB30801F55F267FA90403
06A5A80AC8350801F45F257FA204F3
06A5D70AC5690801F55F277FAD04F7
06A6080AC49B0801F55F267FAC02A7
06A6380ACD2B0801F65F287F8402AC
06A6680ADC2E0801F65F277FA402A9
06A6970AF5830801F75F2A7FA80387
06A6C20AFE8A0801F55F2A7FA80387
06A6EE0AFE030801F45F297FA90419
06A71B0B07E20801F55F287FA70417
06A7460B03C10801F75F2B7F830269
06A7700AFC670801F55F2A7F66026C
06A79A0AF6730801F75F297F7902AF
06A7C20AF1290801F95F2B7F8702A9
06A7ED0AEA6A0801F55F2C7FA202EA
06A81C0AE53A0801F75F2E7FA902E9
06A84D0AE0D70801F95F2D7FAD0377
06A8810ADD2C0801F75F2D7FA80375
06A8B50ADA7D0801F65F2C7FA70379
06A8EF0AD8140801F65F2E7FA30374
06A9250AD4E40801F75F2F7FB503A5
06A95C0AD1E80801F75F307FA903A6
06A98F0ACF650801F65F307FA80467
06A9C00ACCB90801F55F2F7F6E0466
06A9F00ACA8B0801F75F2E7FA6034B
06AA220AC9430801F65F317FA7034D
06AA540AC7E80801F55F327FA2035E
06AA830ACB4F0801F45F317FA8035D
06AAB20ADB1F0801F85F337FA802AA
06AAE20AEE2E0801F85F327F7D02AE
06AB0C0B03000801F85F337FA801FA
06AB3B0B01230801F55F337FB101FD
06AB620B0D2A0801FA5F357FA602AE
06AB8B0B0D870801F75F347FA402A9
06ABB10B04B80801F95F357FAB02AB
06ABD80AFCF30801F75F377FA802AC
06AC020AF5DC0801F85F4B7FA6021D
06AC3A0AEFB00801F65F377FA8021F
06AC670AEB030801F85F367FA60219
06AC9B0AE6400801F85F387FA701BA
06ACD40AE1FA0801F95F387FAB01BA
06AD0D0ADF3D0801F85F387FA70229
06AD450ADB3A0801F75F377FAD0230
06AD7A0AD73D0801F85F3B7FA801C7
06ADAF0AD4690801F85F3B7FA801CA
06ADE20AD0EF0801F75F3B7FA70229
06AE140ACE6C0801F85F3A7FA6022D
06AE490ACD2B0801F85F3C7FA901ED
06AE790ACAE90801F95F3C7FAA01EA
06AEAA0AC8BE0801F65F3C7FA601C8
06AED80AC6B10801FA5F3F7FA901CD
06AF050AC82D0801F75F3F7FA801ED
06AF320AD56C0801F55F3F7FA501EA
06AF5B0AE63D0801F85F3D7FAC01E7
06AF840AFD040801F95F407FAC01E8
06AFAB0AFC000801F75F3F7FA701FA
06AFD00B05CC0801F75F417FAB01FA
06AFF50B045C0801F75F407FAC01BA
06B01D0AFB1E0801FA5F407FA801B7
06B0400AF32E0801F95F417FA6019A
06B0640AED8D0801F85F417FA70199
06B08D0AE8410801F95F3F7FA601C9
06B0BD0AE3450801F95F427FAC01CC
06B0ED0ADF480801F85F437FAC01BC
06B1230ADACB0801F85F437FAB01BA
06B1580AD6780801F85F447FB1017E
06B18D0AD39F0801F85F437FA6017C
06B1C10ACB890801F85F457FAA01CD
06B1F30AD2E20801F95F457FA901C8
06B2240AD5B50801F95F457FAB03D5
06B2520ACF970801FA5F467FA903D8
06B2830AD0990801F95F457FA70444
06B2AE0ADF4B0801FA5F457FAA0443
06B2DD0B04FA0801FC5F477FA90446
06B30B0B0C1D0801FA5F467F66035B
06B3380B1DAB0801F95F487FA6035B
06B3610B1BBF0801FA5F477FA9025E
06B38F0B10E10801F95F497FA9025C
06B3BA0B03B80801F75F487FA90374
06B3E40AFD910801F85F497FA30375
06B4160AF57E0801F85F4B7FA602FD
06B44E0AECEC0801F75F487FB102FE
06B4870AE4750801F85F4A7FA803B9
06B4C10AE50A0801F95F4B7FA903B5
06B4F60AEA320801F95F4B7FA8027B
06B52B0AFBC70801F95F4B7FAA0280
06B55B0B0C230801F85F4C7FA501FA
06B58F0B0FB90801FB5F4D7FA901F9
06B5BD0B0AF00801F95F4D7FA601DA
06B5F00AFF9D0801F85F4D7FA601DF
06B61B0AF7C30801FA5F4E7FAC01ED
06B64D0AF4530801FA5F507FA801ED
06B67E0AF0100801F95F4F7FA8020A
06B6B20AEDDC0801FA5F4F7FAD020A
06B6E50AE8490801FB5F507FA6033D
06B7170AE5430801F85F517FAA033B
06B74A0AE3670801F85F517FAA0399
06B7790ADC200801FA5F517FA60395
06B7A40AD8DF0801FB5F527FAB01EA
06B7D10AD3F00801FA5F527FA901E8
06B7FC0AD4220801FA5F507FA801C9
06B8250AD1340801F95F537FA601CA
06B84C0ACCB60801F95F537FA801ED
06B8770AC97D0801FB5F547FA901EC
06B8A10AC5770801FA5F547FAA01FA
06B8CA0AC1840801FB5F547FA701FA
06B8F50ABE4B0801FA5F567FA501FD
06B91E0ABF480801FA5F547FA901BC
06B9440ABBE20801F85F577FA801BC
06B96C0ABB330801FA5F557FA80448
06B9910ABA480801F85F577FA90447
06B9B10AB77F0801FA5F567FAA02BD
06B9D10AB7710801FC5F567FA802BD
06B9EE0AB7400801F95F577FAA023C
06BA0A0AB7E10801FB5F597FA90239
06BA230AB94E0801F85F597FA90265
06BA3D0ABB2E0801FB5F577FAB026E
06BA570ABB7E0801FA5F5A7FA70250
06BA740ABA020801FA5F5A7FA7024F
06BA940AB88A0801FA5F5B7FA8024B
06BAB60AB7D00801F95F597FA80250
06BAD80ABCCD0801F85F5B7FA90688
06BAFA0AC3750801FA5F5D7FAA068B
06BB1D0ABE3E0801F85F5D7FA703E5
06BB420AB9840801F95F5D7FA703E5
06BB630AC6BC0801FA5F5C7FA901E8
06BB820AF0400801FA5F5C7FAC01EA
06BBA40AF1480801FB5F5D7FA401EA
06BBC20B12570801FC5F5D7FC301F0
06BBDE0B0C820801FA5F5E7FA801FC
06BBFE0B03DA0801FB5F5E7FA801FC
06BC1E0AFB380801FB5F5E7FA801FD
06BC400AF26A0801FA5F5E7FA801FD
06BC620AEBD10801FC5F607FA701EA
06BC8A0AE4C40801FC5F607FE101EC
06BCB10ADEB70801FA5F607FAA01ED
06BCD70AD9D20801F95F627FA901E9
