* Sea-Bird SBE 19plus Data File:
* FileName = C:\Users\mseas\Desktop\seabird\data\ctd-data\leg1\14Ver\14Ver.afm
* Software Version SeatermAF 2.1.4.55
* Temperature SN = 
* Conductivity SN = 
* System UpLoad Time = May 26 2023 10:32:52 (localtime) = May 26 2023 17:32:52 (UTC)
** Site 14Ver
** Cast 23
** Winch Payout Length 197
**  
** Issues/Notes 
** Latitude (decimal degrees) 53.57100
** Longitude (decimal degrees) -128.97162
* ds
* SBE 55 V 1.4.1  SERIAL NO. 210  26 May 2023 09:30:50
* main battery = 12.78 volts
* lithium battery =  3.14 volts
* SBE 55 is NOT ARMED
* A>
*END*

1  2   26 May 2023 09:17:30  confirmed   12.7  4120
    011B001019
    011B00101A
    011B00101B
    011B00101C
    011B00101D
2  5   26 May 2023 09:21:34  confirmed   12.7  5097
    00660013EB
    00660013EC
    00660013ED
    00650013EE
    00650013EF
A>