* Sea-Bird SBE 19plus Data File:
* FileName = C:\Users\mseas\Desktop\seabird\data\ctd-data\leg2\SpongeReef11\SpongeReef11.hex
* Software Version SeatermAF 2.1.4.55
* Temperature SN = 4345
* Conductivity SN = 4345
* System UpLoad Time = May 30 2023 10:29:04 (localtime) = May 30 2023 17:29:04 (UTC)
** Site SpongeReef11
** Cast 39
** Winch Payout Length 66
**  
** Issues/Notes 
** Latitude (decimal degrees) 54 24.040
** Longitude (decimal degrees) 130 35.142
* ds
* SeacatPlus V 1.6  SERIAL NO. 4345    30 May 2023  09:27:23
* vbatt = 11.5, vlith =  7.7, ioper =  62.8 ma, ipump = 126.6 ma, 
* iext01 =  32.4 ma
* status = not logging
* number of scans to average = 1
* samples = 209324, free = 349916, casts = 39
* mode = profile, minimum cond freq = 3155, pump delay = 40 sec
* autorun = no, ignore magnetic switch = no
* battery type = alkaline, battery cutoff =  7.3 volts
* pressure sensor = strain gauge, range = 1450.0
* SBE 38 = no, Gas Tension Device = no
* Ext Volt 0 = yes, Ext Volt 1 = yes, Ext Volt 2 = no, Ext Volt 3 = no
* echo commands = yes
* output format = converted HEX for AFM
* S>
* cast  39 30 May 2023 09:12:58 samples 206775 to 209324, avg = 1, stop = mag switch

*END*
0690E40A6DFC0801DE65FB80F40110
0690E10A6DEC0801D865BD80F80139
0690E70A6E040801DB658B80F40134
0690DF0A6E260801DB654E80F10117
0690C50A6E4C0801DD658281000115
06905F0A6ED70801E261D58107012D
0690880A6F2C0801F861D5810B012A
06908C0A6F370801F661D7810E010F
06908C0A6F420801F561D68109010E
06908E0A6F490801F561D8810500FD
0690920A6F5F0801F661D8810300FB
0690910A6F5D0801F661D7810C011D
0690950A6F650801F661D781000120
06909F0A6F6A0801F661D88106010C
0690A30A6F650801F561D78103010D
0690A30A6F650801F661D98107010F
0690A40A6F5B0801F561D781020110
0690A60A6F510801F461D7810B0100
0690A40A6F410801F561D8810D0100
0690A30A6F3A0801F561D88103011B
0690A60A6F2F0801F661DA8105011F
0690A40A6F250801F461DC8109010D
0690A20A6F220801F661DA8108010F
0690A50A6F250801F561DF81040110
0690A20A6F280801F761E08109010D
0690A10A6F270801F661DF8104012D
06909F0A6F250801F661DE8105012A
06909D0A6F1D0801F561DC810A011C
06909E0A6F140801F661DC8105011E
0690A00A6F080801F561DC81080120
0690A10A6EFE0801F961DD810D00F1
06909F0A6EEB0801F861DF810300F0
0690A50A6EE40801F761DB810B00F0
0690A70A6EC80801F561DC810900ED
0690CB0A6ECD0801F561DC8106010D
0690F30A6EC80801F661DD8106010C
0691000A6EC50801F561DD810B011E
0691000A6EC60801F661E081080120
0690FF0A6ECB0801F661DF8108010D
0690FE0A6EC80801F961E08107010F
0691010A6ED40801F661DB81090111
0690FF0A6ED50801F661DC8109010D
0690FE0A6ED40801F761DE8105012D
0690F80A6ECD0801F561DB810D012E
0690EE0A6EC60801F562998108010F
0691040A6E710801F562EC8103011E
06910E0A6E5B0801F0631E8102011C
0691060A6E570801ED63088105011C
0691040A6E590801F0632A81050127
0691160A6E400801EE62E4810A012B
0691200A6E3A0801EF643B81060128
0691640A6DCC0801E4673781000135
0691B00A6D8C0801D4690880EF0125
0691AD0A6D6C0801C7694980EB011E
0691B50A6D6F0801C26A3280EA00EB
0691E70A6D230801BE6AA980E600F1
0691EC0A6D040801BB6AE080F3012F
0691E00A6CF80801BA6B3B80F20130
0692020A6CFB0801B661DD80F10132
0691930A6E740801D761DD8115011E
0690DA0A6E780801F461DC810E0100
0690DB0A6E6E0801F661DD810D00FD
0690D50A6E730801F961DC810B00FA
0690D20A6E710801F961DC8108010C
0690CF0A6E6D0801F561DE810A010C
0690CA0A6E740801F561DD81080122
0690C90A6E740801F761DE8105011F
0690C90A6E750801F861DF81070101
0690C50A6E600801F661DB81080100
0690CE0A6E610801F661DD810A010C
0690E70A6E630801F661DE8108010D
0690F30A6E610801F861DD8109010D
0690F40A6E5D0801F561E08108010E
0690F00A6E5A0801F861DD810A011D
0690EE0A6E540801F461DD8109011F
0690E70A6E460801F661DE8109010E
0690E20A6E440801F661DE8108010F
0690E00A6E3A0801F561DC810900ED
0690DC0A6E3F0801F861DE810B00ED
0690DB0A6E340801F561DD810900FC
0690DB0A6E3A0801F661DD810900F6
0690EA0A6E370801F561DC810B011F
0690ED0A6E370801F761DD8108011F
0690F10A6E300801F661DF810300EC
0690F10A6E320801F761DF810900E8
0690EF0A6E2A0801F761DD810A011E
0690EB0A6E1D0801F661DF8102011C
0690E90A6E1D0801F661DD810C011E
0690EB0A6E180801F561DD810A0121
0690E80A6E120801F561DD8108011E
0690DD0A6E090801F761DD8109011C
0690F10A6E120801F661DF8107011F
0691070A6E160801F661DB810B011E
06910A0A6E1A0801F761DD8101010A
0691070A6E1A0801F561DC8106010E
0691020A6E200801F661DD81080138
0690F60A6E120801F661DC810D013F
0690E10A6E130801F661DE81090139
0690FF0A6E170801F461DD810A0129
0691120A6E1E0801F661DC8104012B
06910B0A6E170801F561DD810A011E
0691030A6E130801F461DE8108011F
0690FE0A6E0F0801F561DE81020119
0690F80A6E090801F661DE81060118
0690F70A6E130801F761DB8102011D
0690F30A6E000801F561DD8107011D
0690FC0A6E0E0801F561DF8109010C
06911B0A6E150801F661DD8105010E
0691210A6E1B0801F761DC8106011D
06911E0A6E200801F761DF81060119
0691150A6E1D0801F561DE8107011D
06910E0A6E180801F561DE8105011E
06910A0A6E120801F661DE810A0129
06910F0A6E1B0801F761DF8107012E
0691170A6E1D0801F461DC810E00E0
06911A0A6E200801F361DE810600D9
0691150A6E230801F661DC8104010A
0691100A6E2C0801F661DE8101010D
0691080A6E250801F561DE810200ED
0691000A6E2C0801F661DD810500ED
0690F90A6E2A0801F661DE80F90120
0690F30A6E340801F661DC810A011B
0690EB0A6E2A0801F461DD80FE010C
0690EE0A6E2C0801F561DE81040110
0690F20A6E370801F661DE810700EE
0690E20A6E160801F661DD810100EE
0690D40A6E1D0801F661DD81070110
06910D0A6E280801F461DE8103010D
06911D0A6E2C0801F661DB8105010C
0691130A6E2D0801F761DE8107010D
0691070A6E2F0801F561DF81070122
0690FE0A6E2F0801F661DD810A012D
0690F30A6E300801F761DD81010129
0690EA0A6E320801F661DE8108011D
0690DA0A6E1B0801F561DE8105011D
0690E60A6E260801F861DD810A011C
0690F80A6E280801F661DE8100011C
0690FC0A6E290801F761DF8105012B
0690F40A6E260801F761DE8101012D
0690E70A6E250801F661DE81070119
0690DF0A6E260801F861DE8103011C
0690D50A6E230801F661DD81080149
0690C80A6E1D0801F761DE8105014A
0690BF0A6E200801F861DE810300FE
0690B50A6E1D0801F661DD81080101
0690B10A6E1D0801F561DE8106011E
0690AC0A6E1E0801F661DE8105011F
0690A60A6E200801F561E0810500FE
0690A40A6E1B0801F761DF80FF00FC
0690990A6E1A0801F561DE8106011E
06908F0A6E180801F661DD8107011D
0690880A6E170801F661E0810700EA
06907D0A6E1D0801F761DD810200EC
0690740A6E1B0801F761DF810B011F
0690680A6E150801F661DE8103011B
06905E0A6E110801F761DE810B011D
06905E0A6E090801F961E08101011E
06905C0A6E0B0801F661DE81080121
0690560A6E0C0801F561E18107011D
06904D0A6E090801F561E0810C012B
0690390A6E040801F661DF810B012E
06902D0A6DF70801F661DE80FF010C
06902A0A6DEF0801F761DE80FC010D
0690380A6DEC0801F761DD810500FD
0690390A6DED0801F661E1810800FE
0690430A6E000801F661DF810800FA
0690140A6DE00801F661E08104011D
068FE80A6DF40801F761E080FE011C
068FB80A6E290801F761DF810A00FD
068F290A6E970801F661DE810700FC
068DA30A6F000801F561DF80FF011E
068BC90A6F030801F661DE8105011D
068A170A6F4E0801F761DF8103010E
06886B0A6FB10801F661DF8102010C
0686C60A70240801F661E1810500E0
06853E0A70790801F561DD810600DE
0683DF0A70A50801F761E081080110
0682AC0A70B00801F761DF8108010C
0681A40A70AD0801F461E08108010F
0680D00A709F0801F661DD810F010B
0680230A70910801F461DF810E00FA
067F930A70790801F661DF811000FC
067F180A70680801F661E0810F010B
067EA90A70550801F761DE810F010D
067E420A703F0801F461DF810F0130
067DE20A700D0801F661DF8110012B
067DAC0A6FEB0801F661E0810F010E
067D8F0A6FF60801F661DF81110110
067D540A6FE20801F661DF810E010B
067D1B0A6FB60801F661DE81130110
067CF90A6FA30801F661DE810D0110
067CD20A6F880801F961DF8110010D
067CA70A6F5D0801F561E08109010B
067C8C0A6F340801F561DF8113010A
067C710A6F320801F661E0810F010E
067C410A6F220801F461DE810D010B
067C1E0A6F1A0801F661E0810F00BE
067BE30A6F1D0801F861DE810D00BB
067B9E0A6F220801F561DF81130100
067B420A6F340801F561DE810900FA
067ACC0A6F3D0801F761E0811100FC
067A460A6F770801F461E0810D010C
0679AB0A6F880801F761DD8112010B
0679070A6FB30801F461DF810D00FC
0678660A6FFC0801F661E1810D00FE
0677DB0A70650801F361E0810E0109
06775E0A71240801F561E08110010E
0676E80A71A80801F761DF811000DD
06767F0A723B0801F661DF811200DE
0676130A72F00801F361E1811300EC
0675B50A74150801F561E2811400EE
06756F0A75540801F461DE810F00FA
0675460A76B20801F661E0811100FE
0675290A77990801F661E28118010D
0675270A77270801F561E18115010F
0675310A76B30801F661DF811A00EE
0675370A75770801F561DF811B00ED
0675390A74220801F461E08117011E
0675410A738B0801F761DE8116011D
06754B0A73810801F661E28115010E
0675530A73790801F561DF81180110
06755C0A73910801F661E18116010B
0675620A73960801F661DF811D010C
0675580A73B00801F661E1811E00EB
0675360A741F0801F461DF811A00EC
06750A0A744B0801F561DF811900EE
0674E30A74140801F661E2812100EB
0674B50A74110801F861E0811C00D0
06748B0A73CA0801F761DF811F00C9
06746A0A73C50801F561E08117010B
06744B0A73C50801F661E18118010E
0674400A739F0801F761E2811B010D
0674490A73B30801F361E28117010C
0674500A73CB0801F661E1811D00F5
0674450A73A60801F561DE811800DD
06744A0A73AB0801F561E0811500DC
06746B0A73A80801F561E18114010E
06747C0A73B90801F661E18115010E
06746E0A73D40801F661E0811400ED
0674590A73C50801F761E1810E00F1
0674370A73D90801F661E08115010D
0674180A73CF0801F761E18113010D
0673E80A73AB0801F761E1811300E6
0673C60A73A00801F761E0810E00EE
06739B0A73730801F561E181110110
0673710A730F0801F561E18111010C
06734A0A72AD0801F461E1810F010A
06731E0A720D0801F461E0810E010B
0672FD0A715F0801F561E0810F00F9
0673110A708B0801F661E0810B00FC
06733B0A6FC00801F661E2810D00ED
0673650A6EE50801F761E2810D00ED
06738F0A6DFC0801F561E0810E010F
0673B50A6D410801F561DF810F010E
0673DC0A6D020801F361E18114010E
0673FD0A6CBB0801F761E08113010A
06741E0A6C590801F661E1810E0110
06743C0A6BEC0801F661E18114010C
0674580A6BF60801F661E1811900EE
0674750A6C220801F561E1811700ED
0674900A6C670801F561E28115010B
0674A90A6CAD0801F661E1811B010E
0674BF0A6CB50801F661E1811E00F0
0674D00A6C790801F661E2811B00EC
0674D60A6C340801F561E1811A010F
0674D40A6BEE0801F461E18119010D
0674D20A6BD00801F561E18123011B
0674C00A6BBA0801F661E2811D011F
0674BB0A6BBA0801F561E0811B011C
0674AE0A6B970801F461E1811900F2
06749B0A6B880801F761E2811F00EC
06747F0A6B6E0801F661E2811D010B
06745F0A6B6B0801F661E1811F010F
06743B0A6B850801F761DF811C010E
0674200A6BA80801F561E0811F010C
0674100A6BDC0801F661E0811D012D
0674050A6C2F0801F661E081200129
0673FA0A6C840801F561DF811E010D
0673FF0A6CC70801F661E2811D010D
06740D0A6D210801F861E38122011B
06741C0A6D640801F861E2811B011C
0674400A6D9A0801F661E2811500FD
0674720A6DF20801F761E0811A00FE
0674A10A6E230801F661E18118010D
0674DE0A6E460801F561E1811A010E
0675110A6E700801F761E28116010C
0675440A6EA60801F661E28112010D
0675730A6EB10801F661E0811500FE
0675A00A6EBD0801F661E2811300FD
0675E10A6EC00801F761E18112010D
06762C0A6ED50801F761E08114010B
0676600A6EF40801F761E18111010F
0676810A6EE70801F661E18111010D
0676BE0A6ED10801F661E2810D010E
06771A0A6EC00801F661E1810A010E
0677820A6EB70801F661E0810D011F
0678330A6E860801F561E0810D0120
0679070A6E9C0801F561E1810E012A
0679DD0A6EAE0801F761E181070130
067A4F0A6E850801F761E1810A0110
067AC50A6E7D0801F761E381080109
067B590A6EA90801F761DF810B00FB
067BBC0A6EA80801F461E1810600FE
067BD00A6EBD0801F461E1810500FC
067BB80A6ECD0801F561E08103011E
067B8D0A6EDD0801F561E18109011E
067B4D0A6F010801F661E3810300FB
067AEF0A6F220801F461E1810600FC
067A680A6F0B0801F661E2810A00EC
0679EC0A6EC80801F661E1810400ED
0679770A6E630801F361E0810B011F
0679170A6DF20801F661E18109011E
0678B70A6DA90801F361E28109012C
06785A0A6D610801F661DF8108012E
0678130A6CF50801F661E38109010D
0677E10A6C960801F661E38111010E
0677A50A6C250801F361E08113010B
06777A0A6BAE0801F661E08111010E
06774C0A6B4F0801F661E2811200EA
0677180A6AF80801F661E2811000EC
0677020A6AB40801F661E48113010D
0676DE0A6A7E0801F661E481120111
0676AE0A6A6C0801F461E28117011D
0676840A6A5E0801F561E181140122
06766B0A6A5B0801F761E28116010C
0676550A6A650801F761E18118010D
06765C0A6A810801F361E3811A010C
06768F0A6AB20801F561E281180110
0676EF0A6AEF0801F661E18119013A
06776E0A6B200801F561E38115013B
0677EE0A6B3F0801F561E181140120
0678E70A6B710801F461E381120120
067A340A6B970801F661E2810E013B
067B5D0A6BA50801F761E2810E013D
067C420A6BC00801F761E28113010E
067D0C0A6BF40801F561E281090109
067DA90A6C130801F261E38107010D
067E090A6C2C0801F461E0810C011D
067E5B0A6C530801F361E1810D011A
067EC50A6C620801F461E38109012C
067F190A6C870801F661E38106012D
067F510A6CA70801F561E2810B010E
067F720A6CB20801F561E48103010E
067FAB0A6CE10801F661E48109010E
067FEB0A6D050801F561E38103010D
06802A0A6D180801F761E48109011E
06808A0A6D420801F761E481080118
0680FB0A6D550801F561E28103010E
0681660A6D550801F661E38107010D
0681EB0A6D610801F661E1810A00FE
0682BC0A6D5B0801F761E3810300FC
06838E0A6D4D0801F861E38106011F
0684520A6D350801F761E48106011E
06850D0A6D260801F661E2810700FA
0685DD0A6D1E0801F661E1810800FE
06867A0A6D070801F561E38102013C
0687170A6CFA0801F461E081080139
0687A90A6CF30801F461E481010112
0688420A6CD60801F761E28108010B
0688D90A6CD00801F861E18109013E
0689920A6CC40801F661E281090139
068A4E0A6C870801F761E48108010B
068B010A6D180801F661E280FB010A
068BA80A6D170801F661E3810A010B
068C520A6D010801F761E28105010D
068CCA0A6CE60801F561E58103012D
068D160A6CDE0801F661E2810B012C
068D250A6CCE0801F861E180FD011C
068D150A6CBB0801F661E28104011C
068CD80A6CB90801F761E18101013D
068CAD0A6CAA0801F561E280FF013A
068CA20A6C990801F661E28105013B
068CF70A6C980801F561E280FD00EC
068D6F0A6C990801F661E180FD00EA
068DF80A6C8B0801F461E280FF00FC
068E670A6C820801F661E0810B00FE
068EBD0A6C730801F561E28108011C
068F270BA81908020461E08106011B
0682A412A23808022261E1810306C9
065B1E1311E808023761E1810606C9
0641BC13101B08023661E480FE0549
0632AA130D6208022C61E38102054A
06290F130C7508022B61E3810604A7
06232613072A08024261E1810104A9
062196130A1808026E61E2810F0505
061F0812E86808029B61E481000509
0618D91317390802CC61E38108051B
06140413176308030261E281110519
0611131316F508033961E2812A062C
060FBD1315DE08036461E4815A0628
060F161312EC08038461E281A705AB
060EC413131E08039161E3822305AB
060F4013131A08038861E382B505ED
06110013110808036D61E1835C05E9
061298130F0808035961E484040609
0613A0130EBC08034961E584A00610
061458130F0108034361E2852B060C
06148213103208034161E185AA060B
0613E51311F108034561E2861105EA
0613231312D508034E61E2869E05E7
06124A13138308035D61E1873C060A
06116513140708036D61E1878C060B
0610AB13142C08037D61E387BC0589
0610131313DE08038961E287DE058A
060F9D13133108038F61E287F10587
060F6813125608038C61E187E905B8
060F491311BF08038561E287F505BD
060EF213132308037961E187D605A8
060E9F13140408037261E287B105AC
060E9D13143E08036E61E48779060A
060EAE1313FE08037361E3873A060D
060E8D13150308038C61E18703058D
060EA7130EBC0803A661E486C6058C
060EB9130CBE0803BA61E2866505E8
060F67130B720803C661E0860905EA
06121A130B240803CE61E285B7058E
0614AB130BBF0803D161E0859E0589
0615E9130D7D0803D361E285C305CC
0616A2130F170803DA61E2860D05CA
06167E1314070803EC61E3865705B9
0614F513157908040861E386AE05B7
06132913166708042E61E186EA05A5
0611841317BA08046161E1873105A9
06102C13194308049C61E2875405DB
060F361319EC0804DA61E1877305DE
060E9B1319A808051861E287A30639
060E5913155908054E61E287E1063C
060E3313116408058461E18833075B
060DDD1310B60805B961E0888E075B
060F1413113F0805EE61E3890E0658
060FE013155008062761E28994065C
06102413180308066661E38A140628
060FBA131A5A0806A661E28A58062A
060F47131FB50806F161E48A9B071B
060EFF13240A08073A61E48AC2071C
060ED013256608078461E38AD0063E
060EB31324920807CC61E38AC6063A
060E871323A808081461E48AB1063B
060E631325F408085B61E38A7705EA
060E5A13298D0808A361E48A3A05E9
060EBB1336AB0808E861E48A19068C
06104813538F08092C61E38A1C068C
0612AA135FC908097561E28A55060B
0614BE1364AD0809BD61E48AD70608
06164A13701A080A0561E28B7F068C
06190E138578080A4F61E48C31068E
061C87138FC5080A9A61E38CF807A7
061F13139AE8080AE461E38DD707A6
06214C13A868080B3061E68EB50875
0624AC13C8E5080B7A61E18F800874
062E9313EA89080BC561E5901E0BD0
0639F313F0E1080C1061E590980BD0
06423D13F60E080C5B61E390F10FE5
06486C14006D080CA461E591320FE8
064DE51405E5080CF161E491590BBD
06533E141DB5080D3761E3915F0BC2
065D9A143B93080D8261E5915A0C60
066C3E1449B2080DCC61E591400C64
067A1B14535B080E1261E591310AD6
0685AC145833080E5761E291110AD8
068E9014614E080E9A61E690E00927
0696AD1466B0080EDF61E490AD0925
069D551469AE080F1D61E5906108C5
06A2A4146C65080F5661E6900708C9
06A78E146959080F8261E48FA609C7
06AB18145351080F8F61E68F3309C7
06AA931458D0080F8B61E58EFB09D3
06A752145DFE080F8961E78EC409D4
06A555146270080F8261E58E7209D1
06A4DC146757080F7E61E48E250D61
06A595146AF6080F7761E48DCF0D5E
06A6CD146E00080F7261E58D700BFF
06A8F0147092080F6C61E48D000C04
06ABC3147321080F6861E68C8109C7
06AE34147541080F6561E58BE709C5
06B0B914772B080F6561E58B3B0937
06B2EB1478DD080F6261E68A900934
06B46B147A46080F6661E589C20967
06B57E147B36080F6961E488EF0965
06B67A147BFC080F6E61E588240A22
06B73B147CD3080F7561E687570A27
06B7B8147DE1080F7861E6868008A5
06B7FE147EFB080F7E61E585B008A6
06B80D148017080F7F61E784E407C5
06B7DF1480CA080F8361E7842807C3
06B7641480FF080F8161E783760854
06B6A6148174080F8161E682C60857
06B5E21481CE080F8061E6821E07E3
06B55614820E080F8061E5817B07E3
06B50F1482AC080F7C61E580D00803
06B4EF148429080F7E61E680380802
06B4D61486A0080F7D61E67F6C0897
06B4AF14898B080F7E61E97EFA0893
06B4A31487FE080F8261E77E590823
06B4E7148608080F8561E97DC30826
06B566148555080F8861E77D2B08A5
06B5DB148527080F8D61E67CA408A2
06B631148584080F9361E77C2208E3
06B65A148638080F9561E77BA608E5
06B63E148685080F9861E77B2E0758
06B5C21486E2080F9761E97AB2075D
06B5111486DA080F9561E77A4B0758
06B4C1148733080F9361E779DB0894
06B4DA14883C080F9061EB796A0897
06B4DC1488C5080F8961EA79090872
06B3AE148945080F8A61E878A40874
06B1741489CE080F8761E9784D0954
06AF6E148A12080F8261E877E40953
06AE3B1489F9080F8261EA77940AC6
06ADBE1489CC080F8061EA773F0AC5
06ADB11489E6080F7E61EA76EE0A03
06ADEA148A58080F7B61EC76990A02
06AE49148B4E080F7A61E97643114E
06AEC0148CB6080F7661EA75F2114E
06AF36148E00080F7661EC759B112D
06AF9C148EFE080F7761EB7549112D
06AFF1148FB3080F7561EC74EE0914
06B03A14903C080F7661EC74990917
06B0771490AE080F7561EB744B08F5
06B0B31490C1080F7461EB73FA08F5
06B0FD148FFF080F7861EC73AA0B33
06B160148E32080F7A61EC73610B35
06B1E4148C8B080F7961ED731607C1
06B280148B57080F7E61EC72C807C3
06B323148A90080F8661EB728107A3
06B3C0148A3A080F8961ED724307A2
06B444148A40080F9061EE72020744
06B491148ADA080F9561EE71D50749
06B496148BCE080F9861EF71A50826
06B43B148D7E080F9C61ED717C0826
06B3BF148E44080F9E61EF7142072B
06B3BB148FF4080F9F61EF7135072A
06B31A14906D080F9F61F071120728
06AEFC149062080F9C61F070ED1ABB
06AACA149059080F9A61EF70C51AB8
06A77C14908C080F9B61F170980FD6
06A4C61490AE080F9C61F2705E0FD4
06A2D11490B2080F9B61F170390CA3
06A195149045080F9D61F470030CA1
06A164147518080F9E61F36F900B81
06A9C41474AC080F9D61F56EAA0B83
06B4AA1474D6080F9A61F46DE80BF2
06BAAF1474E3080F9861F46E1A0BF0
06BD581474ED080F9261F36F970977
06BE631474F2080F8E61F3721C0975
06BEC21474ED080F8A61F275510899
06BEC21474D9080F8861F478C20899
06BEB51474DF080F8761F57C2808E5
06BE9B1474ED080F8961F67F6008E5
06BE421474A8080F8A61F482670845
06BE4614747C080F8B61F68514084B
06BEA5147435080F8D61F7878007B7
06BF5714741A080F8F61F3899607B5
06BFE81473E6080F9161F58B6A07B6
06C05B1473B2080F9061F88D1407B6
06C0DA1473A1080F8E61F68E85070B
06C13114739B080F8E61F48FC1070A
06C15A1473B5080F8C61F790DE075B
06C1321473CF080F8A61F691A7075C
06C0C91473E6080F8561F492A70867
06C0611473EB080F8561F8936D0867
06C022147407080F8261F794060A06
06BFC9147422080F7C61F7949F0A09
06BF781473F4080F7961F6951308D4
06BF811473DC080F7B61F7957808D8
06BFDE1473C5080F7861F795EB08D5
06C02814737E080F7A61FA963C0974
06C0B414736C080F7861F9968F0974
06C132147379080F7961F996D3074B
06C15314735E080F7A61F997100748
06C181147351080F7D61F7974F0917
06C1B2147343080F7D61FA97700918
06C1DB14733D080F7B61F8979F07A9
06C1FA147339080F7B61F997C007A4
06C204147334080F7A61F997DF0EFA
06C217147325080F7A61F897F80EFF
06C23F14733D080F7461FB980E0783
06C24914733E080F7261FC981B0785
06C23E14732F080F6F61FC982D0817
06C23814733E080F7261FA98360817
06C22514739C080F7661FC98450897
06C1C8147396080F7D61F998450898
06C178147339080F8661FA985511DB
06C1C2147334080F8E61FC985511DC
06C227147334080F9761FB985906EB
06C27814732F080F9D61F9986306E9
06C29D147339080FA461FB98610DC3
06C2CF147342080FA661FA985E0DC4
06C2F714733E080FA161FD98620BE0
06C2FC147313080F9B61FD985B0BE5
06C3071472EE080F9161FC98601665
06C2FB147351080F8861FB98541665
06C29B1473A4080F7D61FC98531229
06C1ED1473F0080F7561FE985A122C
06C13B147431080F7161FC985E0A43
06C089147444080F7161FB98670A48
06C021147452080F7261FE98590A46
06BFE1147462080F7961FF98710984
06BFB0147457080F7F61FE98780983
06BFA0147471080F8261FF988107D4
06BF8414747C080F8761FE988B07D6
06BF5C14748A080F8561FE989007F4
06BF2514748A080F8461FE989707FB
06BEDF1474A2080F806201989E076B
06BE961474CF080F7E61FD98AD076D
06BE401474FB080F7961FD98B7076B
06BDE8147510080F7761FE98B5076B
06BD95147526080F77620098BD0837
06BD54147528080F7861FF98C50837
06BD2B14752A080F7C61FE98D10848
06BD13147537080F7F61FF98DD0846
06BD02147538080F82620198E807E9
06BCF814752D080F8361FF98F707E8
06BCF7147532080F8761FE9907076B
06BCF314750E080F8B61FE990E076E
06BD001474F2080F8961FE99160796
06BD2B1474ED080F88620099350796
06BD601474DE080F8861FE993B0815
06BD851474CC080F8661FE994B0819
06BDB31474C5080F8361FF995D0B5B
06BDBE1474E9080F80620099680B58
06BDA3147506080F7E6201997507F5
06BD7A147518080F7C6200998307F7
06BD4F14753C080F7C6201998C0A15
06BD1814753C080F7A620099900A17
06BCE0147534080F7C620199910967
06BCC914752D080F7D61FF99970964
06BCD7147509080F8161FE999607E6
06BCEC14749E080F866201999707E6
06BD4F147494080F8B61FF999407E8
06BDA21474F2080F91620299980A08
06BD6914750E080F956200999D0A06
06BD35147510080F96620099A20935
06BD1A147505080F98620099A40934
06BD09147510080F9661FF99A00966
06BCDE147532080F9361FF99AD0967
06BC8D147547080F9161FF99AF0906
06BC4B14755F080F8C620299B20909
06BC2414755E080F87620099B50AB7
06BC22147550080F8261FE99BE0AB9
06BC3A147550080F7F620199CB09B9
06BC53147532080F7D620199DA09B5
06BC7D147500080F7C61FF99DD0A25
06BCC31474D9080F79620099F10A27
06BD221474BE080F76620199F70907
06BD7B14748F080F7662009A000908
06BDE2147465080F7561FF9A0908D6
06BE4D147444080F7461FE9A0008D9
06BEB71473FF080F7161FF99F80ACA
06BF631473EB080F6E61FF99F00ACA
06BFED1473C8080F6A620199EB08A8
06C0591473C5080F68620199DF08A8
06C09C1473AB080F69620199CF09B5
06C0DB1473AE080F6861FF99C709B6
06C11C14739C080F68620199C10976
06C1241473A0080F69620199B20975
06C1171473C8080F6C6201999E0996
06C0AD1473F0080F7062019991099A
06BFEB1473F0080F746200998D08EB
06BF5E147409080F7661FF997A08E5
06BF001473FE080F796201996908E6
06BED01473D2080F7D61FF995D0896
06BEF21473D3080F7F620099560893
06BF2414736A080F81620099410934
06BFC0147228080F85620099450937
06C1E814718A080F8B61FE994408A8
06C48D14711D080F906200993008A5
06C64C1470C8080F98620099270827
06C73614707E080FA06200991B0826
06C7C4146EF8080FA661FE99100D00
06C8FF146FB8080FAB620099010D00
06C9521470A7080FAF61FF98F00E0F
06C8B5147034080FAD620098E90E11
06C86714704A080FAA61FF98DB08B9
06C857147092080FA6620198CC08B5
06C8171470DC080F9E620098C30B26
06C7AD14717F080F95620098BE0B28
06C6CF147205080F8D61FF98B7075D
06C5C6147231080F89620098B50759
06C5111471D4080F8661FE98BD10D2
06C4F3147163080F85620098BD10D2
06C57514713A080F8561FF98BA0894
06C6181470B5080F86620098AC0899
06C6F714701B080F88620098AA0865
06C7ED146FC7080F8A620098A00864
06C8F5146F7B080F8861FD989B0913
06C9BA146F5A080F8661FD988F0917
06CA51146F5F080F7F61FE988D0B14
06CA74146FEF080F7A61FD98800B17
06CA08147090080F7161FF98820AE2
06C93E1470B5080F6D61FE987D0AE7
06C87F147066080F6B620098820917
06C856147057080F6861FE98800914
06C84C147020080F6B61FB98800913
06C885146FD4080F6C61FC98770B69
06C900146F8C080F6F61FD98790B66
06C9A8146F30080F6F61FE986C0AF6
06CA66146F1F080F7061FE98660AF4
06CAF5146EF8080F6E61FD985D0AC3
06CB40146F01080F6D61FE985A0AC8
06CB4A146EE8080F6A61FD984F0CB3
06CB49146EF3080F6A61FD984D0CB1
06CB32146F06080F6B61FC984D0945
06CB3D146D81080F6E61FC984E0948
06CD00146B9B080F7361FB984407E8
06CFEC146ACC080F7861FC982B07E6
06D28C146AFD080F8161FD98170995
06D49E146AD0080F8D61FB97FB0997
06D5C2146B04080F9361FB97EB0B19
06D5D8146ADF080F9E61FB97E30B1A
06D5F7146A3F080FA261FD97DA0A24
06D6FE146A23080FA361FB97D20A26
06D884146A77080FA161FC97C209C3
06D8DB146AE3080F9E61FB97B409C9
06D771146B7D080F9961FC97BD0B37
06D5A9146C1D080F9361FC97BB0B38
06D439146CB4080F8F61FB97C80C83
06D2F8146CC6080F8861F997D80C81
06D214146CD2080F8461FC97D40926
06D1B2146D30080F8261FB97D80923
06D12D146D5B080F8461FB97D90A64
06D0AD146D3F080F8161FB97D80A65
06D091146CD4080F8361FA97D50BBE
06D0DD146CAF080F8561FA97D20BBC
06D127146C9B080F8461FA97D00BC0
06D18B146C79080F8561F897CD0905
06D1D7146CA1080F8861FB97C80904
06D1FC146CB3080F8761FA97C40A56
06D1FD146C97080F8B61F997BA0A55
06D1FA146C76080F8961F897B60BB2
06D23D146C6F080F8961FB97B30BB1
06D2AA146C68080F8661F897B109D4
06D2CC146C4D080F8461FB97AA09D7
06D2FF146C9C080F8061F897AC08E7
06D2C0146CA0080F7D61F897A408E3
06D262146C7E080F7C61F997B109B5
06D26F146CAE080F7C61F797AE09B2
06D231146CA1080F7C61F897AF0A18
06D20E146C97080F7C61F697AC0A19
06D223146CA1080F7B61F697AA0A78
06D227146CA1080F7C61F897A90A77
06D233146C5F080F7D61F897A50AB7
06D277146C34080F7C61F897A00AB6
06D2FB146C14080F7C61F897990975
06D394146BE5080F7961F797910974
06D3FC146B82080F7461F8978D0973
06D470146B8C080F7061F897890977
06D48C146B91080F6C61F797870927
06D477146BA3080F6961F69780092A
06D44B146BC7080F6961F597820A46
06D411146C22080F6661F7977F0A45
06D385146C1B080F6A61F597850975
06D31B146BA0080F6C61F797810975
06D3A3146AD1080F7561F597880BC1
06D568146AC1080F7C61F7977C0BC0
06D6F3146A9D080F8261F697720BE1
06D7E71469A3080F8661F597560BE3
06D9DC14694A080F8C61F2976B0BDE
06DBAC146914080F8E61F4974D0AB9
06DCC914690F080F9261F397530AB4
06DD4C14690B080F9661F497380A27
06DDFE1468E2080F9661F597260A28
06DE04146914080F9861F3970409C5
06DDDB146936080F9861F596D609C2
06DD831469B2080F9561F3969A0A35
06DCBF146A1A080F9561F496530A35
06DBB8146A50080F9461F1960D0B9E
06DABC146A6E080F9361F495CA0BA2
06DA09146A68080F9361F395830AC8
06D9D8146A59080F9061F395570AC6
06D9CD146A44080F8B61F295390BF5
06D9C3146A46080F8761F195290BF1
06D9B7146A65080F8061F1952D0AE8
06D966146A6D080F7D61F2953B0AEA
06D914146A73080F7861F295580C22
06D8E0146A59080F7161F095730C22
06D8A9146A59080F6B61F095920BAF
06D877146A52080F6361F295B60BAF
06D83E146A68080F5E61F195D00C81
06D818146A7C080F5A61EF95F00C82
06D7DD146A68080F5861EF96061D17
06D7AB146A72080F5B61EF96191D16
06D787146A57080F5B61F1963019A3
06D755146A5E080F6061EF963F19A0
06D72E146A6A080F6361F096511812
06D6F8146A68080F6761ED965D1812
06D6BB146A86080F6B61EF966D09F6
06D693146A95080F6F61EF967609F7
06D671146A95080F7361ED968809F6
06D65D146A94080F7961EE969308D7
06D65C146A8B080F8161EF96A308D4
06D66A146A8F080F8361EF96AF0955
06D680146A86080F8761EE96B10955
06D6A1146A6D080F8861ED96BC08D4
06D6E7146A5C080F8A61EE96C308D4
06D73A146A41080F8B61ED96C409A4
06D7A5146A3F080F8A61EC96CB09A6
06D7E6146A37080F8761EC96C70974
06D7FA146A37080F8861ED96D00973
06D7FB146A3F080F8461EB96D709C4
06D7E9146A3C080F8361ED96DD09C8
06D7D4146A49080F8261EA96E309A5
06D7B3146A37080F8361EC96EA09A3
06D7A5146A3B080F8761EB96F209F8
06D79F146A37080F8961EB96EE09F8
06D794146A2D080F8B61EB96ED09D6
06D78D146A3B080F8B61EA96F609D3
06D771146A46080F8F61EB96FE0B2A
06D74F146A52080F9061EB97020B28
06D70E146A68080F8E61EA97080975
06D6CE146A77080F8F61EB9710097B
06D694146A78080F8B61E997140984
06D66D146A90080F8861EB97170987
06D63C146AA6080F8461E9971F09F4
06D5E3146AC1080F7F61E9973C09F4
06D583146AF6080F7A61E897530AF8
06D50C146B0B080F7661E897510AFC
06D4A3146B24080F6E61E8974C0AF8
06D454146B41080F6A61E7974C0AF5
06D3FE146B55080F6B61E8976B0924
06D391146B90080F6861E8974A0927
06D322146BA9080F6361E7974F0924
06D2A0146BF4080F6461E797640C61
06D1EF146C4C080F6361E5975A0C62
06D12B146CE6080F6661E4976B0AD9
06D03B146D36080F6A61E5976E0AD9
06CF4F146D3F080F6F61E8977D0962
06CED1146D60080F7261E697820965
06CE73146DBF080F7761E697900993
06CE00146DE2080F7D61E597900998
06CD9F146E4F080F8061E5979407F6
06CD23146F10080F7F61E5979B07F8
06CC45146FB3080F8361E497A40819
06CB50147092080F7F61E597AC0813
06CA2914713D080F7D61E297B41112
06C90E1471CF080F7B61E497C31111
06C817147203080F7E61E597CA08E7
06C76E14724B080F7E61E397D708E7
06C6E4147272080F8361E297DE07D6
06C668147278080F8661E397E507D4
06C61D147277080F8D61E397F0072D
06C608147294080F9361E297FB072A
06C5F1147277080F9961E298090770
06C5F8147281080F9E61E19810076B
06C6041472A4080FA361E1981406CC
06C5EE1472BA080FA461E1982806CB
06C5CD1472D1080FA861E19838076A
06C5A91472E9080FAA61E1983C076A
06C58A147300080FAB61DF98490897
06C56614731B080FAA61DF98520894
06C536147342080FA961E098600918
06C4FC147379080FA561DF98680915
06C4A7147396080FA061E0986A0917
06C4561473AB080F9961DE98760845
06C40B1473A0080F9061DE987E0845
06C3DB147379080F8661DF98840814
06C3CB14735E080F7E61DE98850817
06C3DD14732A080F7561DC98850914
06C3F1147311080F6C61DE98810915
06C40A147326080F6661DD988509B6
06C3FE147325080F6361DF988A09B5
06C3F014732F080F6261DB988609C7
06C3E714732A080F6261DD988109C4
06C3EE147334080F6361DA98790937
06C3E9147334080F6461DC987E0937
06C3F8147321080F6561DC987B0893
06C406147302080F6761DE98790898
06C417147311080F6761DA988108C8
06C4101472F2080F6661DC988208C6
06C4221472DF080F6961DA98870A14
06C4391472BE080F6861DC987F0A16
06C4571472C7080F6961D898840A06
06C4651472A2080F6D61D898830A08
06C489147286080F7161D7988A0A68
06C4A514729D080F7461D998840A64
06C4AE1472B3080F7861D998850889
06C48D1472CC080F7F61D698810888
06C428147300080F8461D7988509D7
06C3CF1472EE080F8A61D9988A09D5
06C3B41472ED080F8E61D798890968
06C3AD1472E9080F9161D898900963
06C3B814726A080F9661D898920C4F
06C429147193080F9961D6988E0C50
06C52B1471B3080F9E61D698880906
06C5EA1471ED080F9F61D698810906
06C618147192080FA561D798790903
06C63214710E080FA261D5987B09E8
06C6B61470BF080FA261D6986B09E5
06C77A1470A3080FA161D4986E0B48
06C82D147104080F9D61D398690B46
06C895147176080F9861D5985F0BBF
06C7FD1471C5080F9361D598620BC1
06C72B1471D8080F9161D3985F0A66
06C68C1471B1080F8B61D398640A68
06C6641471E8080F8861D4985F0A97
06C6661471BC080F8361D398670A98
06C6581471B1080F7F61D1986D09B7
06C653147176080F7C61D3985D09B7
06C6A8147104080F7761D2986508E5
06C740147061080F7261D1986608E9
06C846146FBD080F6C61CF985E0805
06C978146F85080F6A61D198570809
06CA6E146F73080F6761D198490997
06CAEA146F82080F6061D198450997
06CB18146F7B080F6061D0983C0A48
06CB45146F37080F6161D098370A47
06CB95146F06080F6061D0982F0B18
06CC06146EE3080F6061CE98240B1A
06CC65146E5D080F6261CF98220AA9
06CCFA146E22080F6561CE98190AA3
06CDBD146DE2080F6561CE98100918
06CE5B146DB4080F6761CF98010914
06CF04146DC9080F6A61CC97FA0A04
06CF53146DFF080F6D61CE97F10A04
06CF4C146E18080F6E61CD97EF08C5
06CF26146E04080F7161CC97EB08C9
06CF33146F24080F7161CF97E608C4
06CE61146FE5080F7661CC97E00939
06CCCB147168080F7761CC97E40939
06CABB1470EB080F7A61CB97E90A57
06C96F147008080F7661CC97FA0A5A
06C9E8147007080F7861CB97F308A6
06CA7B146FD0080F7C61CC97EC08A5
06CB0914713F080F7B61CB97E60866
06CA24147086080F7B61C997E90866
06C8CD147193080F7F61C998000D21
06C72814727C080F8261C9980A0D23
06C514147334080F8361C8981A0976
06C30A1472D1080F8461C898290976
06C201147273080F8261C898430A27
06C1F4147223080F8161C998500A24
06C25F1471BC080F7F61C898640855
06C347147171080F7E61C798780856
06C421147171080F7D61C7988908E3
06C4A5147130080F7961C6989908E4
06C52F147052080F7761C898B40813
06C6A71470D6080F7861C598C00815
06C6EE147232080F7861C698D508F8
06C55A147249080F7A61C598EA08FB
06C3F0147269080F7A61C598FF0935
06C310147265080F7A61C5990B0934
06C2891472AE080F7A61C5991508F8
06C1FC1472D6080F7861C4991A08F6
06C1971472B8080F7761C4992B0937
06C1AE147286080F7461C299300939
06C227147257080F7361C3992F0AB8
06C2B014721E080F7161C3992F0AB9
06C33F1471DD080F7261C499400A7A
06C3C61471F7080F6F61C299490A78
06C3D6147207080F6F61C4994F0A77
06C3BA1471F7080F7061C2995B0AF8
06C3C51471B7080F7161C399630AF5
06C3FE147171080F6E61BF99670A76
06C4ED14712B080F6F61BF996E0A78
06C5F01470F7080F6E61C2996D0A46
06C69D1470E6080F6C61C199640A49
06C6FF1470B5080F6D61BE995E0B67
06C7661470BF080F6B61C099530B66
06C7B41470BF080F6B61BF99450AE7
06C7C51470BF080F6D61BE993E0AEA
06C7C71470D2080F6F61BF992F0AB8
06C7B6147135080F7661BF99320AB6
06C7611471A2080F7761BE991D0AB9
06C6A0147192080F7B61BC99190AB8
06C5E6147135080F7C61BE99100BC4
06C5FC147121080F7F61BD99030BC1
06C6631470F5080F7E61BB98FB0B27
06C6E21470DB080F7E61BB98F10B27
06C7691470AB080F7961BB98E50A69
06C7C614706F080F7861BC98E10A6C
06C84514703E080F7661BD98CE0AC9
06C8B7147043080F7961BC98C70AC8
06C90614700D080F7B61BC98C20B75
06C96C146FC2080F7F61BA98B70B72
06CA0B146FD4080F8961BA98AB09F7
06CA96146FA9080F9161B898A209F8
06CACA147003080F9461B898A10A74
06CA5F147016080F9661B9989D0A73
06C9D8147039080F9461B898950946
06C96B147029080F9061B898910949
06C955146F9A080F8861B898860944
06C9F0146F5A080F8161B8988009B5
06CADD146F29080F7761B9986E09B6
06CB96146EAD080F6F61B898570973
06CC8C146E80080F6C61B998420977
06CD3C146EA8080F6A61B798270BD3
06CD7E146E40080F6961B698170BD3
06CDF4146DBA080F6D61B5980609E4
06CEBB146D57080F7061B597F109E5
06CFCD146CC3080F7061B797D80B26
06D0EF146CEB080F7161B697C80B25
06D193146D21080F6761B497B10A34
06D1AB146D3F080F5261B2979A0A36
06D184146DE2080F2E61B4979808E5
06D0A7146F29080F0561B2978608E7
06CE72146FA1080EDB61B597800988
06CC1D147016080EB261B497890984
06CA26147118080E8B61B297840A29
06C7B8147127080E6861B197850A27
06C60F147155080E4561B297960988
06C52A147144080E1F61B397A40985
06C47E147228080DF761B297AF0AD7
06C22014717A080DC861B297D50AD9
06BF5914703E080D9B61B0980808F7
06BD2B146F2B080D6B61B2983808F8
06BB8E146EC1080D3661B0986C0967
06BABA146EC0080D0461B0989C0966
06BA0C146E3B080CCE61B098D208D8
06B932146C97080C9561B0991608D8
06B75C146B4F080C5D61AF99760A18
06B51E146830080C2761AF99DE0A17
06B2761464D8080BEF61AE9A440B7E
06AF2C145E65080BB661AF9AA10B86
06A9BA1453F2080B7F61AE9B070B83
06A38114578B080B4861AD9B5D0CC0
06A023144DDF080B1461AE9B990CC6
069CD3143BBF080AE361AD9B970BD3
069372143BCC080AB261AE9BAB0BD4
068A85142B1F080A8261AC9BB20B82
068321142E70080A5261AA9B7E0B84
067F1E141C53080A2461AC9B4309B7
067910141E450809F261AB9B0309B7
067566140B440809C261AC9A9D08C6
066F2E13FF9808098F61AA9A4408C6
06684C13C29E08095B61AA99F60825
06569A13A9D408092661A999D50824
06428E13AC8F0808F161A999FF0798
06387813AF0B0808B961AB99DA0798
0634FD13A28908088661A9997C076F
0631F513985B08085361A899140770
062E6913988108081E61A998B80818
062C241390080807EC61A998610818
062AC61387F90807BC61A6980007A5
0627FE1385D008078D61A597CD07A7
0625C81376D508075F61A697A207C7
0622321379A408073361A5979907C8
0620621377BE08070861A5979107E8
0620091373880806E061A6979107E7
061EA713732B0806BB61A6979C073C
061D85136FF908069761A497AA073B
061C87136C7408067661A497C80853
061BA313699C08065661A697E80856
061A891366DC08063461A4980807E6
0619C013661A08061461A2982A07E8
0619441361EB0805F661A3984907E7
0618951358DD0805D461A3986A074F
061798135AF80805B761A3988D0749
0616E613599708059A61A398AE074D
06169513583908058A61A498CF074C
06164B13586108058061A198F8069D
0615D2134FB308057461A3991C0699
0614F1134E3608056761A299490776
06144B134E8C08055261A199630777
0613CC134AA908053561A29990067C
06139713492E080514619F99B3067D
06138613488F0804F661A199CC071D
0613AB1345FA0804DC619F99EB0719
0613801344690804C9619E9A0A0777
06131613421E0804BA619E9A260777
0612751340B40804B2619C9A4006CC
0611D0133FCF0804A6619F9A5B06CC
061163133D86080496619F9A7C072B
0610FC133C29080482619C9A8A072A
061091133CB1080465619F9AA6068A
061092133CCC08044261A09ABE068B
06110F133B9508041E619C9AC6070C
061173133AD20803F7619D9AD9070E
0611941339820803D0619E9AED073A
0611781337DE0803B5619C9AFC073D
0610FC1337650803AA619D9B0E073D
0610521335D20803B2619A9B26073B
060FAA1334110803C6619B9B3B07C5
060F0213346A0803D6619B9B5307C3
060E9C1335270803DC619A9B6D06EA
060E6F1336B10803DE619B9B8006EA
060E801335D70803DE619A9B8A065C
060E8D1334FE0803D7619A9B9F065D
060E971334C10803CF619B9BAA065B
060EB91334DD0803C4619A9BB1070A
060EE513351E0803BA61999BB2070C
060F161335350803AC61979BB907C3
060F3A13352E0803A3619A9BB807C3
060F5E1335300803A0619A9BC2063C
060F511334400803A761989BC70638
060EFD13358D0803B961999BCD06FE
060EB31335920803D161979BC806FC
060E851338AF0803F461999BD5073A
060E8513372508042361979BDA073A
060E7B13353508043E61979BDB06F8
060E3D13386908044E61979BDE06FD
060E4013378608045D61989BE7135C
060E5A13374408046F61979BDF135C
060E5B13355F08048A61969BDE075D
060E351334690804AF61969BE2075B
060DEE1339430804DF61969BE5069C
060E1D133CA808051D61969BE6069A
060E78133BA708055C61979BEF06DA
060EAD133AEE0805A161949BF306DB
060EB7133BC80805EB61959BF0071D
060EC3133DF108064861949BF0071C
060EE41342670806AC61959BF106CD
060F3B1342DD08070D61949BF006CC
060F9E13542A08076A61949BF106FC
0610801357B40807CD61959BE406F8
0611A313569E08083161959BD90807
06122C135D150808A261929BD20806
0612CE13618F08091261929BC9065C
06137213677308098361939BBF065C
061451136E690809F761929BAE07DE
0615EA137819080A6261939B970815
06176913955C080AC961929B7F0815
061BC2139FFE080B2761919B5C0788
0620BB13A57B080B8261929B1F0789
06239513AFE3080BD961909AE60819
06266313D780080C2A61929AA50816
062DDF140595080C7E61939A3F0D31
063E46142A07080CD4619299650D35
06525C1456CD080D28619098840DDF
066EC514623D080D83619197450DE0
06860E146B74080DDD6193963B0A21
0696EE146F1A080E376194958C0A28
06A4F714724E080E90619194EB0954
06AE63147621080EE6619094AF0956
06B4751476E9080F35619194A61342
06B830147603080F85619094FF1345
06BBD31474B6080FD4619395A809B4
06BFF1146D1108101C6190966D09B5
06C7E6146AE4081066619097230A37
06D1A41467820810AD619097B20A35
06DA7A14671C0810F4618F98270868
06E01014677408113E619198810865
06E34014677F08118B619098BF0936
06E55714697B0811D8618E98CF093A
06E75F1474990812256190987407D2
06EC2014764D081278618F97B007D2
06F01D1478DC0812C6618E96810A66
06F2DF147F860813156190951C0A66
06F5F5148CE1081362618F939206EB
06FBAB148F4F0813AF618F91DC06EA
07013314950A0813F761908FFB0785
0706B7149E7A081444618F8E280783
07107814A114081491618E8C370783
0719AF14A3B90814E2618F8A6806FD
07214814A40F081532618E88AF06F7
07264C14A49F08158D618F871C1276
07293414A4DD0815E1618F85951277
072B1014A50608163A61908434061C
072C3E14A593081691618F82D6061C
072D7014A65C0816E761908187067E
072ED414A6A908173B619180460678
072FEC14A6EB08178D618E7F0908F5
07309B14A7BE0817DD618E7DED08F8
07319114A89E08182B618E7CD70866
07331814A9A708187861907BE80867
0734C014AA400818C261917AEE0A11
07362514AA6A08190B618F7A0B0A17
07373314AAB8081954618E793D068C
07384814ABD308199C618E787F0690
0739C314AC5B0819E1618E77C905DB
073B4414AD3B081A28618F771F05DF
073CB814AD9B081A6C618E768B0DB1
073DD214ADE1081AB2619075F90DB1
073E8114AE26081AF56190757E051A
073F2B14AE65081B35618F7504051A
073FE014AEA6081B78618E748F04A8
07408A14AEB6081BBB618F742404A7
07410814AECA081C01618E73C2046A
07415814AEE8081C486191736D046B
07418F14AEF0081C8E618F73160785
0741BA14AEFA081CD7619072CF0783
0741E814AF2A081D21618E72850719
07422714AF98081D6D618E723A071D
0742A314B02D081DBD619171EF0479
07435C14B092081E0B619071B50478
07442C14B107081E5B6191717E0474
07452D14B131081EAF618F713104B7
07466214B221081F05618F70F704B8
07484D14B25B081F5A619270BF0539
074AA814B251081FAB619170760538
074C9814B239081FFE618F7038060B
074DBB14B1B4082054619070050609
074ED114B1A90820A661906FCD07B7
07508614B1C10820F761916F9107B4
0752B314B1B908214461926F4E040B
07545114B1F608219361916F11040A
07558814B26E0821DF61906ED503A8
07564514B28108222461936E9603A8
0756A714B28908227461916E5C042C
0756D414B2B10822BE618F6E15042B
0756E614B2DD08230961916DD50419
0756E114B34F08235661916D950419
0756D414B38A0823A661926D5203B7
0756B814B3BA0823F061926D0C03BA
07569C14B3CE08243E61916CD7051D
07568D14B41108248661936C98051C
07567614B4CC0824D161936C6803F5
07564114B53B08251961916C2A03F9
07561814B66308256561926BFE0379
07562D14B65C0825B361916BD80377
0756AD14B63608260461946BA20399
07574D14B62508265661926B830399
0757D314B6190826A861946B64030E
07583F14B6140826FC61956B34030B
07588114B65708274F61946B1D02FD
0758A814B5FD08279A61946AF802FF
07590214B5DA0827E961956AE10324
07596014B5CC08283361956AC10331
0759AE14B5D908287D61946AB2032F
0759DA14B5F70828C361946A98033E
0759E414B62708290A61966A7C033F
0759D714B67E08295461936A6E033D
0759C114B6900829A361966A57033A
0759AB14B75B0829F161976A3D02FC
07597614B873082A4361976A240300
07590614B8D9082A9761966A19030D
07589E14B942082AEB61976A07030A
07586514B947082B3E619569F9039B
07586614B94C082B90619669E90395
07588014B9C3082BDE619769DD036A
07589914BA38082C2C619569D2036E
07588B14BA64082C7A619769C9033E
07586C14BB09082CC8619869C4033B
07583514BD29082D19619469BF0301
07579014BE5A082D6F619869B102FF
0756C314BDF9082DC7619669AF030E
0756BD14BD02082E22619769A7030C
07579E14BD1B082E8061966993075D
07586E14BD24082EDB61946984075B
07590814BC7B082F366195696F027D
0759BC14BC40082F8D6198695D027D
075A6314BC46082FE16199694C04BD
075AC914BC4108302D6197692104BB
075B0A14BC0C083077619568FC02B0
075B4614BBDF0830C0619768D402B1
075B8514BC68083106619568AA043C
075B8114BD8F08314A619668810438
075B4214BF290831916198685202DB
075A6A14BFDB0831DF6198682302DC
0759BC14C02008322B619567F502A0
07594514C050083279619667CF025B
07590514C0E10832CA6197679F025B
0758C814C06508331961956775024D
0758D314BFE608336A6197674E024F
07593614BF550833BD61966720028B
0759B714C00808340B619866F4028E
0759CF14C00E083457619566D8022F
0759BB14C0A20834A2619666B8022D
0759BC14C2250834EE619766940209
07593C14C2B20835386196667A020E
07589314C4A508358561966662022D
07579814C5CC0835D06197664A022E
07567B14C64A0836226196661C020E
0755B714C70708367261986622020D
07551314C8C80836C561966606020D
07545114CA5808371F619765F0020C
07537114CAD6083778619565DA026E
0752C814CB010837D2619765D1026D
0752A114CAB9083829619665C901FC
0752FE14CAD2083882619465B801FA
07534214CAB90838D9619665B001EC
07537014CAD108392D619665B001EA
07538414CB15083984619865A301E9
07537114CA6B0839DB6195659D01ED
0753B914CAB3083A2F6197658D01FD
07543F14CAF8083A826196658001FC
07547A14CAEE083AD961946572023C
07549B14CADF083B31619565680238
0754C614C5D1083B856194655101FD
0756BC14C3E8083BDA6193654601F9
0759D414C217083C2C6194652801DD
075C8514BD33083C7F6191650801DF
07609414BCBA083CD0619364DE01FA
0763B514BCB0083D25619564BD01FF
07654914BCD2083D756194649401FA
07660514BCD7083DC661946460019D
07666114BCD4083E1A619364200198
07669314BCD2083E6E619163D1026B
0766B114BCD7083EC26193637E026F
0766C714BD68083F1B61926319021C
0766DB14BDAF083F6D619462B6021C
0766CD14BDFE083FC46191624F050A
0766C214BE55084019619261EC050A
0766AE14BE9308406E6190619201FC
07669A14BEE10840C06191614801F9
0766B214BF16084111619160D9027A
0766F614BF9D084163618F608B0280
07672514C16D0841B46190603E026E
07676614C188084203618E5FF10270
0767A914C19E084257618F5FAC024D
0767D114C1860842A9618E5F69024E
0767DD14C16D0842FF61905F24025F
0767DE14C169084352618E5EE5025F
0767DA14C1770843A2618E5EA8024A
0767D814C1D80843F5618F5E60024F
0767E714C25B084449618D5E24022E
0767EA14C282084497618D5DE7022A
0767E514C2810844E9618B5DAA025C
0767E114C28B084539618B5D7A0259
0767E014C29E084588618B5D46024C
0767DB14C2950845D9618B5D1A024C
0767D914C2A108462C618B5CDE023A
0767D714C2BB08467F618C5CDC023E
0767CE14C3120846D8618B5C9D028B
0767B814C304084733618C5C78028C
0767A514C32608478D61895C4D028D
07679214C3A80847E961885C31028A
07677614C3D908484061885C12027D
07675C14C3E308489A61895BFB0279
07674B14C4250848F261895BE4027B
07674214C46A08494D61865BCC02DC
07673C14C4DA0849A761855BB902DE
07672D14C4F70849FE61855BA8028D
07672214C4EC084A5861885B9B028D
07671D14C4AE084AAF61855B85029B
07671C14C6A1084B0761855B82029D
0766F114C7D7084B5F61865B6E02EB
07669E14C82E084BB661845B5C02F1
07665D14C8C3084C0E61855B4F02EF
07662E14C90E084C6461835B4A02EB
07660814C930084CB661835B360377
0765F314C9B3084D0B61825B240377
0765DC14CA80084D5961825B1C035B
0765C314CAAA084DA761835B0D035B
0765AE14CAC2084DF261825B0003C8
07659F14CAD1084E44617F5AF703C8
07659614CABD084E9361825AEB02F9
07659314CABE084EE461805AD902FF
07659714CAAA084F3A617C5AE3032B
07659B14CB06084F8D61805ABD032D
07659A14CB32084FE6617C5AAE0318
07659514CB4F08503B617D5A9B031B
07659014CB76085090617A5A8F033D
07658F14CBBA0850DE617B5A8B033B
07658E14CBE1085129617B5A79034D
07658C14CBD708516D617B5A77034E
07658E14CC1B0851AE617C5A68031A
07659214CC810851E9617B5A5E031B
07659B14CCD408521E617A5A4C02FA
0765AC14CD1808524F61795A4502FD
0765C214CD5708528361775A3802D3
0765E014CD910852B261785A2C02BC
0765FF14CD9B0852E161765A2602BB
07661914CDC208530D61755A1B02DB
07663814CDED08532161795A0A02DD
07665D14CDED08532F617559F9028F
07666614CE1408533C617359E7028C
07667A14CE20085348617459D802BE
07669514CE1908534F617159C502BE
0766A014CDF708535B617259AC0589
07669D14CDE408536061715997058C
07668E14CDE90853636171597E029D
07667F14CDE8085363616F5965029A
07667414CDED085364616E5948030F
07667114CE58085365616D59300310
07669114CE62085368617059100395
0766B214CE7A08536D616D59050399
0766CA14CE8C085372616D58E0030F
0766E214CE8908537F616B58CE030D
0766EA14CEC3085386616C58D002AC
0766FC14CEFE085391616B58D402AE
07670E14CF1B08539A616A58A6023C
07671F14CF290853A2616A5892023C
07672814CF300853A5616A58840293
07672E14CF240853A761665870028E
07673114CF160853AB6167585D02EC
07673114CF070853AC6164584702EE
07673114CF160853AE6164583602CD
07673014CF110853B06165582102CE
07673114CF020853B861655811027F
07672E14CF110853BF616257F9027E
07673414CF160853C9616257EF029F
07673114CF1B0853CF616157E4029E
07673214CF1C0853D5616157D202A6
07672714CF160853D7616157C602AC
07671614CEEA0853D4615E57BC02AC
0766F814CEBA0853CF616057B2027A
0766EF14CEBE0853C8615D57A6027E
0766E214CEB00853BE6160579E027B
0766D314CEAB0853B0615B5796027B
0766C414CEA10853A7615D579802CD
0766B914CE8E08539D615C578902CD
0766B614CE9C085398615B578702B0
0766A814CE630853956159578802AB
0766A714CE4F085399615A578102DB
0766AF14CE4A08539D6157577B02DD
0766B714CE620853A36157578002EF
0766C214CE620853AC6155577F02F0
0766CA14CE6C0853B66156578B029D
0766D514CE720853C26154578A02A0
0766DC14CE710853CB6155578902AC
0766E114CE7F0853CF6153579602AD
0766E114CE980853D3615357950290
0766E614CE7F0853D661525792028A
0766E814CE910853D761515791027C
0766ED14CEAB0853DB614F579A027B
0766F614CEBA0853E2614F5792029D
0766FE14CECD0853EA614E579D029A
07670314CEDC0853F3614D5790026D
07670414CEED085401614E578E026F
07670C14CF0208540D614D5789021B
07671314CF20085419614B578B021A
07671B14CF38085422614B5788022C
07672814CF5A085427614A5783022F
07672F14CF7308542A614A577E023B
07673514CF7C08542861485779023F
07673E14CF8108542361455776025D
07674314CF8608541C6145576C025C
07674114CF8108541461465768025C
07673A14CF9208540D6146576202EB
07673114CF990854076145575D02ED
07672814CF940854056144575802BB
07672614CF8F0854036143574D02BF
07672D14CF8F0854076141574E0289
07673314CF94085409614057450290
07673414CF9708540A613F5742022B
07672D14CF9408540D613F573B022C
07672A14CF8F08540E613F573F021B
07673114CF9908540D613D5733021D
07673B14CF9E08540B613B5734026F
07673C14CFAB085405613D572D026C
07673A14CFA8085402613A572C0238
07673414CF9E0853FD6138572B023C
07673014CF9E0853F961385725027F
07673414CFA30853F661385725027F
07673A14CFA10853F46137571F026C
07673B14CF9E0853F66135571B026B
07673714CFA30853F66136571D024D
07673814CFA30853FB61345718024D
07673814CF990853FD6134571D028B
07673114CF8F08540061335713028C
07672E14CF920854016133571502E9
07672C14CF8F0854066132570C02EB
07673014CF8608540B61305708023D
07672F14CF81085412612E570F023F
07672C14CF7C085416612F57090269
07672514CF7308541E612D5706026E
07672014CF77085426612D570D0260
07672314CF8108542E612D570A025A
07672814CF8F08543461295709021E
07672F14CFA3085437612A5705021C
07673214CFBB085438612856FF021D
07673314CFC008543A61285708022D
07673114CFD4085436612A570D022A
07673514CFD40854326128570A025C
07673E14CFC508543461275705025D
07674314CFC008543561255706021D
07674114CFBB08543561225707021E
07674314CFC008543761215702026D
07674214CFCF08543E61245700026E
07674014CFCA085440612456FE031B
07674114CFCF085445612156FC031D
07673D14CFCF085447611E56FF025D
07673914CFCF085449611F56F8025B
07673714CFD808544B611D56FE024F
07673314CFD408544A611C56F7024B
07672C14CFD8085444611A56F9024E
07672D14CFCF08543E611A56FE024D
07672C14CFC5085435611B56EE02B0
07673014CFB208542C611956F202AC
07672B14CF99085422611656EC032D
07671E14CF8B085418611956FE032D
07670F14CFB0085412611856FE034D
0766FE14CFAD08540C611556FE034D
0766F214CFAD085407611556EC0290
0766F014CF99085408611556F9028E
0766FB14CF8B08540C611156F2029F
07670B14CF72085413611156FD029F
07671B14CF6E085419611156F70220
07672314CF72085420611056FB021D
07672E14CF7C085425610D56FB023E
07672D14CF7C085428610F56F5023A
07672C14CF8108542A610C570303B5
07672D14CF8C085427610F570103B9
07672B14CF8B085429610B56FF032B
07672E14CF940854286109570502BF
07672914CF8B08542B610A570702BD
07672B14CF810854306107570B02B9
07673014CF7D0854376108571002BF
07673314CF6D0854406108570E024C
07673614CF7208544761075706024D
07673514CF7C085451610557120261
07673C14CF8108545661055708025E
07674014CF970854586104570F023E
07674314CF9908545B6101570D0240
07674214CFA8085458610257100232
07673A14CFA308545660FE570C022F
07673B14CFA80854546101570D024C
07673614CFA808544F60FC5708024B
07673114CFA608544E60FD570C025E
07672414CF8F08544A60FD5705025B
07672114CF8108544960FC5707025B
07672014CF9908544660FB57050262
07671514CF9408544260F956FF029B
07670914CF9208544160F8570102A0
07670114CF8F08543A60F956FF02A9
07670014CF8B08543560F656F802AC
07670314CF8608542E60F75701032E
07670414CF8F08542860F456FB032D
07670014CFA108542060F356FA02CD
0766F514CF9908541E60F7570102CC
0766F614CF8F08541D60F356FB02AC
07670014CF9908541C60F256F802AE
07670F14CF9908541F60EF570502BE
07671814CF9908542060F0570502BD
07671414CF9C08541E60EF570002CC
07670314CF7708541D60EE570802CD
0766F714CF7208541D60EE57070796
0766FA14CF5F08541C60EA57050847
07670414CF5508541C60EA57060845
07670D14CF5908541F60EB5709027A
07670F14CF5F08542160EC5703027D
07671214CF5508542760E85703030D
07671B14CF3D08543160E95705030B
07672E14CF5508543960E75707031B
07674414CF6E08544260E6570E031D
07675014CF8B08544A60E3570D026F
07675614CFA308545060E45705026C
07675A14CF9E08545260E2570F024B
07675A14CF8F08545560E35709024A
07674A14CF9C08545360E2570C02AC
07674114CF9408545160E0570B02AB
07673A14CF8108544C60DE570F027C
07673114CF8F08544660DF5707027A
07672414CF8F08544160DD57050279
07670E14CF8B08543D60DE5708027F
0766F914CF8208543B60DB57050289
0766F814CF8608543A60DB5705028C
0766FC14CF8608543860DA57060539
0766FA14CF9408543860D95704053B
0766E914CF9908543B60D856FF0426
0766D914CF8C08543C60D757020428
0766DE14CF7708543B60D6570302BB
0766EC14CF7708543B60D756FB02BC
0766FA14CF8608543860D3570202AE
0766F914CF7708543660D5570102AB
0766F014CF4A08543060D156F902D0
0766E814CF4208542F60D156FF02C9
0766E314CF2908542F60D156FE026C
0766E814CF2008542C60D057010271
0766ED14CF1108542F60D056FF028B
0766F214CF1C08543060CE57000290
0766F314CF0C08543260CD5703028B
0766F914CF1108543660CC570603F9
07670414CF0C08543660CE570003F8
07671114CF1608543660CA570002FA
07671814CF2E08543760CB570202FE
07670F14CF3A08543360C8570302CF
0766EE14CF2008542B60C8570002CD
0766D414CF2E08542260C65704027C
0766B614CF0C08541960C65700027D
0766C014CF0C08541560C5570202DF
0766CE14CEF808541260C456FD02DD
0766DC14CEF908541260C456FE02EC
0766DD14CF0208541860C2570102EF
0766D814CED708541E60C1570902EE
0766E414CEC308542760C1570602EF
07670114CED408542F60BF5705029F
07671D14CEEA08543860C0570A029C
07673014CEE508543E60BF570B027C
07673514CEE008544260BF5716027B
07673314CEF908544360BD570F023A
07672F14CEF308544260BC5713023D
07672214CEE008544060BA5717030F
07671814CEDC08543F60BA5718030E
07671214CEDC08543860B9572202F0
07670D14CEE508543760B9571802EF
0766FF14CEDC08543360B95724028C
0766FB14CEED08543160B45724028D
0766F514CEEF08543460B65727028A
0766F414CED708543760B55728028E
07670314CEEF08543B60B3572A027A
07671414CF2408544460B35726027C
07672714CF3508544B60B25725024A
07673414CF5F08545360B15727024C
07673A14CF8108545660B1572C024B
07673F14CF9908545460AF572E026C
07674514CF8608544860AF5728026B
07674014CF8C08543E60AC572502BE
07672A14CF7208543060AC572B02BD
07670D14CF4B08542060AB572602CE
0766F314CF3D08541360AB572202CC
0766DC14CF4B08540960AB571F0329
0766CC14CF4008540660A95719032D
0766C514CF2908540360A7571A02FC
0766CC14CF2408540660A7571702FC
0766D814CEE508540A60A6571502CC
0766F314CED708541360A5571602CD
07670914CED708541860A45713029D
07671714CEE808542060A4570F029D
07672014CEEF08542760A357150259
07672A14CEF408542B60A15715025B
07672914CF0208543160A25710027C
07672814CF1108543660A15710027C
07672614CF2108543A60A15710025C
07672B14CF3808543E60A15714025F
07673214CF4B08543F609C5717027D
07673414CF4B085443609F5710027F
07673214CF50085441609E5715022E
07673214CF54085443609C571C022D
07673714CF4B085443609B5712025C
07673514CF4B085442609A5715025D
07672D14CF550854426099571D022D
07672414CF5508544260985711022C
07672414CF59085441609A5717035E
07672914CF5F08544060955712035D
07672C14CF3D08543B6096570D027B
07672A14CF0C08543760945712027E
07672B14CF110854336094570D027A
07672914CF1608542D60945712029B
07672414CF160854256092570C029F
07671614CF07085421608F570E02BD
07670F14CF0708541B608F570D02BD
07670914CF0208541B6091570802C0
07670214CF02085419608E570702BD
07670014CF0708541C608E570D028B
0766FE14CF0208541D608E5707028C
0766FE14CF07085423608C570A02D1
0766FE14CEFE085427608B570B02CF
07670114CEE008542D608D570A027C
07670914CED9085431608B570B027B
07671514CE84085434608C570D025E
07671E14CF0C0854346089570D025B
07672514CF200854356088570E02BE
07672614CF380854386087571302C2
07672214CF350854396085571202C2
07671F14CF3308543A6085571502BD
07671614CF4208543F6084570F02BC
07671814CF770854476084571302BB
07672414CF7C08545060825711026E
07673314CF9C08545B6082570E026E
07673C14CFA30854616081570C025E
07674414CFBB0854646081570B025D
07675014CFCF085465607E5708024D
07675814CFC508545E60805705024D
07674F14CFCA085453607E5705022D
07673C14CF7D085442607D5708022D
07672F14CF69085432607C56FD02C1
07671F14CF5F085420607E56FC02C0
07670814CF64085412607956FE026E
0766EF14CF5F08540B607756FC026B
0766DD14CF3508540A607956FB027F
0766DA14CEFE08540E607956FB02BE
0766E814CEC8085415607856F702BC
0766FC14CEB508541D607556F202BC
07671014CEBE085426607556EC02BB
07672214CEBA08542A607456FD0289
07672514CEC808542A607356F9028B
07672714CECD08542D607456FE02B0
07672614CEEA08542B6070570002AC
07672114CEEA08542360705706026D
07671B14CEED085422607057080271
07671A14CEE5085422606F570A026E
07671914CEEA0854216072570E026F
07671514CEEA085422606E570A02AA
07671014CEE0085426606E571402AE
07671214CED2085428606E5717032E
07671D14CEC908542D606C5717032C
07672714CEC8085432606C571C025F
07672B14CEC8085435606C5715025C
07672C14CEC8085437606A571302B1
07672B14CED208543B6067571802B0
07672B14CECF08543B6067571B0280
07672914CEC808543A6067571A0280
07672914CEC308543C6067571E027B
07672E14CEC808543D6065571E027D
07672C14CECD08544060655725028B
07672D14CECF08544660655724028C
07672E14CED208544B60655727025C
07673614CEEA08544E60625726025E
07673F14CF070854556062572302AE
07674714CF2408545C605F572A02AE
07674F14CF1108545F60605725026F
07675114CEFE08546360615729026F
07674E14CEF9085465605C5724026E
07674C14CEFE085465605E572B026C
07674714CEF9085462605D5726026D
07674614CF1608545E605C5721025D
07674514CF47085457605C571D025E
07672B14CF3D085454605A57190298
07671214CF1608544C605C5715029E
07670A14CF0C0854426058571502AF
07670414CF2008543C6058570D02AE
0766F214CF3508543560565714035E
0766DC14CF3D08542D6059571A035B
0766C414CF420854276059571B02F0
0766B414CF240854236055571602E9
0766B714CF160854216054570E0558
0766BF14CF1608541D60535719055A
0766C514CF1608541B6054571902C8
0766C914CF070854196052571702CD
0766CE14CF070854176051571C0309
0766D614CF070854146050571F030A
0766DC14CF070854136051571D04B9
0766DA14CF0C0854156051572004BB
0766D614CEFE085416604E572502DC
0766D714CEF4085419604E572602DD
0766D714CEE0085418604C572502B9
0766DA14CECF085418604C572802BA
0766DF14CEBE085416604B572502AE
0766E614CEB0085413604B572C02A8
0766EE14CEB0085411604A572C02AD
0766F214CEAB0854126049572402AE
0766F314CEB508540F604A572702A0
0766F214CEB508541460465723029B
0766ED14CE8E08541860475728027A
0766F614CEA10854226045572C027F
07670F14CEC8085430604657290346
07672314CEBE08543C6045572F036A
07673414CED908544B6043572F0370
07674014CEEF0854576044573202BF
07674A14CEF90854636043573302C0
07675114CF3808546B6042573302CC
07675C14CFCF0854716041573302CA
07676914CFB6085475604057350220
07676D14CF5A085475603F572C021F
07676D14CF110854706040572F026E
07675614CEFE08546B603D5727026B
07673B14CEF4085466603B572602C8
07671914CEF808545E603D572102CF
07670414CF0708545B603C571A02A0
0766F514CF16085459603E571F02A0
0766E614CF0C0854556039571A02DE
0766DF14CF07085454603B571402E1
0766E214CF07085450603A571602CD
0766E514CF0C08544C6037571002CF
0766DE14CEEF0854436039571702AB
0766D414CEE008543B6037571302AE
0766DB14CEF408542D603857140322
0766D414CEFE08542060345716031C
0766C914CEF80854146034571A028C
0766BA14CEFE08540B60355713028D
0766A714CEFE0854056034571A02BD
07669A14CEE00854036031571502C0
07669E14CEC80854046032572002BC
0766B214CEA60854036030572402BE
0766D214CE9308540D6032572002CB
0766E914CE980854106030572602D2
0766F214CE8E085415602F572B02AB
0766FF14CE89085417602D572402AE
07670714CE87085417602E572902B0
07670914CE89085416602D572902AB
07670614CE8E085416602B572702AC
07670514CE93085416602D572E02BE
0766FF14CE9C085416602D573302BB
0766FC14CEA008541D602B572F027E
0766FF14CEC3085425602A572C027C
07671414CE930854306028573D0299
07671D14CEE508543A60275736029E
07672F14CF380854496028573B027C
07674814CFC50854566026573C027C
07675C14CF9408546360235741063B
07676214CFFF08546C6026573F0639
07676B14D01808546F6025573F027A
07677114CFFA0854716022573E027D
07677214CFEC08546F6023573E02FD
07676D14CFC508546B6022573802FE
07676214CF8F08546560225736025B
07674B14CF5008545E6021572D0260
07673914CF3808545C601F572602DF
07671914CF3D0854576021571F02DD
0766EC14CF45085458601F571302ED
0766D514CF50085457601D571002EE
0766DB14CF5A085455601C570E02CE
0766E914CF50085453601D570902CF
0766F714CF4B085452601D56FD028B
0766F914CF6908544F601A5703028D
0766FD14CF55085446601C5701029C
07670314CF38085440601A5705029B
07670214CF3308543760195705026E
0766F614CF4208542E601656FD026F
0766D914CF4208542760195700026C
0766CF14CF4F08541E601556FF026E
0766D014CF4B085417601756FD02C0
0766CE14CF4208540F6016570102CA
0766C714CF2E0854076016570602CB
0766C714CF2908540260135708031F
0766C914CF210853FE60145706031D
0766CE14CF1B0853FA6013570802ED
0766D514CF0C0853FB6012570102EF
0766DE14CF070853FB6013570F029F
0766E814CEEF0853FC60115709029C
0766F014CEE80853FF60105713029F
07670814CED70854096010570B029E
07672514CFB6085414600D571002B0
07674614CF9408541E600E570D02AE
07675D14CF8B08542E600F570C025D
07676614CFCF085439600E570F025E
07676E14CFDD085446600C570B029F
07677314CFD808544D600B570A029E
07677314CFD4085454600C570E025C
07677214CFCF085457600B570C025C
07677014CFD408545A600C5700028D
07677014CFD408545C60085702028D
07676F14CFD408545C600A56FB036C
07676914CFCF08545F600756FD036E
07676414CFD8085465600656E9028B
07675F14CFD408546B600656EC028D
07675D14CFDF085470600556E202AC
07675E14CFE2085473600556EC02AD
07675B14CFF6085474600556E2024B
07675C14CFF1085471600456DB024F
07675F14CFFF08546A600356D7024A
07675B14CFF3085462600256D7024E
07674E14CFDD085458600256DD025E
07673814CFCA085449600156D1025C
07671E14CFD808543A600056D302BB
07670914CFD8085431600156D102BE
07670114CFD40854265FFE56D702BC
07670014CFCF08541F5FFF56D602AE
07670E14CFC00854195FFD56D502AD
07671414CFC00854165FFE56D402AC
07671814CFB20854125FFD56D902AD
07671E14CFA30854115FFC56D702BD
07672814CFA108540E5FFB56D502BC
07673314CF9408540C5FFB56D708D5
07673614CF8B0854095FFC56D808D4
07673C14CF770854055FF956DA0388
07674214CF860854035FF856D60385
07674414CF870853FF5FF856D602AF
07674414CF860853FD5FF756E202AD
07674414CF770853FE5FF856D202BE
07674A14CF6D0853FF5FF856D902BA
07674A14CF5A0854035FF656D5029D
07674D14CF4F0854065FF456DF029B
07674F14CF4708540C5FF456DB02AC
07675314CF420854105FF256DA02AE
07675614CF470854145FF456DA026B
07675814CF500854175FF256D70269
07675B14CF4708541A5FF356D6024C
07675B14CF5408541E5FF156D8024E
07675E14CF690854205FF056D50427
07676214CF720854245FEE56E50428
07676414CF7C08542A5FEE56DA02AF
07676414CF940854325FF056D902AB
07676514CFA60854395FEE56D7024A
07676614CF940854455FEE56E50250
07676814CFDD0854505FED56D5021F
07676A14CFFF0854595FEB56E5021D
07676D14D03A0854625FEC56DC027A
07677014CFF80854685FEC56D90280
07677414CFFA0854695FEC56E3027D
07677114D01808546D5FEA56E1029E
07677014D01308546E5FEA56DE029E
07677114D0210854685FE956D902DC
07676C14D0350854665FE756D202DE
07676814D0260854615FE656D9024C
07675914D02108545A5FE656D40250
07675114D01C0854565FE856D7027F
07674814CFFF08544F5FE656D5027D
07673E14CFE20854455FE656D5024E
07673914CFD408543E5FE356D3024C
07673314CFCF0854325FE356D1029D
07672714CFD40854275FE356D0029D
07671714CFCF0854185FE456D0028B
07671314CFC508540F5FE056D2028B
07671614CFCA0854075FE056CD02B9
07670F14CFCF0853FD5FE056CE02BD
07670014CFCA0853F75FDF56CF02CC
0766FA14CFC50853F15FDE56C802CC
0766FC14CFBB0853F05FE056CB029D
0766FD14CFA10853EF5FDF56C9029A
07670E14CF940853EC5FDF56CD025C
07671B14CF860853EA5FDD56CD025D
07672614CF4B0853EB5FDC56D202BB
07672D14CF240853E95FDE56D002C0
07673014CF240853E85FDA56D6027B
07672E14CF2B0853EA5FDC56D50281
07672F14CF330853EF5FDC56D9027E
07673814CF1B0853F35FDA56DA027C
07673B14CF110853F95FD956E3026B
07673914CF070854025FD856E6026A
07673A14CF070854075FD856D9024B
07673B14CF0C08540C5FDA56D6024E
07673E14CF0708540E5FD956D7024D
07674014CF160854115FD856EA029F
07674314CF290854165FD556EE029C
07674314CF3508541A5FD556E8024D
07674314CF4708541E5FD456EA024E
07674514CF3D0854245FD456EB023C
07674314CF500854305FD456EC023E
07674314CF6408543C5FD456EE021F
07674414CF940854485FD356FA021B
07674E14CFA60854535FD156F9024B
07675B14CF9908545B5FCF56F1024B
07676214CF9E0854605FD056FE02AF
07676514CFB20854625FD056FE02B0
07676514CFC00854625FCF56EE0289
07676814CFCA08545E5FCC56F60291
07676614CFCA0854585FCC57010366
07675D14CFBB0854515FCC56E9036D
07675514CFAD08544B5FCD56EB0375
07674E14CFA30854465FCD56EC0375
07674614CFA60854465FCE56EB02BA
07674314CFA80854435FCB56E102BA
07674314CFA30854405FCD56D2034C
07673C14CF9E08543D5FCC56E9034E
07673614CF8F08543A5FC956E00548
07672E14CF6908542F5FC956DA0548
07672A14CF550854215FCA56DC026E
07672614CF240854165FC856D6026C
07672114CF070854075FC556D802AB
07671D14CEF40853FA5FC856D802AB
07671714CEEA0853E95FC856DB033B
07671114CED90853D15FC456D8033A
07670814CE7A0853B45FC256DE031E
0766FD14CECD0853945FC656E5031C
0766EB14CE980853745FC556DC031B
0766DC14CE890853525FC456EC031F
0766D314CE5308532A5FC356EF0319
0766CB14CE230852FF5FC257030388
0766C114CE0F0852D15FC15701038B
0766AA14CE190852A85FC256F30377
07669414CE1408527E5FC156FB0379
07667F14CDE80852565FC15708033B
07666514CDD50852315FBF570D033E
07665714CDD008520E5FBF5711036E
07664A14CDD50851EB5FC0571F036B
07664414CDAE0851C55FC0572C033B
07663F14CD8B0851A15FBC573A033E
07663414CD2B0851705FBC57460384
07662614CCCA0851385FBA57570384
07660D14CCEC0850FC5FBC5760033F
0765FA14CCE70850BE5FBC5774033B
0765E614CCB908507B5FBB577C0360
0765DB14CC8108503C5FBA5783035D
0765D214CC77084FFF5FBA579E0371
0765C414CC69084FC05FBA57AA036A
0765BD14CC50084F845FB857BB036B
0765B414CC48084F455FB757C9036A
0765B114CC0C084F035FB757DE034C
0765AE14CBAB084EC15FB757F70350
0765AC14CB76084E7A5FB8580A0377
0765AD14CB1A084E305FB6581B0374
0765AC14CAB3084DE25FB55824036B
0765AD14CAA5084D915FB4583E0370
0765B414CA61084D3E5FB5584C032B
0765B714C9ED084CEB5FB4585D032A
0765BB14C9D0084C935FB258700318
0765C214C8CD084C3C5FB35885031F
0765DC14C869084BDD5FB0588E0319
0765FD14C842084B7D5FB258AE032C
07661714C707084B1E5FB158BC032D
07664414C6A4084AB95FAE58B402EE
07667214C640084A575FB158E702EF
07669314C5920849F35FB058E202CF
0766B514C4E80849935FAD58FD02D0
0766DC14C4B808492F5FAF591102BD
0766FF14C42A0848CF5FAB592102C1
07671F14C47408486F5FAE593302DD
07673114C3E70848115FAD594302DB
07674314C3F60847B65FAC595102AA
07674F14C3D80847605FAB596202AE
07675814C3CF0847105FAB597402CE
07676214C3A80846C25FAB598002C8
07676914C36008467B5FA9599302CC
07677814C3440846345FAA59A502CC
07678C14C3390845F05FA859AC02BE
07679414C3210845AE5FA959BA02BA
07679E14C3090845675FA759C6031C
0767A514C2E80845205FA959D3031A
0767AE14C2C00844D45FA559E402AA
0767BA14C29E0844855FA759EA02AA
0767C214C2990844375FA559FB02AB
0767C614C29C0843E75FA459FE02AF
0767C514C25F0843965FA45A0B027C
0767CB14C2690843445FA55A16027D
0767D014C24C0842F35FA45A15028B
0767D414C2200842A45FA45A1B028A
0767D914C22B0842565FA25A2C02AE
0767DF14C1C90842025FA35A2A02AD
0767E314C19E0841AE5FA35A30027D
0767EC14C1810841525F9F5A35027C
0767EF14C1880840F45F9F5A3E027A
0767E914C18A0840955FA15A3F026D
0767E214C13D0840345F9F5A46026C
0767D814C103083FD15F9F5A4C026D
0767C914C0F9083F705F9F5A4C026C
0767BB14C09E083F135F9E5A540298
0767AA14C099083EB65F9D5A550299
07679C14C04B083E5E5F9B5A59029B
07679114C050083E065F9D5A65029D
07678D14BFD7083DAE5F9C5A68029D
07678214BF0C083D585F9B5A79029D
07676814BEEF083CFD5F985A7F026B
07675114BDF6083CA15F9B5A86026B
07673E14BD33083C455F995A90024F
07672C14BCBF083BE75F995A9C024B
07672014BCBA083B8B5F985AAC02AB
07671414BCBA083B305F985AB802AD
0766F914BD11083AD85F9A5ACA029C
0766B414BD4B083A815F985AE60299
07666814BD1B083A2E5F975AF702FB
07665D14BD380839E25F945B0D0300
07663D14BE550839925F965B2A0289
07658F14BF460839465F965B46028C
07648A14BFD10838FC5F965B68028C
07636814C0290838B15F955B81028C
07628C14C0160838655F955B9B029A
07622C14C15F08381A5F925BBA029A
07616614C1E90837CC5F925BDC028E
07608514C47408377E5F935C01028B
075E9F14C5FC0837345F915C2E027B
075C6814C57E0836E95F905C5C027C
075B5B14C6B408369F5F915C8C02AF
075A8114C7F10836575F905CD502AD
07592E14C8940836115F8F5CFD02AA
0757EF14C8330835C75F905D43028A
07576814C87708357A5F905D8A028B
07571E14C8DC08352C5F915DCE025D
07568314C9340834DD5F8E5E22025F
07557614C7E60834825F8E5E73027F
0754CF14C6FD08342E5F8D5ED2027D
0754C914C6C80833D15F8C5F1B02CD
07550A14C6620833765F8D5F7102D0
07555514C59208331E5F8B5FCE032D
0755AC14C49F0832C35F8B6023032D
07561814C4650832695F8B606E030B
07566514C3CE0832145F8A60CB030A
0756A514C3F10831BB5F89611D0374
0756BD14C2990831655F8961640379
07570614C2030831115F8961AE035F
07576714C1DF0830B85F8761E8035B
0757B214C12A0830635F886229032E
0757FC14C0FE08300B5F87625C032C
07583114C068082FB75F856291032D
07586914BFE5082F5D5F8762C0032F
0758AF14BF07082F075F8362F303A8
0758FC14BED2082EB05F86631403A6
07593614BE3D082E585F8663410392
07595E14BDB9082E005F8463610398
07597E14BDEF082DAB5F84638003A7
07598514BDE6082D585F8363A303A8
07597D14BDA2082D065F8263BA03D7
07596A14BDB4082CB55F8463D803D9
07595114BDA2082C665F8363F903A2
07592C14BD8F082C145F84641403A7
07590114BD85082BC65F8264340536
0758D914BD63082B765F81644F053B
0758AD14BD24082B285F8064730535
07587814BD11082AD65F8064890467
07584A14BCC4082A815F7F64AD0468
07582914BC2C082A2C5F7F64D00438
07580814BBCE0829D85F7F64EC043A
0757F514BB0D0829845F7E650D0429
07580314BAB60829345F7C65380425
07581E14BAAE0828E75F7D65570559
07582914BA8A0828995F7E657C0556
07583814BA200828545F7E65A604FA
07584714B9CE08280D5F7C65C904F9
07585D14B9810827C95F7B65F604C8
07587814B9470827865F7C662504CA
07588C14B8950827415F7C66330536
0758AE14B8180826FA5F7966610537
0758DC14B7000826B35F7B668705A8
07592814B6D00826695F7A66A605A7
07596114B6A508261A5F7A66CF0618
07597C14B6570825CA5F7866EE061C
07598A14B6270825735F7B670C0738
07598614B61408251B5F79672B073D
07597514B5E30824C45F7667430546
07596914B5D50824695F7767610547
07595B14B5D508240D5F77677504BB
07593314B5CF0823B45F75678C04B9
07590814B5C708235B5F7667A204C8
0758E314B5830822FE5F7567B804CB
0758AB14B4C80822A35F7567D104D5
07584B14B4E508224C5F7567E104DA
07581A14B5010821F45F7567FA052B
07580114B3A208219B5F7468030529
0757E214B3960821435F726815058C
0757C214B3250820ED5F746829058B
0757AA14B2FE0820995F75683A0587
07579B14B2B70820485F756843068A
07579114B26E081FF55F7168510688
07578514B251081FA25F706861068C
07576414B23E081F575F73686A068B
07572814B20A081F085F716879067B
07570714B1F6081EB95F6F68860676
0756DC14B1D9081E6E5F6F688C075A
0756B414B1CD081E205F726899075B
07566A14B1AE081DD95F6E68AE07A3
0755C514B179081D8C5F6F68A907A8
07546B14B15D081D455F7068C10856
07533614B14E081CFC5F6F68DD0856
07525B14B144081CB85F6E68E7070C
0751CA14B127081C755F6D68F5070C
07510014B0EE081C2F5F6F690A071D
074FE514B0A1081BED5F6C6918071C
074E9714B058081BA95F6C69310798
074D5114B055081B615F6B69450795
074C8814AF85081B1E5F6D6961076A
074B1614AF50081AD25F6B697E076B
0749C414AEE3081A855F6B69A2070C
07486F14AE1D081A335F6B69C4070D
0746D014AE220819E25F6969E405EA
0745BA14AE2308198C5F6B6A1505EA
07453514AD9B0819355F686A3C05BA
07447E14AD660818D85F686A6F05B9
0743B614AD0C0818835F686A9206D8
0742E714AC9D0818305F696AC606DC
07420C14ABFE0817DC5F6A6AFA066B
07410714ABF50817855F666B2D066A
07404814AC250817345F676B51067F
07400314AC120816E65F666B860689
073FB514AB170816945F666BC2068B
073EF214AAAF0816445F656BEE072A
073E1F14A9BF0815F15F676C22072A
073CE214A84808159F5F666C4D071B
073AE914A71208154A5F636C82071B
0738DA14A50D0814F35F636CB2075D
07361514A3C308149C5F646CE10759
07332B14A3970814425F636D140871
07313E14A22C0813E95F646D4A0873
072F2E14A17E0813935F636D7207C4
072D8314A08808133B5F646DAE07C3
072C0614A0A40812EA5F636DDB0865
072AE7149EBD0812975F5F6E0F0869
0728C4149D3F0812475F606E400A17
0725FB14989A0811F95F5F6E860A17
07225F14971B0811AD5F616EB40A85
071EA414930D0811605F5F6EF30A89
071B4A148F790811145F5F6F330933
0717BB148EDC0810C95F5E6F6D093A
071506148CE708107B5F616FB50867
07130214894E08102C5F5E6FFD0865
07103C14810B080FE25F5D70480905
070B45147DB7080F965F5E70A00903
07065C147B22080F4D5F5D70FB0876
07027414777B080F035F5E71530877
06FE951474E3080EB85F5C71C60938
06FA01147281080E6E5F5A72290939
06F4561471AC080E265F5B72AF09B5
06EE9014706F080DDA5F59734309B5
06E7F2146FD4080D8E5F5973EB0925
06E110146EF2080D3D5F5A74BE0927
06DDAB146E09080CF45F5975900925
06DA9C146E7B080CAE5F59769508D9
06D70B146D78080C6D5F5A77C808D5
06D439146CC3080C2E5F59792409C7
06D1041464F9080BEB5F5A7AA109C7
06C8F3145695080BA85F5A7C400B28
06BB11143B37080B675F587E180B2A
06AA60142D58080B1F5F58801E0B0A
069BA3142321080ADB5F57820C0B05
068E48141BC3080A975F58841F0B16
06855E141F7E080A555F5785E30B19
0680DE141E29080A1E5F55878A09B5
067D3D140EC90809E65F5588F909B4
0676F713F6470809B15F568A4D07D8
066B8813ECC708097B5F578B9C07D7
065E3D13F0370809455F538CE3071A
065B0913EAA908090C5F548DEF071D
0659B313EB820808D15F548EC00796
06579913BC9A0808955F528F7A0796
064EBC139E980808585F52902D0709
06414213792408081B5F54910C070A
06340D1368AF0807E25F5091EB066A
06295713627D0807A85F5292A8066B
0622BD1358320807765F5293470627
061D95135E6A0807495F5293DD0628
061B4A1363DF0807255F50946A065B
061B831366A90806FE5F4E94DA065A
061BDF13669A0806DA5F4F954A067B
061C231366A80806B55F5195BD0678
061C4B13642B0806935F52962406DD
061BF3135C410806705F4D968206DB
061A4613549108064B5F4F96D5064F
061808134DBA0806265F4F973D064B
061618134AA40805FE5F4F9787064A
0614D0134A7F0805D65F4E97CD069B
0614561349BB0805B15F4D9805069A
061425134EAD08058F5F4C983C05AA
0614921353B908056E5F4D986E05A8
0615571352190805525F4C9893060C
0615CC134D110805385F4C98B7060D
06159B1348240805185F4B98E405DC
06149F13423A0804F45F4C991805DC
06135E133F1B0804CA5F4D99440597
0612AD13393008049A5F4999680598
06121B13389C08046A5F4B999105DB
06119F133AB108043C5F4A99B405D8
0612111339CC08040C5F4899DB060E
0612791338C60803E35F4B99F10609
0612041337780803C15F4B9A0F0569
06112713372E0803A15F489A2A056B
0610AA13380308037D5F479A4C04EC
0610E11333B608035A5F479A5B04EA
061101132C4A08033C5F479A6A0478
06105113348A0803295F499A8E047B
0610201334B30803165F479A9F03F5
060FCE1332DB0802FC5F489AB803FA
060F75132E760802EB5F479AC903E8
060E9C132B9F0802EA5F489ADF03E8
060DD91328410802F05F459AF30476
060D2D1327720803005F469AFE0479
060CB413222A0803135F459B0E04F7
060C24131F3E0803265F469B2304FB
060B91131ED00803315F459B350498
060B34131F540803305F459B470499
060B11131F6C0803275F449B560462
060B3D131FAC0803125F449B5F042C
060BB7131F3E0802F75F469B700429
060C581320CD0802DE5F449B6F047B
060C851322010802CA5F449B83047A
060CAC1322B40802C55F439B8E0489
060CC01320B60802D75F419B91048B
060C51131D140802F95F439BAA04CA
060B8C131C6E08031E5F439BBF04C9
060ADD131C6008033C5F429BCC04A8
060A79131C890803515F419BD304AB
060A50131C850803595F419BE103F4
060A4F131C6508034D5F439BEC03F8
060A7E131C720803285F419BF203B5
060AE2131D3C0802E95F419BF803B5
060B77131DF80802A15F429BF60427
060BE1131E8408025A5F419BF4042A
060C0D131E5D0802285F409BFB046A
060C2C131DEF08021B5F409BF60468
060BF3131D730802305F419BFE0419
060B75131DEF08023B5F3E9BFF041A
060B35131DF30802375F3F9C0103F7
060B27131D6F0802165F3F9BF603F9
060B39131CFC0801DD5F3F9BDE057E
060B61131BED0801D55F3E9BC0057B
060B96131B9C0801D45F3F9BA0FD6B
060C44131B9B0801D55F3E9B74FD69
060D2A131B440801D45F3F9B3303C8
060DFC131AC40801D55F3D9AD803C6
060F07131ABB0801D55F3D9A61026B
060FE4131A960801D45F3E99E2026B
061097131A430801D55F3E9972073E
0611361319CC0801D65F3E9919073D
0611C513191A0801D45F3F98AE0737
0612470FAF860801D35F3B97F404D6
0612EF0C483E0801D55F3E96BD04D8
06138C0C79690801D45F3D951F0AA4
0613C90C99470801D55F3E93220AA8
0613EE0C8EE10801D55F3D90F6011D
06140E0C6B7B0801D55F3B8EB5011F
0614370C435C0801D55F3C8C8500AD
06149B0C33570801D55F438A5B00AD
0615780C1A780801D45F3D88430084
06167E0C03850801D55F3E86790083
06179D0C01300801D65F3A84B6011D
0618C50BF4000801D65F3C8324011D
0619EC0BDFC30801D45F3D81C1016A
061B1F0BC8540801D55F3B806E016C
061C560BB1860801D55F3B7F45035B
061D900BA1210801D35F3C7E39035B
061ECC0B95A20801D65F3D7D4400ED
0620000B883F0801D55F3B7C7100EB
0621340B7B650801D65F3B7BAA013C
06225D0B74F70801D55F3D7B13013F
0623750B71040801D55F3D7A83014E
0624600B75F90801D55F3D7A03014C
06253C0B7B8E0801D75F3E799A019A
0626190B81AE0801D55F3D79420199
0626ED0B812B0801D65F3D78EA014D
06279E0B82FF0801D55F3D78A8014B
06283D0B80490801D55F3D786A018A
0628D40B7D4F0801D45F3D7839018A
0629580B78EB0801D75F3C77FB014E
0629CD0B70810801D65F3C77F5014C
062A130B6DA70801D55F3E77D10159
062A7C0B69850801D65F3C77C2015C
062B510B646F0801D75F3E77AF014C
062C620B65960801D55F3F77A3014F
062D5C0B5DDC0801D55F3D779D014A
062DF90B517C0801D65F3D779F013D
062E5A0B46EB0801D65F3F77A2013F
062E9D0B420E0801D55F3F77A4011D
062EE50B3FBB0801D65F4177A9011E
062F330B3CEF0801D65F3E77B20111
062F7E0B37790801D75F4077C0010F
062FC60B35250801D55F3F77C9012D
0630150B30DC0801D75F3F77D6012E
0630940B31F60801D75F4077F0010F
06311C0B42A70801D75F407804010C
06319E0B53FF0801D65F417807012D
0632140B63A70801D65F417827012D
06328B0B6C850801D95F41782C011D
0632DB0B72130801D65F42784A011F
0633250B76730801D75F417854009D
0633730B73220801D85F41787400A0
0633C50B682D0801D95F41788300AE
06342E0B5E360801D95F42789A00AF
0634870B53D30801D75F4578B3011D
0634D60B4A0B0801D75F4378C60121
06352A0B41980801D85F4278E0010E
0635770B39300801D75F4278F1010E
0635E90B32640801D85F45790C012F
0636580B2C340801D65F44791E012D
0636CD0B24A40801D95F467933012E
0637490B1F970801DA5F467946012B
0637C00B19110801D85F4479660129
0638190B12E30801D95F46797B012C
06386F0B0E420801DC5F477994012D
0638D40B08040801D95F4579A30129
0639450B03F10801DA5F4679BA011F
0639CA0AFFD90801D95F4979C60120
063A4E0AF4640801D95F4779E2010B
063AE90AF3940801DB5F4B79F200F1
063B790B01640801D95F497A0900EB
063C010B15840801D95F487A1B013B
063C7E0B2BAF0801D85F497A380139
063CE20B302C0801D95F4A7A49010F
063D600B32CF0801D85F4A7A5F010E
063DC80B36BD0801D95F4B7A73010F
063E310B37B60801D95F4D7A8E010F
063E9E0B340A0801D95F4C7A9200FE
063F110B2DDE0801DA5F4C7AB600FE
063F810B263B0801DA5F4D7AD10129
063FE80B1FDB0801D95F4D7AE5012E
0640390B18360801DB5F4D7AFD012D
06408D0B11EF0801DC5F4F7B18012B
0640E10B0D440801DB5F4F7B29012A
0641550B06900801DA5F4F7B3F012C
0641C90B03250801DC5F517B53012E
0642320B14CD0801DA5F517B70012B
0642B40B27E00801DC5F517B820100
0643420B3AA20801DA5F527B9600FD
0643D50B41B90801DC5F547BAD011D
06445C0B44400801DA5F557BAD011A
0644DE0B48780801DD5F537BE1011D
0645440B441C0801DB5F527BF1011E
06457D0B3EBC0801DB5F557C03013C
0645B30B37E10801DC5F547C18013F
0645E80B2F5E0801DC5F557C31012F
0646220B28F30801DC5F577C460129
06465F0B22930801DD5F567C55010C
06469B0B1C0B0801DA5F587C6A010C
0646E50B17410801DC5F587C80010F
0647610B10B50801DC5F597C95010E
0647DE0B20880801DC5F597CA700FC
0648360B35070801DD5F5B7CBB00FB
0648A30B45490801DD5F5A7CD400FD
06495B0B4A530801DE5F5C7CE4014B
064A5D0B4D990801DD5F5B7CF90148
064B890B4D710801DD5F5B7D100100
064CE80B4C8F0801DE5F5E7D1C00FB
064E6A0B444C0801DD5F5D7D30010C
064FE30B397C0801DD5F5E7D460112
06511E0B20A00801DE5F5E7D5B010D
0651BD0B2BC40801DC5F5E7D72010B
0651F30B29630801DE5F5E7D7E010B
06520B0B25CB0801DE5F617D94010C
06521B0B1B160801DD5F5F7DA400EC
06522A0B173B0801DE5F617DC100EE
06523C0B13E90801DE5F637DC9011F
06524D0B2C210801DE5F637DE3011F
0652620B3A8D0801DF5F657DF6010D
0652730B48980801DC5F667E0C010A
06528C0B4A660801DD5F657E13011D
0652A90B557B0801DC5F667E30011B
0652C60B51360801DC5F677E37011C
0652E30B49070801DD5F667E50011B
0653060B3E8D0801DF5F667E60011C
0653290B36B70801DE5F697E75011E
06534B0B2DBB0801DF5F6A7E82012B
0653740B23E20801DF5F6A7E90012B
06539C0B1BF40801DF5F697E9F010B
0653CA0B15370801DD5F697EAB010D
0653F70B0C900801DE5F6B7EBD011C
06542C0B0BF70801DF5F6D7ED2011F
06545D0B045C0801DF5F6D7EDD00FE
0654950AFF0E0801E15F6C7EED00FE
0654CD0AFD1B0801E05F6D7EFC00DE
0654FE0B0BD70801E05F6E7F0A00D9
0655360B20150801DF5F6E7F17010B
06556F0B2D740801DE5F707F26010F
0655A80B2EE60801E05F707F36010C
0655E00B39DF0801E05F727F3F010F
0656180B3C8F0801DF5F717F4F010C
0656520B3EB30801E05F727F5F011C
06568B0B3A660801DF5F737F6D011E
0656C40B2FBF0801E15F757F7C013E
0656FE0B28010801E15F747F7D013B
0657380B1FFE0801E25F767FA0011F
0657740B12E60801E15F767FA7011E
0657AB0B0FF90801E15F787FA7011D
0657E70B08B70801E05F787FA70119
0658260B01FD0801E15F787FA6013F
06586C0AFDD20801E15F787FA3013B
0658B00AF8570801E35F777FBC017E
0658F50AF5780801E15F7A7FE9017B
06593B0AFA700801E35F777FD9011E
0659850B12F10801E05F797FF3011D
0659CD0B2A3C0801E15F7A7FF8011F
065A130B34450801E25F7D7FFD011D
065A5B0B39740801E35F7A8004012B
065AA00B41BF0801E25F7E800B012C
065AE40B3F0A0801E35F7D8015010F
065B2B0B389D0801E35F80801D010A
065B6E0B332B0801E15F7F8028011E
065BB40B29CD0801E25F7F8028011D
065BFB0B2A1D0801E15F7F802D011C
065C410B1E640801E55F8180390120
065C8B0B1D770801E05F828040016A
065CD10B134B0801E25F828046016D
065D190B06290801E35F848047010A
065D650B03AA0801E35F85804A010E
065DB30B08EB0801E35F84805600FE
065E000B22990801E25F85805600FB
065E500B3BBE0801E35F8580580110
065E9D0B4B760801E25F868060014F
065EEA0B4D220801E55F8780670148
065F340B4B420801E35F858061017C
065F7F0B4B300801E15F8680690178
065FC90B4A080801E35F88806C0109
06601A0B42BC0801E35F8C80750111
0660670B3A510801E35F8A807800DD
0660B60B32B70801E45F8A807600DD
0661000B29570801E45F8A807E014F
06614C0B1ED90801E55F8B807D014B
06619D0B18C70801E55F8C8082011B
0661F20B16E10801E45F8F8085011D
0662490B12460801E35F8F8088011C
0662A00B0D580801E45F8F8089011A
0662F50B07C20801E45F90808D011C
0663490B020F0801E35F90808E0120
06639C0AF15F0801E15F91808C013C
0663F00AF5500801E55F918093013C
0664470B09110801E45F8F8092010A
06649F0B1DD40801E45F918098010D
0664F60B2EEC0801E45F938093016C
0665480B390E0801E65F9380980169
06659B0B398E0801E45F968099016D
0665E90B36D20801E45F94809C016B
0666380B363D0801E45F95809C010D
0666860B37ED0801E35F96809D010C
0666D80B35E90801E45F9680A501D9
0667250B32070801E55F9880A001DC
0667710B29DC0801E45F9680A3010E
0667C00B22610801E65F9980A1010D
0668090B175B0801E45F9880A60150
0668590B11460801E45F9B80A9014B
0668AB0B0F080801E55F9A80A6011E
0668FE0B0BC30801E65F9A80A7011D
0669500B06170801E65F9C80A7011D
06699E0B04250801E55F9A80B100CE
0669EF0B14FD0801E55F9D80A600CB
066A3E0B2A0E0801E65FA680A6011B
066A8A0B3AE40801E55F9D80AE011F
066ADA0B40FC0801E65F9E80AE010D
066B270B4A140801E55FA080A8010A
066B720B45850801E65FA080AD013C
066BBC0B3ACC0801E55FA180B20139
066C060B31880801E65FA080B400FD
066C550B284D0801E65FA380AF00FE
066CA50B1F830801E65FA180B3013A
066CF70B1A150801E65FA480AF013B
066D520B15370801E65FA680B4011D
066DB00B0DA10801E55FA380AE011E
066E0A0B0A5D0801E65FA580B0010C
066E6C0B145F0801E75FA880B0010E
066ECC0B29450801E65FA580AF011D
066F290B35450801E55FA680B3011F
066F870B358A0801E55FA680B8012D
066FE20B3B520801E75FA880B20128
06703D0B401D0801E85FA880B5012C
0670940B340D0801E75FA880B7012E
0670EF0B2F210801E65FA980B8012A
0671400B24E20801E65FAA80B4012A
0671970B195F0801E95FAC80B1012E
0671ED0B13460801E85FA980B5012B
0672450B110C0801E85FAB80B1013B
06729B0B0A650801E65FAE80BC013C
0672F30B053C0801E95FAE80B4013F
0673480AFFA60801E85FAD80B7013D
06739E0AFA920801E65FB080BA0149
0673F20AF5DC0801E65FAF80B3014B
0674410AF4A80801E85FB180B8013F
0674910AF4000801E75FB180B8013B
0674E10AF1650801E95FB380B8013E
06752F0AF2890801E95FB180BA00EA
06757B0AF5EA0801EA5FB280BD00E8
0675C70B195F0801EA5FB180B8010C
0676140B312C0801E95FB380BC010F
0676640B2CA00801EA5FB380B700ED
0676B70B62F70801EA5FB480BB00EB
0677070B9C2A0801EB5FB980C2011F
06775B0BB2B00801E85FB580BC011E
0677A90BB8750801E95FB580B6017C
0677F50BA5AA0801E75FB680BA017B
0678400B990D0801E95FB880BB014E
0678900B84AD0801E95FB780BB014D
0678EA0B726A0801EA5FB880BB013C
06794B0B653D0801E95FBA80BD013D
0679B40B55C60801E75FB880C40139
067A200B4A840801EA5FB980C5013B
067A880B3B700801EA5FBC80C0013C
067AED0B30910801E85FBA80C80141
067B500B1FC90801E85FBD80C0013D
067BB30B1A170801E95FBC80C0013F
067C0E0B15540801EB5FBC80BF013C
067C680B18F90801E95FBE80C8013A
067CBD0B10750801EA5FBC80C30140
067D120B0EF40801E85FBE80C3013B
067D610B05C70801E85FC080C4013C
067DAD0AFCCB0801E85FBF80C7013B
067DFC0AFD520801E85FC080C7013F
067E460AF7200801E95FC080C5013D
067E910AFB900801EA5FC280C4010D
067EDE0AF5FE0801E95FC180C7010D
067F240AFA1D0801EC5FC180C2011E
067F6A0AF3F50801EC5FC280CA0121
067FAD0AF38C0801E95FC380CC011A
067FF00AE9340801EA5FC580C7011F
0680320AE5E90801EB5FC480CB011F
0680730AEC9A0801E95FC580C8012B
0680B60AE35C0801EB5FC580C70129
0680F50AE41C0801E95FC680CC011B
0681350AE65F0801EA5FC880C6011D
0681740AE0290801EC5FC880CB014B
0681B00AE2790801ED5FC880CB014E
0681EC0AE0820801EA5FC980D1012B
0682290AE06C0801EC5FCA80CD012C
0682610ADEA90801EB5FC880C6011B
06829D0AD9DB0801E95FCB80CB011D
0682D60ADC240801EA5FCA80CF012E
06830F0AD9470801EB5FCB80D0012C
0683470AE6EC0801EB5FCE80C8015D
06837E0AE3E90801EC5FCA80C4015D
0683B70AE2790801EB5FCB80CD012C
0683F40AE5700801EB5FCE80CC012C
0684330AE7980801EB5FCE80CB011A
06846D0B070F0801EB5FCC80CE011D
0684A80B20880801EC5FD080CF011D
0684E00B24FD0801EB5FD080CE011B
0685160B2DA60801EB5FD080CC010C
06854B0B370A0801EB5FD080D8010F
06857F0B2DCE0801EB5FCE80D0013A
0685B50B23430801EB5FD280D0013B
0685E70B18160801EB5FD480CE011A
06861E0B10550801EA5FD380C8011C
0686540B09CF0801EB5FD280D0012B
0686940B04590801ED5FD480CD012B
0686D50AFEC30801EB5FD380CF012E
06871A0AF95B0801EA5FD580D00128
06875D0AF4970801EB5FD680C5010E
06879E0AF0680801EB5FD680C4010B
0687DD0AEC670801EB5FD780CD010D
06881B0AE8C30801EC5FD680CF012D
0688560AE53A0801EA5FD780CE012C
0688910AE22C0801EB5FDA80D0010F
0688C80ADF5F0801EC5FD980C9010C
0689040ADCA90801EC5FD980D3010B
06893A0ADA420801EB5FD980D0010D
06896F0AD82A0801EA5FDA80D2013D
0689A60AD6380801EC5FDC80CE013D
