* Sea-Bird SBE 19plus Data File:
* FileName = C:\Users\mseas\Desktop\seabird\data\ctd-data\leg2\23Gul_RCA\23Gul_RCA.hex
* Software Version SeatermAF 2.1.4.55
* Temperature SN = 4345
* Conductivity SN = 4345
* System UpLoad Time = May 29 2023 10:37:19 (localtime) = May 29 2023 17:37:19 (UTC)
** Site 23Gul_RCA
** Cast 33
** Winch Payout Length 44
**  
** Issues/Notes 
** Latitude (decimal degrees) 54 09.134
** Longitude (decimal degrees) 130 32.449
* ds
* SeacatPlus V 1.6  SERIAL NO. 4345    29 May 2023  09:35:42
* vbatt = 11.6, vlith =  7.7, ioper =  62.7 ma, ipump = 124.0 ma, 
* iext01 =  33.0 ma
* status = not logging
* number of scans to average = 1
* samples = 191593, free = 367647, casts = 33
* mode = profile, minimum cond freq = 3155, pump delay = 40 sec
* autorun = no, ignore magnetic switch = no
* battery type = alkaline, battery cutoff =  7.3 volts
* pressure sensor = strain gauge, range = 1450.0
* SBE 38 = no, Gas Tension Device = no
* Ext Volt 0 = yes, Ext Volt 1 = yes, Ext Volt 2 = no, Ext Volt 3 = no
* echo commands = yes
* output format = converted HEX for AFM
* S>
* cast  33 29 May 2023 09:20:24 samples 188823 to 191593, avg = 1, stop = mag switch

*END*
06D5A20A6401080201603480FD0854
06D5A10A6400080200603480FB015C
06D59A0A6400080203603480FE015F
06D59B0A63FE080202603880F60100
06D5970A63FD080201603680F900FD
06D5950A63FD080201603780F700ED
06D5920A63FB080202603880F400EE
06D58D0A63FD080204603880F200D1
06D58B0A63F8080201603680F700CB
06D58A0A63FA080201603880FE010C
06D5820A63FD080201603780FE010A
06D5820A63FB080203603A80FD00CE
06D57F0A6400080201603980F300CC
06D57A0A63FB080203603980FA00FE
06D5620A63DD08020460A480FB0105
06D59D0A63A90801FE60D880FB0110
06D5AF0A63A40801FC60FB80FC0110
06D5B50A63980801FD610280F300DE
06D5B10A63A40801FC60FE80FB00DE
06D5AF0A63920801FD60EC80FB0122
06D5A40A63A10801FD60C880FD0123
06D59C0A63970801FE60BD80F300FE
06D5810A63D50801FF603C80FE00FC
06D5520A63F3080202603B80FD010D
06D5520A63F1080202603B80FC010D
06D5500A63F4080204603A810000FD
06D54E0A63F3080201603C80FF00FD
06D5490A63F4080201603C80F80109
06D5450A63F4080202603B80FD010C
06D5430A63F1080202603D80FC010B
06D5440A63EC080202605080FD011E
06D5470A63E9080202605580FE011E
06D5450A63E9080201605080FF00ED
06D5410A63E9080203605780F500EE
06D53F0A63F6080200605980F40100
06D53F0A63E0080200605280FD00FA
06D53C0A63E1080201605D80FD013F
06D53A0A63E0080200605180FB0139
06D5330A63E0080201605480FB0112
06D52F0A63E1080202605B80FC010C
06D5300A63DD080203605480FD0138
06D52A0A63E4080201605880FE013B
06D5290A63E3080202603F80FD013E
06D51E0A63E9080206603F81010139
06D5180A63EC080202603F80FF00FE
06D5180A63E9080203603F80FE00FD
06D5140A63E9080202603F8105010D
06D5120A63E9080203604080FD010F
06D50E0A63E6080202603D80FA010E
06D5090A63E6080201604080FF010D
06D5080A63E3080203603F8101010E
06D5050A63E308020260408104010D
06D50B0A63E108020360408100010E
06D5010A63E0080203603E80FD010D
06D4FB0A63DF080204604080FB00DE
06D4F90A63E00802036040810200DB
06D4F80A63E0080203604180F3010E
06D4F70A63E408020260428108010D
06D4F10A63E3080204604080FC0121
06D4EF0A63E1080203604080FD011E
06D4EA0A63E6080203604080FC010E
06D4E50A63E9080205604180FB010F
06D4E40A63E4080201604080FC010D
06D4E30A63E60802036042810000FC
06D4DF0A63E6080202604180FF00FE
06D4DC0A63E60801FF604280FE012B
06D4DA0A63E6080202604080FA012E
06D4DA0A63E4080203604180FE011C
06D4D60A63E3080203604180FD011F
06D4D30A63E3080203603F80FF012E
06D4CE0A63DF080201604180FB012C
06D4CF0A63DD080201603F810600EE
06D4CA0A63DF080201604180FE00EE
06D4C70A63E0080202604080FE010C
06D4C50A63E0080203604080FF0111
06D4C10A63DF080203604180F9010E
06D4C00A63DD080202604280F8010E
06D4BF0A63DF080203604380FB012E
06D4BB0A63DD08020360418102012E
06D4B80A63DD080203604180FB00EC
06D4B50A63DC0802036043810500ED
06D4B10A63DD080202604281000101
06D4AD0A63DF080200604081020101
06D4AE0A63DA080202604280FE0110
06D4AB0A63DD08020260418107010D
06D4A90A63DC080201604180FD00FE
06D4A60A63DD080201604280FE00FA
06D4A30A63DD080201604280FC010F
06D49F0A63DC080200604180FE010F
06D49A0A63E008020360428102010E
06D49B0A63DC080202604280FE0110
06D4980A63E3080204604380FE010C
06D4990A63DA080203604280FD010F
06D4920A63DC080200604380FD011E
06D4900A63E0080201604280FD011D
06D48B0A63DF080202604180FF010F
06D48B0A63DD080202604480FE010F
06D4850A63E008020260428106010C
06D4830A63DC080201604280FF011D
06D4800A63DD080202604280FC011D
06D47F0A63DF080201604480FF010B
06D47B0A63D7080204604380FF010F
06D4760A63DA080204604480FF010D
06D4740A63D708020060448100010D
06D4720A63D7080203604380FE00F9
06D4700A63DA080204604380FC00FA
06D46E0A63D7080203604480FC010C
06D4700A63DA080204604480FE010C
06D46A0A63DA080202604280FC010B
06D4690A63D508020260438102010A
06D4670A63D7080205604380FE012D
06D4640A63DA08020360438109012C
06D4630A63D708020360438105010C
06D45D0A63DF080203604280FA010F
06D45C0A63DD080205604480FB00FB
06D4560A63D7080202604580FE00FB
06D44E0A63E1080201604280FC0120
06D4470A63E008020460448108011D
06D4450A63DC0802036043810500EB
06D43C0A63DA080200604580FB00ED
06D4380A63DD080202604480FA00EB
06D4320A63DA080203604580FC00EB
06D42E0A63DA080201604480FD012C
06D4290A63DC080201604480FD0129
06D4240A63DA0802036045810500FB
06D4230A63D20802026043810900FE
06D41B0A63D508020360458101010C
06D4170A63D5080203604480FF010C
06D4140A63D50802036044810500BD
06D40E0A63D50802036044810900BA
06D4100A63D7080203604380FC00D3
06D4100A63D50802026045810000FB
06D40E0A63D2080202604480FE00FA
06D40C0A63D5080204604580FA0140
06D4070A63D7080203604780FF013C
06D4030A63D708020360448107016F
06D3FF0A63DA08020360468101016D
06D3F90A63DD080202604580FC013A
06D3F00A63DD080202604780FD013B
06D3E90A63DC080201604480FC00EC
06D3E30A63DD0802026045810800E9
06D3E00A63DF080202604480FF0119
06D3D60A63E0080202604680FD011A
06D3D00A63E008020260458103010D
06D3CA0A63E4080204604480FD010E
06D3C70A63E0080202604680FE010F
06D3C10A63DD080203604680FC0110
06D3BF0A63E4080202604580FB013B
06D3BC0A63E008020460458105013D
06D3B60A63E1080201604580FC012D
06D3B20A63E608020360468101012A
06D3AB0A63DD080203604580F9010D
06D3A80A63E1080202604580FE0109
06D3A10A63E3080202604580FA010E
06D39A0A63E1080203604581050109
06D3930A63E3080205604780FB012F
06D38B0A63E3080204604680FB012E
06D3850A63E1080204604680FA011C
06D3800A63E308020560448103011F
06D37A0A63E4080203604780FC00EC
06D3730A63E30802026046810200ED
06D3740A63E30802036045810700FB
06D3710A63E40802036047810600FD
06D3710A63E30802026046810500BE
06D36F0A63E40802036048810A00BD
06D36E0A63E6080203604680FE00BC
06D3670A63E6080203604580FF011E
06D3630A63E9080201604880FD011D
06D35D0A63F708020460468103013B
06D3570A6400080201604780FB013E
06D34E0A63F608020460478103019D
06D3450A63FA080202604780F9019D
06D3420A6400080200604680FF0167
06D33C0A63FA08020160468102016D
06D3370A63FD080203604780FC00AE
06D3330A6403080203604880FD00AE
06D3300A640008020260468102018E
06D32D0A640808020460478101018C
06D32A0A6406080203604880FD01AD
06D32B0A64030802026049810001AA
06D32F0A640A080202604780FD0084
06D3360A6436080204604881050089
06D33F0A64F608020260498100019D
06D35A0A6674080201604880FF019D
06D3740A68B20802026048810001AC
06D3870A6E25080200604780FF01AC
06D39D0A761E080202604780FFFD5F
06D3A50A7828080204604780FCFD5D
06D3A60A781408020160478106008C
06D3A90A78CB080200604880FE008F
06D3B60A7843080202604781070100
06D3BA0A76880802026049810700FC
06D3BA0A764C0802036048810BFD69
06D3BB0A75A908020360498109FD64
06D3BE0A7462080203604880FF030C
06D3BE0A7477080200604780FB0308
06D3B70A74FE080202604781020139
06D3AE0A74D4080203604980FC013D
06D3A80A75F4080200604880FF9068
06D3A00A7782080202604880FBFD59
06D3970A78A2080203604A80FCFD6B
06D38A0A7A14080203604A8108025C
06D3810A7BAF080202604880FA025F
06D3790A7B5008020560488107FD5D
06D3720A7B9F08020360478100FD5C
06D36D0A7B6508020260488104FD58
06D3670A7A80080202604980FEFD63
06D35F0A7A43080202604C80FD00E0
06D3540A79D7080202604880FE00DC
06D3480A790408020460488103018B
06D33A0A78D8080202604A8101018F
06D32F0A7877080202604680FE01CD
06D3190A77BF080201604880FC01C9
06D3040A7787080201604A8105017C
06D2FB0A774A080201604A81010180
06D2F50A76E1080201604A80FC0089
06D2F10A76E1080202604A8103008A
06D2EF0A76D1080202604880FB00DB
06D2EC0A76750802046049810800DC
06D2E60A768B080203604A80FD01AF
06D2E00A7681080201604880FE01B0
06D2D20A7647080204604B81010162
06D2C30A765B080203604980FD015E
06D2AC0A7616080202604B80FF00DE
06D29D0A75D5080202604B80FE00DE
06D29A0A75D8080202604A80FD0085
06D2970A75A9080201604B80FF0081
06D2950A7571080202604C80FE012D
06D2940A7566080202604880FD012C
06D2950A752E080203604C80FC018E
06D2960A7508080203604A80FD018C
06D2990A750B080202604C80FE006F
06D2980A74DF080202604A8103006F
06D28E0A74CB080201604B80FD006A
06D2840A74CF080204604A8100023D
06D2830A74A2080202604A80FC023D
06D27E0A74A8080202604C80FF029B
06D27D0A74BB080203604A80FB0297
06D27E0A74A5080204604880FC011C
06D2800A74B8080204604A80FD011F
06D27E0A74D1080203604A8100017C
06D27B0A74C0080203604B80FA017A
06D2750A74D1080201604A80F7010E
06D2710A74DA080204604980FD0111
06D2690A74BA080202604A80F701DA
06D2670A74CA080203604B810101DA
06D2680A74C0080201604B80FC01FA
06D26E0A74B6080201604980FC01FD
06D2740A74D7080203604880FF00AF
06D27A0A74D1080202604A80FD00B0
06D27E0A74CA080203604A80FD0085
06D2860A74E0080201604B80FD0084
06D2890A74CA080205604C80FE017E
06D28E0A74C8080203604980FE017C
06D2920A74CD080202604A80FE00F9
06D2990A74B1080202604B80FE00FA
06D2A10A74B0080204604980FD00DE
06D2A50A74B4080203604C80FE00DE
06D2B00A749C080204604C8108016C
06D2BB0A74A2080202604C8101016A
06D2CD0A749A080201604C810901BA
06D2D90A747A080204604D80FC01BD
06D2ED0A7474080203604C80FC010D
06D3050A745B080201604E80FB010E
06D31D0A7437080203604B8100014D
06D3370A7437080202604C810B014D
06D3550A7414080204604C80F900BE
06D36F0A73FE080201604B81040090
06D3880A73F9080203604D80FC008D
06D3A60A73D7080202604D80FD017C
06D3C40A73C5080201604C8101017B
06D3E60A73B9080203604A80FF0131
06D40B0A739E080203604C80FE012C
06D4300A738E080201604D80FD00BA
06D4590A737A080202604C80FC00BC
06D4870A735F080202604C810400EB
06D4BD0A7360080202604D80FE00EC
06D4F00A735F080201604C80FF012B
06D5100A7353080201604B80FB0132
06D5240A7353080201604C80FD00EC
06D5320A7353080203604D80FF00F1
06D5470A734B080203604E80FE012D
06D55D0A7353080202604E81020129
06D5770A7331080201604C80FC00F9
06D58D0A732E080201604C80FC00FE
06D5980A735A080201604C8108010D
06D59B0A732E080203604B80FB010E
06D5990A733B080203604B8105011B
06D5930A7353080202604D8104011C
06D58E0A7322080203604E8103010D
06D5890A732B080201604D8103010E
06D5850A732E080202604C80FB0120
06D58B0A7305080205604D8106011D
06D5800A7305080204604C8108012C
06D57B0A72F3080204604D8106012F
06D5780A72D9080201604D8103013B
06D5740A72E1080202604D8100013C
06D5700A72DC080201604C80FD010B
06D5640A72D1080202604D810A0109
06D55D0A72CD080203604A810000EE
06D5550A72C5080203604D810600ED
06D54A0A72B5080203604C810300EB
06D53F0A72A8080202604E8101010E
06D5350A7296080202604D8109010F
06D52D0A7270080201604B810500AD
06D52C0A725A080204604B810400AB
06D52C0A724A080203604E810500BC
06D52F0A7227080202604D810500BE
06D52F0A720D080201604E810500EA
06D5310A720A080203604F810700EC
06D5370A71E8080202604D81050127
06D5360A71D6080203604E8106012C
06D53B0A71D6080202604D8103013F
06D53C0A71B3080203604D8101013B
06D53C0A71AA080204604F810600EC
06D5370A71A50802026050810900EE
06D5350A717E080202604D8104013A
06D5330A7182080204604D80FE013C
06D5340A717C08020260508100010D
06D5360A7165080202604E8102010C
06D5390A7173080202604D80FE013E
06D53D0A716F080202604D8107013B
06D53F0A7159080202604F80FE00F9
06D53D0A716C080202604E810000FC
06D53B0A715F080203605080FC00CD
06D53B0A7146080203604F80FC00CD
06D53D0A7153080202604E80FF00FE
06D5400A713F080203605080FD00FB
06D5440A7131080203604C810400DE
06D5480A7145080204604E810400DD
06D54C0A7134080203604D8101010B
06D5500A7130080202604F8104010E
06D5550A713E08020360508103010D
06D5560A712A080203604E81020110
06D55E0A712E080204605080FE012E
06D5640A7133080203604F8104012E
06D5760A711F080202604F80FA012A
06D5930A7127080202604E810400EB
06D5AE0A71280802036050810900F0
06D5C90A711A080203605080FD011C
06D5E50A7125080203604F8106011D
06D6010A7124080204604E810800FD
06D61F0A7113080203605080FA0101
06D63C0A711F080204604F80FF010E
06D6600A7116080202604F8103010E
06D6870A710A080204604E8107012E
06D6B10A710A080201605080FC012C
06D6E60A70FC080203604C8105010C
06D7300A70F5080203604F80FD010B
06D76E0A70FF080203604F8105010E
06D7910A70EB08020160508102010E
06D7B90A70ED08020460508104011C
06D7EE0A70E9080202604F80FD011B
06D81F0A70DC080203604F8105011C
06D8540A70D908020460508106011B
06D8830A70D1080203604E8104010D
06D8AA0A70C508020260518102010F
06D8BA0A70BA0802046050810700FD
06D8BB0A70A2080203604F810700FD
06D8BD0A7089080203604E8104013E
06D8CB0A7076080202604F8106013C
06D8EA0A705F080202604F8103012F
06D90C0A7050080202605081020129
06D9330A7045080202604F81090120
06D95A0A703608020460508108011E
06D9840A7036080204605080FF00FE
06D9B10A70310802016052810500FC
06D9D50A7036080200605280FF011D
06DA010A703B080202605281070120
06DA150A70390802026050810800FA
06DA250A703F0802026051810100BA
06DA360A70430802036050810200BE
06DA420A70480802046050810700FE
06DA4B0A704B0802026050810400FE
06DA4F0A704E080204604F8107014C
06DA590A705808020260528108014D
06DA660A70B908020260518109011A
06DA760A7202080204604E8108011B
06DA820A74140802026051810600DE
06DA940A76C40802036051810600DC
06DAA20A79B308020460508109015E
06DAAA0A7BB108020360518105015D
06DAC00A7CA108020260538108010E
06DAD70A7CCD08020360518108010D
06DAE30A7C9908020260518104010A
06DAE20A7C1708020360508108010F
06DADD0A7B9F08020260528107012E
06DACF0A7B6D0802026052810A012D
06DAC20A7B590802026053810B010F
06DAB70A7B880802016050810C010F
06DAA90A7C0C080201604F8108010E
06DAA00A7C7B0802036050810A010B
06DA970A7D3008020260528109011D
06DA920A7DFE08020160528107011F
06DA8B0A7E89080202604F81050188
06DA820A7F2708020160508103018F
06DA7B0A7F4208020360528107010F
06DA710A7EC008020160528110010D
06DA670A7E1308020360518106012C
06DA5E0A7D6308020360518105012C
06DA530A7C9608020460518103011E
06DA470A7BE00802026053810A011C
06DA3D0A7B1F0802016051810500EA
06DA2F0A7A6F0802026052810900F0
06DA2A0A79E20802036051810D00EB
06DA250A794D0802026051810200FC
06DA210A78CB0802016051810700F6
06DA230A787208020260518106010B
06DA290A7817080202605381030113
06DA310A77C208020360528105010A
06DA330A7790080204604E8109010B
06DA390A775808020360528108012D
06DA3F0A773908020360518107012D
06DA450A7734080203604F8108012B
06DA4F0A772A08020160538109012A
06DA5A0A773608020060528106010B
06DA600A774D08020360518107010E
06DA660A775508020160518102014A
06DA6A0A776808020260528107014C
06DA710A776D08020060528107010E
06DA770A776508020260538106010C
06DA7C0A776208020160518103012E
06DA800A773F08020360528107012D
06DA830A771F0802036053810D010B
06DA880A770208020460538105010C
06DA920A76D80802046052810600AE
06DA960A76BC0802036053810400AE
06DA9C0A76A708020160548108011D
06DAA40A768E0802016052810E011E
06DAA80A768108020360528106010A
06DAAD0A76740802046054810B010B
06DAB60A766708020460518109016E
06DABB0A765408020460538105016D
06DAC30A764108020360528109012E
06DAC80A762808020360528108012D
06DACE0A760F08020460558109011D
06DAD30A75F808020260518107011B
06DADB0A75DB08020260518107012E
06DAE30A75BD08020260538109012C
06DAE80A75A40802046065810B012B
06DAEF0A758908020460518109013F
06DAF50A757808020060518107013C
06DAFB0A755D08020160518107012E
06DB020A754C08020060508107012C
06DB0C0A753A08020060548109010E
06DB130A752808020260548106010E
06DB1E0A751A08020360528104013D
06DB2E0A751008020160528107013B
06DB440A751A08020260518109015F
06DB5A0A750608020160528109015D
06DB6C0A750108020360548105013F
06DB830A7503080202605280FF013A
06DB9A0A74FE080202605281060110
06DBB10A74FD08020060528106010F
06DBCC0A750108020360538100015F
06DBEC0A750008020360548107015F
06DC0C0A750808020260538104015F
06DC210A750808020160528104015A
06DC3B0A750808020460528105012B
06DC490A750B08020260518105012A
06DC590A750808020360538103012F
06DC6C0A7501080204605281080129
06DC770A74FA0802016052810800FE
06DC7E0A74E40802016052810B00FE
06DC890A74CB08020260548101009E
06DC990A74BD08020360548108009E
06DCAA0A749D0802026054810200FE
06DCBE0A748C0802026053810400FD
06DCD20A73BC0802036052810600CB
06DCEB0A75850802026053810900CC
06DD130A75DD0802046052810B010D
06DD3C0A75CF08020260538109010E
06DD730A75DD080204605381070109
06DDA60A75BA08020260548109013D
06DDDD0A759A0802016053810A0138
06DE230A75600802026052810A00F1
06DE610A75320802026053810600EE
06DE9A0A74D10802006052810D00CD
06DED30A747F0802036052810600CB
06DF0B0A742E0802016053810E010C
06DF410A73E4080201605581070110
06DF750A739F08020360538107011E
06DFAC0A73680802036052810B011D
06DFEE0A733608020360558106011D
06E0300A730B0802036052810E011F
06E0780A730A08020360548108010E
06E0C10A72EB080203605381070110
06E0F20A72CA08020260558105012F
06E1110A72AD0802046052810A012B
06E13E0A7298080203605480FE00F1
06E16D0A72850802026053810A00EE
06E1930A7277080203605581090086
06E1A90A9982080206605281070084
06DBB90DC25D08021D6054810B0447
06C0E60F3F5E08022F6055810C0447
06ABC8109C4D08023F6053810D0599
069DE5109C40080257605281110598
06951B10B81B0802766054811006EA
068E1010F2B208028B6053811006EA
068A9311107808029E605581110806
068949111D0B0802B0605381160806
0688361120270802C06054811E0899
068788111FBA0802CF605581450897
068734111D060802E4605281680887
0686F4111C320802F8605481970885
0686D31111E408030A605381D208B2
068749110B4008031C6053821008E8
068794110C7E08032A6055826308E2
0687F21116D608033C605682BD0A84
06885311231A08034E605283080A85
06886D1137B1080362605683700BE2
0688891148E7080375605483C30BE4
06885A114DE7080380605384340AD7
06882A114CE00803816054849C0AD6
06882711594D080381605384ED0A96
0687EC1162EE08037E6053851C0A97
068800116B0A08037A605385090AD3
06881B11713D080377605484B10AD3
0688271175C1080371605684380A27
06882A1177E8080374605583950A24
06882A1176B3080378605182E50B13
0688211170F908037C605582280B13
06885711584B08037D6055817D0AA5
068857114FE708037E605380DF0AA5
0688B6115B4708037D605380590A17
068954116D2A08037D60537FD80A15
068973116FE608037B60547F570B18
06894711706208037E60557EE80B14
06892D116FD108037D60537E790AC4
06895F116ECD08037B60567E010AC7
0689CE116F3E08037A60537D810A85
068A0911704A08037860547D0A0A88
0689EF11932008038A60537C870974
068A661196360803AF60557BFE0974
068AC61188DA0803D560557B7309C5
068ACD11A7A50803FD60557AFB09C4
068ABF11B35D08042F60547AB30A57
068A7F11AF6408045F60537A8B0A58
068A2B11A59908049660547A7D0A52
0689C0119A460804CD60567A780A87
0689621194A308050C60557A6F0A85
06896011AA6308054F60547A7105CB
068A8311DBE608059460557A6805C9
068CF111FE4F0805DE60547A660375
06903B12122C08062160547A6C0378
0693EC1227CE08066660567A8103A2
0697581246720806B260547A8903A7
0699DE1260EA0806FF60557AB40417
069B7D1272DF08075460567AD90416
069BD212897B0807AA60537AF70848
069ACD12A5F108080260567B0E0844
06996B12CD2B08085A60567B000776
06992C131C970808B260567AF70775
0695481382EE08090960587AFF071C
068CFC13BCDF08095A60577B1F0717
06899A13DAA00809AB60557B5E061B
068D0613EB4E0809FA60567BA9061B
06936D13FA15080A4960567BFD053A
069C1114096D080A9560567C460539
06A592141856080AE060557C9404A8
06AFF51428EB080B2C60557CC804A7
06BA0C1433AD080B7760567CE90488
06C2BB143A88080BC460567CF1048A
06C9A91446A6080C1160567CF50529
06CF2414563E080C6060557CE5052C
06D48014670D080CAF60587CD005CB
06D9B414748F080CFB60577CC705CC
06DDC3147C76080D4560567CCB050B
06E09B1481F0080D8660567CDF0509
06E30614862A080DC560557D0304D7
06E5DD1487A6080DFC60557D2504D9
06E8F1148991080E2B60577D4704D5
06EB371487F6080E5760587D6404AB
06ECBC1486C6080E7B60577D6804A8
06EDB4148488080EA060577D55044A
06EDDE147F14080EC560587D330448
06ED7B147C79080EE660557CF70416
06ED2D147BBA080F0560567CAE041B
06ED37147D36080F2860577C6303B7
06ED69148344080F4860587C0603B8
06EDC41489BD080F6D60567B9703B7
06EE81148979080F8F60557B2303B5
06EF5A146A01080FA560577AA40370
06ED6A1451F5080FAC60567A13036D
06E5B214503D080FAB6057798A0360
06DE981454CF080FAE605878FA0361
06D9E2145542080FAE6058787D036D
06D757145796080FAC605777F2036C
06D626145932080FAB605777AA0378
06D5C8145A4D080FA96056775E037A
06D5A31459E7080FA66057772D03B9
06D598145877080FA96059770303B8
06D5A3145526080FAA605876DE0377
06D566145180080FAD605976B30377
06D4741449B7080FAF6057768E036E
06D20E143EC3080FB460567668036D
06CFE61430E3080FBB605A7642036B
06CC24141E2D080FC06057760F036C
06C878140C67080FC6605875E6036C
06C4CB13F65F080FC9605975BF036D
06C07C13E9F7080FCB605875A4036C
06BBAC13DB5B080FCB60587586036A
06B82413CA62080FCA605975730382
06B4CF13BE0F080FC86059756F0397
06B15C13B574080FC26058757C0392
06AE9113AD60080FBD6059758B03C8
06AC6C13A6F8080FBD605B75B003C7
06AAB113A4F2080FBA605B75D603C8
06A93113A4FB080FB9605A760303C7
06A80513A0D7080FBA6059762303D8
06A7981396AD080FBC6059765103D9
06A7BE138523080FBE6059766403B7
06A7CB137B7C080FBD6058767403B5
06A77813739B080FBE605A767103AB
06A6D3136AA3080FBD605A767803A6
06A622136343080FBC605B765903A6
06A58E135EC6080FBB605B764703A6
06A55F135950080FB8605C7633039A
06A5331350AB080FB8605C76100398
06A4D01348B5080FB8605A75F403A7
06A48E1340AB080FB6605A75D503A7
06A48C13377D080FB6605A75B00387
06A457133288080FB8605975860387
06A391132F64080FB9605A755F03B9
06A2821330FB080FBC605D752403B8
06A17D1333D5080FBF605D74F40386
06A09A1331D8080FC0605D74C20388
069FF4132CB4080FC5605A74A00397
069F7F1322DD080FC6605E7471039B
069F1B131C69080FC6605D74480384
069EBC13133A080FC5605D74200387
069E561309DD080FC5605D7402036E
069E111304F7080FC4605C73DA036E
069DB71300B1080FC3605D73C90385
069D2512FC38080FC2605E73AE0386
069CB212FA1E080FBF605E739B0386
069C8712F94A080FC2605C738A03A6
069C9212F89A080FC7605C738403A6
069CBF12F83F080FC9605E737A03B7
069D0D12F90A080FCE605C737003BA
069D7812F9C8080FD3605C736F03D5
069DEB12F9A0080FD8605E737203D8
069E6812FDB4080FDC605E737D0439
069F4B130868080FDF605D73850439
06A06E131132080FE4605E739603E8
06A156130CF5080FE4605F739E03E4
06A1F11309B4080FE3605F738D03D7
06A25C130A8A080FE26061737F03DA
06A260130A9C080FDF6060736E03C8
06A237130AF7080FDE605F734903C5
06A214130B88080FDD605E732003FA
06A214130C67080FDC605C72F803F7
06A233130C08080FDD605E72C20409
06A25B1307E9080FDB6061728C0407
06A3A71456E0080FDE6062725803E7
06BD4414987C080FDB606171CF03E8
06E0A1149922080FDC606070D603C8
06F3D7149939080FDB6062707703C7
06FCA214992C080FD8606070B903D4
07007014990F080FD26063717803D5
07020A149904080FCE6060729203C6
0702BA1498FC080FCB606273D203C5
07030B1498E8080FC56061750703E2
07032C1498D6080FC16061762303E6
0703411498C7080FBB6062772303F7
07034B1498BD080FB8606277F903F8
07034E1498BE080FB6606078C10409
07034C1498C2080FB26064795B0409
0703471498B8080FB4606279DB0405
0703441498AB080FB560647A5103E7
070347149895080FB760637AB603E7
07035814989C080FBD60637B000407
07035E149897080FC460627B420409
070363149886080FCB60617B7903E7
07037314987B080FD360657BA503E7
07037E1498C7080FDA60637BEA03C7
07038A1498DA080FE360647BFA03C8
07039A1498CC080FE960647C1B0375
0703A51498D6080FED60627C2F0379
0703AE1498D5080FF060637C40039B
0703B11498D6080FF060657C500393
0703B11498D5080FF160667C640370
0703BA1498DF080FEC60647C6E0370
0703BF1498DB080FE760657C780373
0703B31498E4080FE460667C880377
0703A21498E1080FDF60647C880395
0703901498D1080FD860657C950397
07038A1498C7080FD360657C9F03C6
07037F1498BD080FCD60657CA203CA
0703771498C2080FCA60657CA703F8
0703791498CC080FC460677CAC03F9
0703751498BE080FC260677CAE03E6
0703671498C7080FBE60657CAB03E8
0703531498A9080FBD60647CAE03D5
070348149863080FBC60637CB103D9
07034014984A080FBF60667CB403D8
07033914984B080FC060657CB803D9
070332149847080FC260657CB403BA
07033D14984A080FC760687CB403B4
070351149855080FCB60677CB803C8
07036A14984F080FCF60647CBA03C8
07037B149863080FD360667CBA03C4
07038414985A080FD560657CB8038B
070389149863080FD760667CB50388
07037E14986D080FD760677CB10386
07036A149868080FD560677CB60388
07036214985E080FD360687CB503A6
070360149854080FD260657CB303AA
070364149855080FCF60637CAC03A7
07036C149850080FCA60687CB403A6
07036C14984F080FC860687CA90398
07036C149847080FC760667CAC0394
070374149840080FC560677CAE03A1
07037A149842080FC460677CA903A7
07037C149842080FC460667CA90388
07037C149840080FC360677CAB0388
07037D14983D080FC9606A7CAA036E
07037F149840080FCB60667CA50372
070385149842080FCD60677CAE035E
070386149850080FCD60657CB0035B
07038614985E080FD060677CAC036C
070389149855080FD060687CAD0368
07038814984A080FD060677CA6036D
07038814983D080FCE60697CAD036C
07038B14983D080FCC60677CA90386
07038A149836080FCB60677CA50387
070388149838080FC860677CA20397
07038A149836080FC560637CA50399
070387149833080FC360677CA10377
07038914982F080FBE60687CA50378
07038714982C080FBB60667CA60387
07038514982A080FBA60677CAA0387
070387149821080FBA60677CA70375
070383149820080FBC60687CA80375
07038114981C080FC060677CA5037A
070383149817080FC460667CA4036B
070382149817080FC860687CA3036E
070381149821080FCB60667CA60378
070382149820080FCE60687CA00375
070384149825080FD260687C9F035D
07038514982C080FD560667C9F035E
07038514982A080FD560677C9E036C
07038714982C080FD760667C97036A
07038814982A080FD560677C9C036B
07038F149827080FD660677C9B036C
07039114982A080FD5606A7CA10387
07038F14982F080FD260687C9B0385
070390149831080FD160697CA00399
07038E14982F080FD360677C9F0397
07038D149831080FD360677C9D03A6
07038E149838080FD360697CA003A8
07038B149838080FD260677C9F0388
07038914983B080FD560667C9E0387
070389149850080FD960687C9E0387
07038A149863080FD760687C9D0388
07038A149850080FD860677C9E0377
070389149847080FD860687CA00377
07038B149840080FD560667CA103B7
07038A14982F080FD360677C9F03B7
07038A149827080FD060667CA103A8
07038B14981C080FCB60677CA703A5
07038A149809080FC160677CAA03C2
07038A149803080FBD60677CAA03C8
07038A1497FA080FB960647CAA03C6
0703871497EF080FB460677CA203C6
07038D1497EC080FB460667CA403D2
07038F1497E3080FB460667CA003E5
0703921497E5080FB560667C9E03E7
0703931497E7080FBA60667CA103A7
0703931497EF080FBD60677C9C03AC
0703911497EC080FC460657C9D036E
07038D1497F1080FCB60677C9E036C
07038C1497F9080FD060647C9D0375
07038A149809080FD760677CA10375
070386149812080FDB60667C9A035D
070386149817080FE060677CA2035F
070386149827080FE060677CA40372
07038614982A080FE460677CA50379
07038514982F080FE560687CA40387
070385149836080FE660657CA40387
070385149833080FE860657C9E03A5
070384149831080FE760677CA203A7
07038314982F080FE560657CA903B8
07038514982A080FE760657CA803B8
070384149831080FE360657CA703C5
07038614982A080FE060667C9F03C5
07038414981C080FD760667CA303FB
07038414980D080FD160667CA303F9
0703851497FF080FC960677C9E03E8
0703831497F4080FC060647C9B03EB
0703821497E3080FB960667C9E0408
07037D1497CC080FB560647CA60404
0703791497CF080FAF60647CA003C5
0703761497CF080FAF60647C9C03C6
0703691497D1080FB160677CA003D5
07035B1497D4080FB260667CA203D7
0703521497D6080FB660637CA10382
07034A1497E3080FBC60657C9F038A
07033B1497EC080FC160627C9F0385
07032A1497EF080FC360647CA6037A
0703201497DE080FC960647CA90377
07031D1497EA080FCF60667CA80388
0703231497EC080FD360647CA10387
0703311497EC080FD560657CA50384
07033B1497F9080FDA60657CAC0387
0703401497FA080FDC60637CAC036C
07034A1497EF080FDD60647CAB036B
0703581497F6080FDE60637CAD036B
070361149803080FDF60657CA8036D
0703681497F1080FE160667CAA036C
07036E1497E3080FE060657CAB036B
0703701497E5080FDD60657CA80377
07036E1497E3080FDB60657CAB0378
07036E1497DB080FDA60637CA20368
07036C1497D4080FD460627CA4036E
0703671497CF080FCF60647CA00388
0703601497C7080FC760647CA40388
0703511497E7080FC260647CA603C7
07033114980D080FBF60647CA103C8
0702FF14981C080FBB60637CA403D7
0702C5149825080FB860637CA803D8
07028D14982C080FB760657CAA03C8
07025B14982F080FB660627CAC03CB
07023A149831080FB760637CB10418
07022414982F080FBD60637CB70416
07021E14982F080FC160637CAB0439
070227149821080FC660637CAC0435
070243149812080FCC60627CB5041B
070261149817080FCF60617CA60416
070271149820080FD260627CAC03B5
070277149825080FD360637CAD03B7
07027014981C080FD360627CA803B5
07027614982F080FD060647CA303CB
070269149836080FCD60637CA203C8
07024E149842080FC960617C9E03E7
070227149847080FC260627C9F03E5
07020414984A080FBD60607C9E0437
0701E9149855080FB860607C95043A
0701D6149854080FB860617C960409
0701CA149850080FB960607C9C0409
0701C5149855080FB960617C9F0438
0701C5149854080FBD60627C9F0439
0701C1149850080FC260617C9C041B
0701C2149854080FC560617C9C0419
0701C514985A080FCB60617C9F0437
0701C6149854080FCF60617C99043B
0701CC14984B080FD1605F7C9D0419
0701DD149847080FD260617CA30416
0701F114984A080FCF60617CA003D5
0701F7149850080FCB60617CA703D8
0701E8149859080FC2605D7CAD03E5
0701CE14985A080FBD60607CAB03E8
0701BA149863080FB460617CAA03E6
0701AE149863080FAB60607CAF03E8
0701A6149863080FA460617CB303E7
0701A514985E080F9F605F7CB403E7
0701A314985A080FA0605F7CB103F8
0701A414985A080FA2605F7CB603FB
0701A2149859080FA6605F7CB90436
0701A0149855080FAD60607CB4043A
07019E149854080FB0605F7CBA0409
0701A2149855080FB7605F7CBB0407
0701A4149855080FC2605E7CBA03FB
0701A7149854080FC9605E7CB703F8
0701AC14985E080FCE605F7CBB03FB
0701AC149863080FD3605D7CC103A5
0701AA149863080FD6605E7CBD03A5
0701AB149863080FD8605F7CBB03BB
0701AA149859080FD6605E7CB903B9
0701AA14985E080FD4605D7CB403C5
0701A614985E080FD0605D7CB803C7
0701A5149863080FCF605D7CB903EA
0701A614985E080FC8605D7CB903E7
0701A7149868080FC4605F7CB003EA
0701A3149863080FBF605D7CBA03E6
0701A114985E080FBA605D7CB30428
07019F14985E080FB5605D7CB0042A
07019F14985E080FB1605C7CAB040C
0701A0149859080FAF605B7CAA0408
07019F14985E080FAD605B7CB0041B
07019E149859080FAB605B7CAB041A
07019F149855080FAE605C7CAD04B8
07019E149859080FAD605C7CB004B9
07019F14985A080FB1605D7CB5049E
07019D14985A080FB3605E7CB50499
07019E149859080FB5605C7CB3045A
07019F149855080FBA605B7CB3045A
0701A0149859080FBC605C7CB50438
07019F14985A080FBB605B7CB7043D
07019D14985E080FBD605A7CB90418
07019E149863080FBC605D7CC20417
07019F149863080FBB605B7CBE03F9
07019E149863080FBB605A7CC103F7
07019D14985E080FB4605B7CC30408
07019C14985E080FB4605A7CBB0407
07019D14985E080FAE60597CBD0414
07019C149863080FAC605B7CB80417
07019C14985E080FAE60597CB90416
07019C149863080FAC60587CC0042A
07019D14985A080FB1605A7CBE0428
07019C149863080FB460587CBB042A
0701A1149863080FB560597CBA042A
0701A2149863080FBC60597CBE0417
0701A6149863080FC160577CB30418
0701AE14985E080FC760597CB70429
0701B3149854080FCC605A7CBD0427
0701BE14985A080FD260597CB303D5
0701CD149854080FCE60587CB103DA
0701DE14985A080FCA60587CAF0418
0701E414985A080FC560577CAF041A
0701E0149859080FC460577CB203E7
0701DC14985E080FBF60577CB003E7
0701D6149863080FBB60577CAD046A
0701D1149868080FBA60577CAC0469
0701CE149863080FBA60587CAC03F5
0701CC149859080FBD60567CB203F7
0701D6149850080FC060567CAE03BA
0701E014984A080FC760567CB503B5
0701EF149847080FCC60557CB303A8
070209149842080FD160557CB003A6
070226149836080FD560567CAF037A
07024814982A080FD660567CB1037A
07026B14982C080FD460577CB00377
07028214982F080FD160557CB00377
070285149831080FCD60557CAF03A8
070271149833080FC960567CB303A8
07025814982F080FC560547CB203D9
070253149836080FBE60567CAF03D5
070246149838080FB960547CAD03D5
07023A149840080FB760557CB403D7
07022D149838080FB560537CAE03D8
07022A149838080FB460557CB50388
07022D14983B080FB760567CB50386
07022E14983D080FB960537CB50386
07022E149840080FBF60537CB00387
070231149838080FC660537CB50378
07023C14982F080FC960527CB80374
070253149821080FCC60527CB3036B
07027314981C080FCF60557CB5036C
070294149812080FCF60527CB40388
0702AB149812080FCF60537CAE038B
0702BE149812080FC860527CAE039A
0702C6149817080FC460507CA80399
0702C014981C080FC160547CAB03C8
0702B7149827080FBC60527CAE03C7
0702B0149820080FB660527CAB03DB
0702A3149833080FB6604F7CAC03D9
070299149836080FB560527CB10387
07028D149833080FB760527CAF038A
07028D149836080FB960527CA70379
070287149833080FBD60537CAE0377
07028214982A080FC260507CAE0379
070280149831080FC860527CAB0374
07028014982A080FCD604F7CA7036C
07028714982C080FD160507CA6036C
07029314982A080FD360517CA7036C
0702A6149821080FD660517CA5036E
0702B514981C080FD960507CA30388
0702C914981C080FDA60527CA40386
0702DE14981C080FD760517CA303A5
0702EE149817080FD8604F7CA303A7
0702F614981C080FD5604E7CA203A6
0702F7149817080FD2604E7CA503A6
0702F514981C080FD1604E7CA903A2
0702F6149817080FD1604F7CA103D5
0702F514981C080FD4604F7CA403DA
0702F8149821080FD3604F7CA703CA
0702F714981C080FD7604C7CA503C6
0702F914981C080FDB604E7CAE0382
07030114981C080FDE604F7CA40388
07030A149817080FE0604D7CB10386
070314149812080FDF604C7CAF0387
070320149812080FDF604E7CB003BA
070329149812080FDD604E7CAC03BB
07032D149812080FD9604B7CA903CC
07032A149817080FD4604F7CAA03C7
07032B149812080FCD604D7CAA03D9
07032C149817080FCA604D7CAD03D9
070328149817080FC5604C7CAB03CA
07032214981C080FC1604C7CA903C7
070319149820080FBC604C7CA8040A
07030E14981C080FBA604D7CA80407
07030514981C080FB9604D7CAB03E8
07030614981C080FB6604C7CA303EA
070304149821080FB5604E7CAC03D9
07030214981C080FB5604B7CAA03D9
070302149827080FB4604B7CA403F5
0702FF149825080FB2604B7CA003F9
0702FF149825080FB5604A7CA603B8
0702FF149827080FB7604B7C9D03BA
070301149825080FBD604A7C9C039A
070303149827080FC060497C9C0397
07030614982A080FC6604A7C960428
070305149827080FCB604A7C99042C
07030E149820080FD1604B7C940425
070318149825080FD7604A7C960375
07031E149827080FD9604B7C980377
07032514982A080FDB60497C9A0388
07033014982C080FDC60487C9D0387
07033A149833080FDE60497CA20398
070343149838080FDF60487C9E039A
07034A14983B080FE060487CA603C7
070354149847080FE160487C9F03C7
070357149859080FE160487CA303B8
07035E149863080FE460467CA103B5
070367149868080FE460477CA803A5
070372149872080FE560467CA303A5
07037E14987B080FE260487CA203B5
07038414987C080FE260497CA103B8
07038314987B080FDF60477CA603C7
07037D149868080FDA60467CA903C8
07037514985E080FD860487CA503D9
070374149855080FD560467CA403D5
07037D149859080FD060467CA003F5
070380149868080FCF60477CA203F9
070380149855080FCB60477CAB03B5
07037F149845080FC860467CA503B5
07037F14985A080FC760457CAA03CA
070382149859080FC560457CA003C8
070385149855080FC660457CA703B9
07038714984B080FC960467CA303B8
07038C14984A080FC760437CA803CA
07039114984B080FC960457CA603C6
070392149845080FC760477CA303A8
070397149842080FCB60467CA203A8
07039A149847080FCB60427C9C03E8
07039D149854080FCB60457C9E03E8
0703A414985A080FCC60457C9C03E8
0703B0149854080FCF60457C9D03C6
0703C8149855080FD260427C9D03C8
0703DF149854080FD260447C9703F8
0703EE149855080FD760437C9903F8
0703F7149855080FD560437C98040A
0703F8149859080FD660427C990408
0703F2149863080FD560427C9F03E4
0703EE149872080FD260437C9A03E5
0703DE149876080FCF60427C9A042B
0703D3149884080FCE60427C9A0429
0703D1149881080FCC60447CA00408
0703CC149884080FCD60427C9D0408
0703CA149886080FCE60427C9F043A
0703CD149889080FCF60447C9E0439
0703D8149880080FD560417C9D0415
0703F1149872080FD860417C9C0418
070422149863080FDE60417CA30476
070453149890080FE1603F7C9A0478
0704901498AF080FE560427CA20438
0704C81498BE080FE660407C9D043B
0704F31498BD080FE160407C9B03E5
0705011498AF080FDD60407C9D03EC
0704E91498A9080FD460427C9903F5
0704AF1498A6080FCC603C7C9603F7
07048414988E080FC260407C9C03B7
07046814988B080FB960407C9803B9
07044714988E080FB5603E7C9B03DA
070430149895080FB160407C9903D8
070420149897080FB060417C9B03C6
07041E149897080FB3603E7C9303C8
07043D1498CC080FBA603F7C9103D8
0704991498DA080FC160407C9203E8
0705011498E1080FCE603E7C8B03E4
07053F1498E8080FD9603E7C8903DA
07055B1498E4080FE160407C9403D8
0705741498E6080FEB603F7C89036D
070578149913080FEE603E7C8D0370
07058514990E080FEF603F7C880384
07058E149905080FEE603E7C880386
07058114990A080FEB603D7C8A0387
0705661498FF080FE2603B7C890387
07055A1498F7080FDA603F7C8A0397
07054F1498F0080FD0603D7C830398
0705441498ED080FCA603C7C8A03DA
0705441498E8080FC2603D7C8303D8
0705471498E1080FBA603C7C7E0428
0705421498E8080FB5603B7C8C042D
07053E1498EB080FB3603B7C8503CA
0705391498E8080FB0603B7C7F03C5
0705471498FC080FB2603B7C8A03FB
07055B1498F5080FB3603C7C7F03F9
0705681498FC080FB4603E7C7F03F5
0705711498FF080FB8603C7C8203F8
07057C149900080FBC603B7C8103B8
070583149905080FC3603B7C7F03B5
07058A149940080FCA603C7C7B0387
07058F1499F8080FC9603B7C7E0388
07058C149A82080FCA603D7C7B0399
070582149A0B080FCE603C7C7E039A
07057D149A02080FCC603A7C7A037B
070578149A09080FCC603A7C770375
0705741499DB080FCC60397C77036D
0705751499C3080FCB603A7C72036D
070576149A6A080FCA603A7C74036D
070571149A95080FCD60397C7703B7
07056F149A73080FCD603A7C7803BB
07056D149A91080FCE60377C7F03A5
070569149B37080FD260387C7E03A8
07055B149BA5080FD460397C820398
07054E149BE3080FD660387C840398
070542149C8D080FD660387C85036A
070532149CC8080FD460387C8A0371
070525149D70080FD260367C8A0397
070518149D87080FD760387C900399
070507149D9A080FD260387C98038A
0704FF149DC6080FD160377C980388
0704F7149E29080FD060387C9F0398
0704F0149E4E080FD160387CA40395
0704ED149E67080FCD60377CA90377
0704E8149E4B080FC860367CAF0377
0704E5149DCB080FBA60367CB60388
0704EA149D2C080FA460377CC20388
0704F6149C4C080F8960367CCA036B
070502149B28080F6860357CD1036C
070506149ABB080F4360357CDE035E
0705061499A5080F1D60357CE5035B
070515149930080EF160367CEE035F
0705271498ED080EC260357CF10361
0705281498EB080E9160357CF3035E
0704FE1498F7080E5C60347CF40358
0704B11498C7080E2860347CF0036C
07044B1498B4080DF360347CF7036C
0703EB1498AB080DC160337CF603A6
0703A7149845080D8C60337CEF03A8
07033914977F080D5460347CED03E5
070257149658080D2160347CE603E8
0701091495C9080CE960347CE503E7
06FFE81494F4080CB860327CEB042A
06FEC9149477080C8160347CE40429
06FDD21493E8080C4B60337CE7044C
06FD02149371080C1560337CE9044B
06FC0414935A080BDA60347CE00498
06F9E81493A8080B9F60327CE10497
06F74A149480080B5F60317CE70487
06F4CC149413080B2060317CEF048A
06F37B149312080AE260317CEE051E
06F2FF1490BC080AA160347CEE0519
06F2A5148E6E080A6160317CF705B9
06F1BE1488D8080A2660337D0C05BD
06EFBB1482B80809E560317D23056C
06ED04147BA20809A960307D4C0567
06EA80147BC608096E60327D7D04AB
06E8E514743108093360307DA204AC
06E73F146B150808F960307DD204E8
06E4F114624C0808BB60307E1304EC
06E26D145A2808088160327E480496
06DF93145A8908084260307E840499
06DCD3145343080804602E7ECF050C
06D979144AAB0807C7602E7EFE050E
06D435143F0708078760307F44058D
06CD32143C5508074A602F7F6F058C
06C6531434D708070E602E7FE9067D
06C0B0142F700806D960308013067B
06BA831438040806A4602E806E071B
06BA02141DC9080676602F80AE071A
06B82613F9BB080649603080F20778
06B10413F7B8080621602F81740778
06ABD213B8430805F7602C81FA0837
06A8501379CA0805D2602E82780837
06A39F1355590805AD602C82FC0833
06A0DC1325FD080586602B836C071D
069FCC1343B808055F602D83DF071E
06A070133F77080541602C8430054B
06A0F4131FF5080527602B8476054C
06A0F6130F9708050D602C84A5047A
06A0C912EF2E0804F7602C84BD0479
06A11D12E1E10804E3602C84CC0409
06A1DD12CEF00804CD602E84BD0409
06A2B812B7AC0804BA602D84AB03B5
06A39212B0EC0804A7602A848F03B9
06A42912B355080495602C847203AB
06A46C12B021080485602C843903A8
06A48B12AED5080476602B840603B7
06A4AD129E9D080466602A83C103B8
06A4451243F6080454602C838E03FA
06A10C1214A808043D602D835E03F5
069CFF12136608042E602A833804EA
069A7311EC00080422602B830C04EC
06980411C883080412602C82EB059B
06959D11D75A080405602782C8059A
06947B11D4C00803F7602982A7062E
06943E11DB110803E9602A828C062C
06944B11BD8B0803DB602A8274066A
06937F11CB080803C3602A825D066A
06930B11EE7F0803B66029824906CE
06941B11DC980803B6602A824F06CC
06948811D6D20803B4602A823F05ED
06942511D65F0803AF602A823905EA
0693CE11D8720803AA602B823E065C
0693A911DC1A0803A16028823B065E
0693CF11E1920803996028823C0606
06944B11E43C0803916027823705EC
0694A911E3C008038B6029823805E7
0694CD11D39F0803836027823806DA
06947011D0830803846028823306DE
0693FB11D98A080386602A823806B1
06942711DD180803896028823A06AB
06948C11D32D080391602882340638
06944D11A76608039D60268232063A
0692A91128B90803A66026823B065C
068DD610FD4D0803AE6028824A065F
0688C310EB3A0803B26027827905ED
06857F10D7C50803B56025829B05ED
06838A10CCAC0803B6602682AF067C
06824710C6530803B8602A82BE067A
06819C10CB7F0803B9602682D5061E
06815310E0500803BD602682E1061E
0681D71100EA0803BD602682F5067C
06835011081B0803BD602682F80677
0684801119CA0803BB6025830005F8
0685851131A40803B66027831105F9
0686A1111F580803B4602583120630
0686E311022F0803AE60258318062C
06865510FF800803A96025832B058B
0685CC10FAC90803A86024833B0589
06854210F1730803A66023834906AB
06840610F3D40803A46025835606AA
06834510F06E0803A56023836606A9
0682D810EA290803A66024836F06AD
06828010E3150803AB6026837D073B
06822010D5400803AC60238389073A
0681AE10D2AB0803AE6024839B06AF
06817B10D8260803AE602383AE06AD
0681AC10E4D70803AD602383C406A4
06824210E6260803AB602483C7065D
0682AE10E50C0803AB602383DF065E
0682D210E2E80803B0602583DA064A
0682DF10DE560803CC602483E2064C
0682BA10D47A0803ED602583E806BA
06824210D9F608040C602483EC06BA
06821D10FD93080430602283FB076D
0682F61126BA080452602483FA076F
0684BC113272080472602583FB087A
06864311356B080493602383ED0874
068719111EE60804B5602383EE0825
0686F5110C4F0804DA602183EC0826
0685F011A0C2080504602483F40916
068836122F4E080535602383EA0917
069053129E9D080571602283C4054B
069B2212A5860805AD602183840549
06A0F712AA3B0805EB6022835203A5
06A36C12AEBE0806276021833703A8
06A3AB12BAB30806666024832F03FA
06A1FC12D60E0806A76022832003F8
069D9D1307DF0806EC6021830E0864
06998B13680A08072D602083110868
0699DE13D544080775602282F30772
06918D13F39F0807BF602282FA0775
068A5114146A080810602183290698
068BAA141DF90808676022833A0699
06939614206D0808C4601F8338061E
06A01514382A08092460218344061B
06AE1F1440A40809846023836A04C7
06BC6714531E0809E6602083CA04C8
06CA10145864080A44602384020454
06D357145FC2080A9E602384570459
06D83E146C89080AF66022849B0456
06DB65147C16080B4B602184CA048A
06DF6A14874A080B9F602284CC0487
06E3F0148D83080BF2602284A6058A
06E76F14940A080C4460238476058A
06E8CE149762080C95601F84510649
06E9961494CB080CEE6021842F0648
06EC23149292080D446022840D04AA
06F070149249080D9E602183DD04A8
06F43C1492B8080DF8602183A30486
06F6971493D6080E4F602283600489
06F818149666080EA7601F83250458
06F9F51498DA080EFE602282D80459
06FD6714994F080F586021827603B8
0700D5149B71080FB36024820503B7
07033114A189081014602181950348
07041614A8CA08107160228131034C
07044A14AC8A0810CC602280DA029E
07042E14AF710811246023807D029A
0703E214B2F008117D6021803E028E
0703DF14B6FB0811D560217FF6028B
07049514B94708122B60227FDD023A
07058614B9FB08128360207F6E023C
07063514BCBA0812DC60217F6D0218
07075314BD0708133760237F57021E
07089F14BD5908139160247F44021F
07097214BE1F0813ED60247F340219
0709F214C0C908144D60237F3001FD
070AA614C4ED0814A860237F2801FF
070BCC14C5CC08150860217F1001FF
070CB214C63E08156460227F0501FC
070D3D14C6670815C160247EFE01ED
070D8314C6B408161C60247EFA01EC
070D9A14C71F08167960237EF701E8
070D8914C77B0816D360217EEC01DA
070D5E14C85508173360227EEA01DD
070D2B14CA7908178D60227EE101DC
070C5D14CDF20817EC60237EDD01D8
070A9214D23908184860237EE301CF
0707D314DA810818A960227EE601CC
0702F814DD2308190760227EFF01BA
06FEC114DBA608195F60237F1501BA
06FD7114D94E0819BB60237F2201AC
06FE9D14DAC6081A1860237F2801AC
06FFBC14DB4A081A6F60227F37019D
0700BD14DAF2081AC860227F50019D
0703F114DF51081B2260247F74018D
07066A14E2B5081B7660227F770189
07067214E395081BCF60237FA8018F
0705C314E40F081C2760237FCC018B
07053914E41E081C7C60267FF9018B
0704EB14E471081CD0602480090189
0704B514E4A2081D226022800A0179
07049714E4EC081D7460257FFC017D
07048614E5FE081DC260247FFC018B
07049414E5EF081E1360247FDC018B
0704FB14E600081E6460277FAD017E
07056A14E625081EB360257FA8017E
0705AD14E5F9081F0160277F77017D
0705DB14E5B5081F5360247F78017D
07062114E513081FA260267F59018D
07068514E48E081FF160247F42018C
07071514E2A908204060257F25018F
07084114E29108208F60257EFF018E
07098F14E26A0820DF60257EE4019A
070A9314E1E608213360277EC7019C
070BA914E17A08218B60277EA7018D
070CBB14DF9A0821E460247E8D018C
070E4D14DEF908223960277E6E018B
070FD214DF0308229060267E4A017D
0710B414DF250822E960277E37017C
07111314DF3408234160267E23017B
07113414DEFE08239560267DFD017F
07115614DEBB0823E760287DE6017C
07119A14DF2A08243C60287DC80180
0711D214DF4C08248F60277DB1018D
07120714DEDB0824E660297D91018B
0712B014DD4F08253C60277D76018E
07143C14DC0D08259360277D53018C
07167914DAD90825EB60267D26018D
07189014DA0208264560287CFF018F
071A8714D9B708269F60297CDC018D
071C0B14D9A10826F560297CBF0190
071CFE14D89408274E602A7CA2018B
071E1B14D8380827A5602A7C76018C
071F0514D81F0827FB602A7C53019D
071F9714D7F308284F60297C29019D
071FEF14D7CD08289F602A7C02018C
07203714D7A50828F460287BE1018C
07207914D730082947602B7BAA019A
0720E114D6F608299E602A7B82019A
07216014D6F60829F160297B56018D
0721B914D6DD082A4960297B22018D
0721F914D6B7082A9F60297AF3019D
07223B14D694082AF5602B7ACB019C
07228B14D65A082B4B602B7A9C01AC
0722E814D615082B9F60297A7801AD
07235714D5DB082BF2602C7A4B019D
0723CC14D527082C43602C7A26019D
07248414D425082C93602B79FA01BD
0725B714D314082CE1602B79D901BC
07276814D273082D2C602C79B101B0
0728F214D286082D76602A798C01AD
072A1F14D30F082DBF602C796301AA
072ADA14D362082E09602A793901BD
072B3C14D386082E52602C791501BD
072B6414D3CD082EA0602B78E701CD
072B5E14D41B082EF4602D78B701CC
072B4B14D472082F45602D788B01DD
072B5A14D49E082F9C602D785C01DA
072B8514D4CF082FF8602D77F401CA
072BB714D54A083050602D77E401CF
072BD414D64B0830A7602D77B801BC
072BC114D677083101602F777A01BA
072BD314D611083156602D774E01F0
072C3814D5FD0831AA602F771C01EF
072C9F14D5C70831FB602F76EC01DD
072CF614D57308324D602D76B201DC
072D6614D41108329F602E768C01ED
072E7714D3EF0832F0602E764D01EA
072F6614D3E0083346602F761001EC
072FE914D3D208339E602C75D301EA
07302E14D3AF0833F6603075AB01EA
07306214D38008344F602F757601E9
0730A714D3700834A8602E754B01EA
0730EF14D3440835026030751A01EA
07313614D33B083556603074ED01DA
07317914D33B08359D602E74B301E0
07319F14D32C0835DC602F749D01CF
0731D014D30F083616602E747D01CD
07324114D30F08364B6030745501DD
0732C214D30A08367E602F742B01DA
07330314D3000836B36030740E01D9
07336114D2D90836E0603073F001DD
07343514D2DC083710602F73CC01CD
0734CF14D2D9083740603173A901D0
07352214D2DE083767602F738901CD
07355414D2E3083790602F737201CD
07356714D2ED0837B2602D735A01CC
07356F14D2F20837CA6032733D01BC
07357914D2F60837D8602D732201B9
07358414D2ED0837E0602E730201BD
07358B14D2F20837DF602E72ED01BA
07359114D2E80837E1602F72E001D9
07359314D2F20837DF602F72C001DF
07359114D2F20837DB603072A901DA
07358E14D2F60837D56031729901DD
07358714D2ED0837D1602F728301DA
07358B14D2ED0837CC602E726D01DA
07358814D2F60837C86030725C01E9
07358514D2E80837C76030725101F0
07358814D2E60837C86032724201DD
07358A14D2DE0837CB602E723601DA
07359214D2DE0837D1602D722901DD
07359514D2D90837D96030722201DA
07359814D2D90837E46030721501DC
07359814D2DE0837F06030720E01DA
07359914D2D70837F96031720201CA
07359D14D2D4083803602F720801CA
07359C14D2D4083808603071F701CC
07359D14D2D4083807603171F401CF
07359C14D2DE083805602E71E601E0
07359814D2D9083801602F71E901DA
07359414D2DC0837F4603271DE01DF
07359114D2E80837E7602F71E201DD
07358714D2F60837D8603071D801DD
07357A14D2F20837C9603171D901DD
07357614D2E80837BA603071D901EF
07357514D2EB0837B1602F71CE01EF
07357714D2D90837AA602F71CD01DA
07358114D2D00837A6603071C901D9
07358A14D2D00837AA603171CE01DA
07359414D2CB0837AF602F71C501ED
07359A14D2D00837BC603071C301ED
07359F14D2D20837C6602E71BE01DC
0735A214D2D40837D3602F71B901DD
0735A114D2D40837DE603171BA01CD
0735A114D2D40837E9603071BB01CD
0735A014D2D00837F1602E71BF01AF
0735A114D2CB0837F4603071BD01AA
0735A214D2C70837F5602F71BE01C8
0735A214D2D00837F7602F71B501CD
0735A014D2D40837F3602E71B201CA
07359C14D2CB0837F2602E71BC01CC
07359B14D2CB0837F0603071B801CF
07359A14D2C70837ED602F71B701CD
07359A14D2CB0837EE602E71B001CD
07359914D2CB0837EE602F71AC01C8
07359814D2CB0837ED602F71B101DA
07359714D2D00837ED603071A901DD
07359614D2CB0837ED602E71A901CC
07359514D2D70837EE602F71B201CD
07359314D2D40837EC602E71B401CA
07359514D2D40837EB602F71A401CA
07359214D2D00837E7603071AC01DC
07358F14D2D40837E5602F71B601DA
07358F14D2D40837E1603071A601DC
07358914D2D70837DA602F71B201E0
07358614D2D00837D5602E71A801ED
07358514D2CB0837D5602E71AE01ED
07358514D2C60837D2602D71A201EA
07358814D2CB0837D2602E71AC01ED
07358714D2CD0837D0602E71AB01FC
07358814D2CB0837D3602E719301FD
07358514D2C10837D3602F71AD01FF
07358714D2C60837D2602E71A5020C
07358814D2C60837D4602E7192020D
07358314D2CB0837D2602F71A5021C
07358514D2CD0837CE602D719C021F
07358214D2D40837C7602C718501FA
07357A14D2D90837C0602C71AE01FC
07357314D2D90837B5602C71A401EA
07356E14D2D90837AC602D71AE01EA
07356814D2D008379E602E71AA01FA
07356814D2CD083796602B71B101F9
07356A14D2D008378C602D71A701F9
07356714D2D0083782602C71AC01FD
07355A14D2D0083779602C71B401ED
07354314D2D4083772602D71AF01ED
07353314D2C708376C602C71B3020F
07352514D2D0083767602B71AD020C
07351814D2D4083768602C71AC022C
07350D14D2D0083767602D71A8022B
07350214D2CB08376B602B71BB020D
07350414D2CB083771602B71B6020D
0734F914D2C208377A602C71B301ED
0734F014D2B2083780602D71B101ED
07350214D2B708378C602B71B901FD
07352214D2B7083798602971B901FA
07353F14D2BC08379D602C71B701DA
07355414D2C10837A4602C71BF01DD
07355B14D2BD0837A8602971BA01EF
07355214D2BC0837A7602C71B701EF
07353C14D2C60837A7602C71B701ED
07351F14D2C60837A4602B71BE01EC
07350914D2C60837A2602A71BC01EA
0734FC14D2C20837A3602871C001ED
0734F714D2C60837A2602A71C201ED
07350414D2C60837A6602A71BE01EC
07351E14D2C10837A9602A71C201E9
07352214D2C60837AE602871BF01FD
07351A14D2CB0837AF602A71C101FA
07350C14D2CD0837AD602971B701CD
0734FB14D2D00837A6602771C101CA
0734F714D2CB08379F602871C401EC
07350114D2CB083796602871C501F0
07350214D2D9083789602871C201FF
0734FE14D2D9083779602971BB01FD
0734F714D2DC08376F602871C501FA
0734EB14D2E3083763602871C401FC
0734CD14D2E808375B602971C9020A
07347614D2E8083755602971CA020E
07341214D2DE083750602771CC020C
0733B614D2E108374E602871CC0209
07337014D2DE08374E602871CB01FA
07334614D2E808374F602671CE01FD
07332C14D2E808374E602771D501FA
07331714D2E808374E602771D901FC
07330B14D2ED08374E602671DB01ED
0732FE14D2EB08374D602771E901EC
0732F314D2F208374D602571E501EA
0732ED14D2ED083750602571F501EA
0732E314D2F2083751602671F501ED
0732E214D2F20837526025720001EA
0732E314D2F60837506026720001ED
0732E614D30008374F6024720401EF
0732DC14D2FB08374C6025720B020D
0732D114D30008374860257216020E
0732C514D30A08374160247210020B
0732BB14D30A08373D60257213020A
0732BE14D30A0837396023721C01ED
0732CD14D30F0837336023721D01EC
0732D014D30F0837306025721B0209
0732BF14D30F0837306023721B020A
0732A714D30A0837346025721A020A
07329314D30008373860227223020E
07328E14D30508373F6023721C020D
07328C14D3050837496022721F022B
07328914D2F6083754602272200231
07328F14D2ED08375F60227225020F
0732A314D2ED08376A60217226020D
0732B514D2ED08377560227227020F
0732B414D2F108377E60217230020A
0732B514D2F60837856021723101EF
0732BB14D2F608378D6020723301EC
0732C114D2F6083793601F723501ED
0732C114D2F60837996021723901EC
0732C214D2F608379C601F7231021C
0732C514D2F60837A0601F7237021D
0732DE14D2F60837A36020723501FA
0732FA14D2FB0837A66020723601FC
07331A14D2FB0837A6601F723301FA
07334714D2F20837A56020722F01FF
07337314D2EB0837A56021722A01EC
0733A514D2E30837A3601F723001EC
0733E414D2DE0837A1601E722A01FA
07341514D2E30837A1601E722901FF
07342414D2E308379E601F721701F9
07343314D2D908379C601F721801F9
07345A14D2DC08379A601E721701FC
07345E14D2E308379D601F721101FC
07343A14D2E308379E601F720D01FD
07341814D2E808379D601D72130200
07340414D2E308379D601D7208020E
07340014D2E608379F601C7207020C
07340514D2ED08379F601A720001FD
07340114D2F208379F601B71F801FC
0733F814D2E808379E601A71F901FC
0733F814D2ED08379B601C720001FA
0733FF14D2ED08379A601B71FB01FA
0733FD14D2EB083799601B71F901FC
0733F514D2F208379B601A71FD01FD
0733EA14D2F208379C601B71FA020C
0733DE14D2F208379D601A71F6020F
0733DA14D2E30837A1601871FB01FD
0733E214D2E30837AA601A71FB01FC
0733E814D2DC0837B2601A71FC01EC
0733FA14D2CB0837C16017720001EC
07342F14D2B70837D16019720201ED
07348E14D2B70837E5601A71F601E9
0734E414D2B20837F8601971F901DD
07352214D2B808380E601671F801DA
07354914D2BC083823601971EC01BF
07356214D2C6083836601771F201BA
07357514D2CB083847601671E601AA
07357E14D2CB083854601671E401B0
07358A14D2D408385F601771E301BD
07359814D2D7083865601771E101BC
0735A714D2D9083867601771D901CC
0735B314D2D9083867601671DA01CC
0735B314D2DE083865601571D101CC
0735B314D2E3083864601471CC01CC
0735B714D2D9083864601371C601DA
0735BA14D2DC083865601471BB01DA
0735C414D2DE083869601571B901CC
0735CB14D2DE083872601371B401CC
0735CE14D2DE08387A601471BD01C9
0735D414D2E8083887601471AE01CC
0735DA14D2E6083893601271AD01BC
0735EC14D2E308389D601571B201BD
07360114D2E30838A6601371B401DD
07361C14D2DE0838AE601371B101D9
07363A14D2D90838B0601271B601DA
07365514D2DE0838AF601071B101DA
07366814D2DC0838AB601071A801E0
07367B14D2D90838A6601071AB01ED
07368414D2D908389B6010719701EF
07368014D2E3083891600F71850200
07367214D2E80838886011718D01FD
07365E14D2E80838806010717401DC
07364E14D2E6083877601071AA01DD
07364D14D2E3083870600E719F01EA
07364F14D2DE08386B6010718701EC
07364A14D2DE083867600F719501ED
07364A14D2DE083863600D717D01ED
07364C14D2E108385F600B717D01EA
07365014D2D9083860600F717101EA
07365414D2DE083861600D717A01FA
07365F14D2D9083868600D717601FD
07366414D2D9083871600C717901CC
07366A14D2DE08387C600D717C01CD
07367214D2DC08388A600C715601D9
07367D14D2DE083899600D716701DD
07368614D2E30838AC600C716E01C0
07369614D2D90838C1600B717601BF
0736B014D2D90838D2600A714101CC
0736CB14D2D40838E1600B716C01CA
0736EF14D2D20838EE600A715A01C0
07371814D2D00838FB600A714A01BA
07374814D2CB0839046009717801BD
07378214D2C108390E6008718001BA
0737C314D2B70839146009716301DD
07380E14D2B30839156008714801DD
07385E14D2A90839136009718101DD
0738AF14D2A40839146008718001DD
0738F414D29A0839106009714D01E9
07392414D29508390D6006715B01EC
07394B14D29508390B6006714701EC
07396E14D28F0839086007714901E0
07398414D2900839066006713401DF
07399E14D2900839026005713001DF
0739AE14D28B0838FF6005712301DD
0739BF14D2860838FF6004711501E0
0739DB14D2820838FF6004710701D9
0739F014D27F0838FC600570FE01EF
073A0414D2780838FA600370F301EC
073A1814D2730838F7600370EB01DD
073A3014D2780838F3600470DC01DD
073A3714D2730838F2600170CF020E
073A4214D27A0838F2600370C9020A
073A4B14D26E0838EE600270B901ED
073A5114D2730838EC600370B401EC
073A5714D2780838E9600170A601ED
073A5814D2780838E36002709E01ED
073A5914D2780838DB6001709901ED
073A5714D27A0838D76002708D01EC
073A5714D2780838D15FFF708701FA
073A5814D2780838CD6000707D01FD
073A5B14D2780838CA60017078020E
073A5714D2860838C85FFF706E020D
073A3C14D2850838CA60007067022C
073A2214D2780838D25FFE7066022F
073A2814D2780838D85FFD705C020E
073A2514D27D0838E260007051020D
073A2014D2690838ED5FFE7055020B
073A4614D25B0838FA5FFE704E020D
073A8B14D24C0839005FFE704801FF
073ACE14D2560839085FFE704C01FA
073AFB14D25108390F5FFD703F01EA
073B1314D24C0839125FFC703901EC
073B2314D2510839165FFC703C01EA
073B2E14D24C08391A5FFC703D01DD
073B3714D24C08391D5FFB703B01DD
073B3E14D24C0839245FFC702C01FA
073B4514D2470839265FFA70290200
073B4E14D24708392A5FF9702601FA
073B5314D24208392E5FFC702101FC
073B5814D2420839345FFA70160209
073B6014D24C0839375FFA7018020E
073B5F14D24C0839385FF87015021D
073B5A14D2470839375FF9700B021C
073B5814D24C0839335FF5700C01FD
073B5414D2510839305FF6700A01FD
073B5014D25108392B5FFB7005020E
073B4A14D2510839255FF96FFF020E
073B4B14D2510839225FF7700001ED
073B4914D25108391D5FF76FF601EC
073B4614D2510839195FF66FEC01EA
073B4B14D24C0839135FF66FEA01EC
073B4D14D25108390F5FF76FEE01FD
073B4E14D24C08390A5FF66FEE01F8
073B4F14D2510839055FF46FEB0210
073B4C14D2470839025FF56FEC020F
073B4E14D2470839005FF36FE7020B
073B5014D24C0839015FF36FE5020D
073B4D14D2560839015FF26FE1020E
073B4314D2510838FF5FF46FDC020A
073B3A14D2510839005FF16FD9020A
073B3A14D24C0838FC5FF46FDB0209
073B3F14D24C0838FA5FF46FD201FD
073B3F14D24C0838F65FF36FD70200
073B3D14D2510838F85FF36FD1022E
073B3C14D2560838F35FF26FD0022D
073B3714D2560838F35FF16FD5020D
073B3414D2470838F45FF16FD00211
073B3414D24C0838F75FF16FD1020C
073B3714D24C0838F85FF06FD0021B
073B3914D2470838FA5FF06FD4021E
073B3F14D23D0838FB5FF16FC8020A
073B4E14D2420838FE5FF06FCD020D
073B5214D2420839005FEF6FC9021B
073B5614D2420839045FEF6FCA021B
073B5714D23D08390D5FF06FCF020C
073B5B14D2340839175FEE6FC7020D
073B6714D22F0839225FEF6FCF020C
073B7314D22F0839315FED6FCD020B
073B7A14D23208393F5FEB6FD101EC
073B7D14D23908394B5FEB6FD001EA
073B7F14D2340839525FEC6FD001EA
073B7E14D2390839555FEB6FCC01EA
073B7E14D2470839555FEA6FC601EA
073B7614D2510839505FEB6FCB01EC
073B6714D2470839475FEA6FC901FA
073B6014D24C08393A5FEA6FC401FC
073B5D14D24C08392A5FE86FCC01ED
073B5D14D25B08391A5FE86FC801EA
073B5014D2560839095FE96FC701DF
073B4714D2560838FE5FE86FC301DC
073B4214D2510838F35FE86FC001FD
073B4114D24C0838EE5FEB6FC301FD
073B4314D24C0838ED5FE66FC4020C
073B3E14D2420838F05FE76FBC020E
073B3D14D23D0838F95FE76FB901FD
073B4814D2380839035FE56FBA01FD
073B5814D23408390C5FE66FB20209
073B6314D2340839165FE76FBB020E
073B6A14D23408391F5FE66FAF01EA
073B6F14D2340839245FE66FB801EA
073B7114D2340839265FE66FBA01D7
073B7414D2320839245FE56FBD01CC
073B7714D23908391F5FE66FBE01CD
073B7714D23908391A5FE46FBB01EA
073B7114D2420839115FE56FC001ED
073B6B14D23D08390A5FE36FBD01ED
073B6914D2380839095FE66FBD01EA
073B6A14D2390839075FE36FBB01DC
073B7114D2390839095FE26FC001DD
073B7214D23408390E5FE46FBF01DF
073B7714D2340839165FE46FB501DC
073B7614D23908391B5FE06FB601BA
073B7714D2380839235FE16FBD01B9
073B7514D2390839265FE16FBE01DA
073B7214D2390839275FE06FC601DA
073B7014D23D0839235FE16FC301CD
073B7014D23908391F5FDF6FC401CF
073B6A14D2390839195FE06FC201E9
073B6714D2380839105FE16FC201ED
073B6314D23408390A5FDE6FC5020B
073B6414D2390839045FE06FBE020B
073B6414D2390839035FE16FBF01F7
073B6114D2390839045FE06FC10200
073B6314D23D0839095FE16FC201D8
073B6114D2390839115FDF6FC301DC
073B5E14D23908391C5FDF6FC301B8
073B5D14D23D0839215FDD6FC301BC
073B5D14D23908392B5FDD6FC601CA
073B6114D2390839305FDD6FC401CD
073B6414D2380839345FDE6FC501CD
073B6814D2340839345FDC6FC501CC
073B7014D2390839335FDD6FC001CD
073B7314D23908392D5FDB6FC101D0
073B7614D2390839245FDB6FBD01FA
073B7614D23D08391D5FDB6FB901FC
073B7514D2390839155FDB6FBB01FD
073B7314D23D08390E5FDB6FB701FD
073B7014D23D0839095FD86FBD01FA
073B6914D23D08390B5FD66FB9020A
073B6A14D23D08390E5FD76FB70211
073B6D14D23D0839125FD86FBA01DD
073B6D14D2390839185FD86FBE01DA
073B6A14D23D08391E5FD86FB801CD
073B6D14D2390839205FD96FBD01CD
073B6C14D2390839205FD86FBD01C9
073B6C14D23808391F5FD76FB801C9
073B7214D23908391D5FD66FBD01DD
073B7314D2340839175FD76FB701D9
073B7314D2340839135FD36FB901E9
073B7314D2390839115FD56FB101EC
073B6E14D23908390C5FD36FB601EA
073B6E14D23808390E5FD56FB601ED
073B6E14D2390839105FD36FB201ED
073B6D14D2390839135FD16FB001ED
073B6B14D2390839175FD66FA901CC
073B6914D2390839195FD56FAE01CC
073B6914D23908391C5FD36FAA01DD
073B6614D23808391F5FD26FB201DA
073B6614D23408391F5FD36FAE01DC
073B6914D23408391D5FD06FB101DA
073B6C14D23908391C5FD16FAF01EC
073B6D14D23408391E5FD16FAD01EA
073B6E14D22308391F5FD16FAD020B
073B7114D2390839245FCF6FB0020A
073B7214D2390839295FD16FB401DC
073B6F14D2390839305FD26FB101DA
073B6E14D2390839355FD06FB301DC
073B6C14D2340839375FCE6FB501D9
073B6A14D2380839375FD16FB301DC
073B6A14D2390839315FCF6FB501DF
073B6B14D23908392D5FCE6FB201D8
073B6E14D23908391F5FCD6FB101FD
073B6E14D2340839165FCF6FAF01FC
073B6D14D23808390B5FCE6FBF01FC
073B6B14D23D0839015FCC6FB501FD
073B6214D2340838FE5FCE6FB401FC
073B6414D22F0838FA5FCD6FB201F9
073B6614D2340838FB5FCC6FB501CA
073B6914D2340839015FCB6FB201CA
073B6B14D2320839015FCA6FB301CC
073B6B14D2340839095FCC6FBB01CC
073B6914D2340839105FCA6FC001DD
073B6614D2390839185FC96FBE01DF
073B6614D23908391D5FCB6FBB01DA
073B6914D2340839205FCA6FC001DA
073B6714D2320839285FCA6FBC01DD
073B6914D23908392D5FC96FC001D9
073B6B14D2340839345FCA6FC401CA
073B6A14D22F0839385FC96FC101CC
073B6D14D22F08393D5FC96FC901ED
073B7014D2320839415FC96FC801EC
073B6E14D2340839445FC76FC601CD
073B6E14D2340839445FC56FC401C9
073B6914D2340839415FC96FCA01DD
073B6614D22F08393F5FC86FC901DA
073B6614D23408393C5FC56FCF01FA
073B6514D2320839375FC66FC401FA
073B6514D23408392E5FC56FCF020F
073B6614D2390839225FC56FC8020C
073B6514D23408391C5FC46FCB01FA
073B6614D2390839155FC36FCA01FA
073B6614D23D08390A5FC36FC801FD
073B6114D2390839055FC46FC40200
073B5A14D2390839005FC36FC601FF
073B5914D2390838FB5FC36FC6020B
073B5C14D2340838FA5FC46FC9020E
073B5E14D2390838FB5FC26FC601FC
073B6114D2380838FB5FC16FBD01FC
073B6314D2390838FB5FC26FBB01ED
073B6414D2390839005FC16FB401EF
073B6414D23D0839045FC26FB501CF
073B6414D23908390B5FC16FBD01CA
073B6514D23808390E5FBF6FC201DA
073B6614D2390839145FC16FBD01DA
073B6814D23408391D5FC06FBA01DA
073B6814D2390839235FBF6FBD01DC
073B6B14D22F0839295FC16FBC01CD
073B6F14D22F08392E5FBF6FBE01CD
073B7314D22D0839325FBC6FC001CD
073B7614D22A0839385FBD6FBF01CA
073B7814D22A0839395FBD6FBE01BC
073B7914D22F08393C5FBD6FC401BC
073B7914D22F08393E5FBE6FC201DD
073B7814D22A0839405FBD6FC601DD
073B7814D23208393E5FBE6FC801DA
073B7914D22F08393D5FBC6FC501DC
073B7714D22F0839395FBB6FC701D0
073B7914D22F0839345FBB6FC801CD
073B7914D22F08392B5FBA6FCA01ED
073B7814D22D0839275FBB6FD001ED
073B7614D22F08391D5FBA6FC801ED
073B7714D2340839155FBB6FC401F0
073B7414D22F08390E5FB96FC701FC
073B6E14D2390839085FBA6FC901FF
073B6A14D2340839075FB86FCF01ED
073B6814D2320839075FBB6FC701EA
073B6614D23908390B5FBA6FCB01DF
073B6614D2390839115FB96FCA01DC
073B6514D2390839185FB86FCB01D9
073B6314D2390839215FB96FCB01DA
073B6214D2380839255FB86FCB01D9
073B6014D23408392F5FB76FC901CD
073B6414D2340839315FB86FC501CD
073B6614D2340839325FB66FC501CD
073B6C14D22F0839305FB46FC601CC
073B6F14D23408392C5FB56FC601DA
073B7014D2380839275FB46FC601DF
073B6D14D2390839235FB66FC401EA
073B6414D23D0839205FB36FC201EA
073B5C14D23D08391C5FB66FC101FC
073B4C14D23D0839195FB36FC201FA
073B4314D23D0839185FB56FC201FD
073B3E14D23D0839185FB46FC201FD
073B3414D2390839195FB46FC401EA
073B2F14D23D08391B5FB36FBC01ED
073B2B14D23D08391D5FB56FC401DA
073B2B14D23D08391E5FB36FC001DD
073B2B14D23D0839215FB06FBD01FA
073B2D14D23D0839245FB46FC701FD
073B3114D23D0839255FB16FC501DD
073B3614D2390839265FB06FC401DC
073B3F14D23D0839255FB16FCB01EC
073B4514D2390839255FB06FC801ED
073B4714D23D0839255FAE6FC501EC
073B4514D23D0839255FB06FCF01ED
073B3714D2420839225FB06FC401ED
073B2D14D23D0839225FAF6FC601ED
073B2314D24208391E5FAE6FCD01F9
073B1C14D23D08391E5FAF6FC701FA
073B1614D24708391E5FAD6FCE01EC
073B0D14D2470839205FAE6FCB01E9
073B0814D24708391D5FAD6FD201E0
073B0014D24C0839205FAF6FD701DA
073AFB14D24C0839265FAC6FD801DC
073AF714D24C08392A5FAE6FD401DA
073AF414D24C0839305FAD6FD601DA
073AF314D2510839345FAD6FE001DA
073AF014D24C0839385FAA6FDD01DC
073AF514D24C08393A5FAB6FE001CD
073AF614D24C08393D5FAB6FDD01CD
073AF914D24708393B5FAD6FDE01DD
073AFA14D24C0839365FAB6FE201E0
073AFB14D24708392F5FAA6FE701FD
073AF414D24C0839265FAC6FDC01FD
073AE914D25108391D5FAC6FE501FA
073AD214D2510839145FAB6FED0200
073AC014D25608390D5FAA6FEE01ED
073AB114D25B0839095FAA6FF001ED
073AA414D2600839085FA76FEE01ED
073A9314D26008390A5FA96FF201EC
073A8014D26008390F5FA76FF101DC
073A7914D2610839145FA76FF001DF
073A7214D26408391C5FA96FEA01EC
073A6714D2640839235FA86FEE01EA
073A6414D2600839295FA86FEB01DD
073A6B14D26008392B5FA76FF701E0
073A7014D26108392C5FA66FF901DC
073A7614D26008392D5FA56FFD01DD
073A7414D2640839295FA66FFE01E9
073A6A14D2690839255FA7700501EA
073A5614D26E08391D5FA6700301ED
073A4814D26E0839195FA6700501F0
073A3114D2750839155FA4701101ED
073A0E14D2730839155FA5701101EC
0739F114D2730839155FA5701101EC
0739DE14D2780839175FA3701801EF
0739CC14D27808391C5FA3701301EA
0739C314D2730839245FA4701A01ED
0739C214D2750839295FA2701D01EC
0739CA14D2730839315FA3701F01DD
0739D914D26E0839365FA2702301DF
0739E414D26E08393B5FA2702E01DA
0739F014D27308393D5FA3703101DD
0739FD14D27508393D5FA1703501CF
073A0014D27808393C5FA1703101CD
0739F514D27308393A5FA3703701DC
0739E714D2780839395FA0703701DD
0739D214D2780839375FA2703E01DA
0739BF14D2780839325FA2703B01DA
0739B614D27A0839305F9E703B01F0
0739AF14D27D08392C5F9F704001EA
0739A914D2820839265FA0704401ED
07399A14D28B0839235F9F704401EA
07398414D28608391F5F9E704801FA
07396C14D28A08391C5F9E704601FA
07395B14D28B0839185F9D704D01EF
07394814D2860839165F9E705101EC
07393714D28B0839155F9C705001FF
07392A14D2900839135F9D705601FA
07391614D29A0839115F9C705E01DA
07390814D2990839145F9D706101DD
0738F814D29A0839125F9D706C01DF
0738ED14D29A0839155F9B706C01D7
0738E314D29A0839185F9B707301C9
0738D914D29F0839145F9C707001CF
0738C814D2A408391A5F9C707A01DD
0738B014D2A30839135F9B707E01DD
07389E14D2AD0839095F99707D01CD
07387F14D2AD0838F55F9C707F01CD
07385B14D2B20838E05F9B70890200
07383514D2B70838C55F98708B01FC
07381E14D2B80838A65F9B708E01FA
07381914D2C108387F5F99709301EA
07381114D2C10838515F97709701ED
0737EE14D2C60838215F99709701ED
07378D14D2CB0837E45F99709801EA
07372514D2D00837A65F98709C01DF
0736BD14D2C70837625F9770A201DC
07366E14D2AD0837175F9770A901DA
07362B14D2A90836CF5F9770B001D8
07360214D29F0836855F9570B601CD
0735E114D29F08363A5F9670C301CD
0735BA14D2900835F05F9770CC01EA
07356E14D28F0835A85F9570DC01EC
0734F314D29008355D5F9670E701ED
07347614D29F0835155F9470F701E9
0733F614D29A0834CA5F95710501EA
0733AC14D2B708347C5F97710C01ED
07332F14D2CD08342B5F95712201EA
0732A214D2D40833D75F95713A01EC
07325E14D2D00833805F92714001DA
07324C14D2D90833295F94716C01DD
07323D14D2F20832CD5F93714501DC
07320814D2ED0832715F92717A01DA
0731E414D3000832135F94717A01DA
0731BF14D30F0831B65F93718601DF
07319314D3050831585F9271A801DA
07317614D3190830FC5F9271BF01DD
07315614D23908309F5F9271CF01D9
07313614D3360830405F9271D901DD
07311514D371082FE15F9171E501DC
0730E114D38D082F815F8F71F601DA
0730A414D38D082F255F90720701EC
07307514D3EA082EC65F8E721401EA
07302D14D402082E685F90722301E0
072FDF14D42A082E0B5F8F722901DD
072F8314D438082DB05F8E723501D8
072F1F14D438082D585F8E724501CC
072EC214D45F082CFF5F8E725901C9
072E5214D40C082CA75F90726301CA
072DD514D366082C4D5F8D727401C9
072D2814D390082BF85F8E727E01BA
072C9414D3B9082BA05F8C729301BF
072C3114D3D6082B4B5F8C72A301AA
072B7A14D3BE082AF75F8E72BA01AC
072AF214D3F9082AA15F8A72CD01BD
072A4714D416082A495F8D72EB01BC
07299314D48C0829F45F8C7309019D
07288C14D53508299D5F8B7332019A
07272E14D5EA0829475F8A735F01B0
0725F714D65A0828F25F89738601AA
0724D014D60C08289E5F8C73BD018B
07246014D6150828495F8A73EB018D
07245214D66A0827F65F89741E019C
07240F14D6940827A85F8B744E019A
0723B214D6B60827565F88748B0199
07236B14D6E70827015F8874B4019A
07231D14D6DD0826B05F8A7507018A
0722F214D70E0826605F877541018A
0722C714D74808260B5F87757A018D
07227514D7610825B55F8975B4018C
07221F14D74408255E5F8875EB018B
0721EF14D7440825045F87761D018D
0721BF14D7AA0824A65F877651019D
07216014D7D108244F5F8876840198
0720F914D8CF0823F45F8776AB017B
07200614D9080823975F8676DF017C
071F1F14D8D408233C5F877708017C
071EB714D8F10822E45F85772F017C
071E7A14D91D08228E5F8677530177
071E4B14D97008223B5F8577750190
071DDB14DA020821E85F84779B018D
071D1114D9EF0821965F8677C2018B
071C6F14DA690821445F8477DE018C
071BD614DB050820F25F8577F1018B
071AF014DBA60820A05F837825018D
0719DD14DC3908204D5F84784B017C
0718BC14DDA7081FF65F8378810178
0716E914DDB6081FA15F8078A0017C
07157E14DF51081F495F8378D5017D
07139114E108081EF15F8378FD017C
0710E914E13A081E995F837934017C
070EE914E26F081E405F83795B017A
070D2514E310081DE55F827995017C
070B9714E3A3081D8A5F8379C3018F
070A3D14E431081D305F8079EF018D
07090914E3FB081CD55F837A33017C
07088214E3E8081C7D5F817A62017A
07085114E40F081C2A5F827A93017D
07081714E3FB081BD35F817AD20179
0707F614E40A081B7F5F807B02017C
0707D414E40A081B2E5F817B2F017D
0707A514E400081ADD5F7F7B5F019C
07077B14E3A3081A8D5F807B8E019D
07074814E2CC081A395F7F7BBF018A
07071A14E28C0819E75F7E7BE6018D
0706E214E2740819955F7F7C0A019A
0706A614E2390819445F807C2B019D
07067814E0CE0818F05F7F7C4D018C
07064C14E1B00818995F7F7C71018F
07063214DEF40818455F7F7C90019C
0705E014DE530817EF5F7D7CAE019D
07055214DE0E0817945F7E7CDA019A
0704C114DC8208173E5F7B7CF6019C
07040314DAD40816E35F7D7D23019C
07035714D7950816865F7D7D4B01BA
07035C14D5AA08162D5F7E7D6C01BA
0703ED14D06A0815D15F7B7D9501CD
07051914CFDD0815775F7D7DB401CC
07064614D1D208151D5F7A7DDA01CA
07068714D1DC0814C25F7B7E0701CA
07066914D0210814695F7A7E3201DC
0706CA14CD6508140E5F7A7E5A01DD
07078F14CBEA0813B55F7A7E7501ED
07089814C8D308135A5F7B7E8F01EC
07096C14C8290813015F7B7E9F01FC
0709DB14C75E0812A45F7B7EB001FA
070A1714C5C20812495F797EC10209
070A4314C56B0811EE5F7A7ECE020B
070A7314C4F70811955F797ED6022B
070A9614C22B0811405F787EDB0231
070A7E14C1CE0810EA5F797ED6022D
070A6C14C08A0810945F797EDA022C
070A4C14BE550810405F797ED6025C
0709D114BBCB080FEC5F787EDB025E
07092A14BAF0080F975F797EE0026F
0708AC14BB20080F405F777EE00267
07086E14B686080EEC5F787EDE027D
0707DE14B0A5080E935F797EDD027C
0706ED14B04F080E3B5F777EDC02BF
07066514AB52080DE15F787ED602BA
07062314A510080D845F787ED9032A
07059C14A206080D285F777ED6032C
0704D314A5F8080CD05F767ED803A6
07048314A27D080C7F5F777ECD03A8
07040D14A112080C325F757EC50407
070365149E53080BEE5F747EC5040A
0702A8149D10080BAC5F767EA80408
0701D0149C51080B6C5F767EA104C8
070155149B41080B315F747E8304C4
0700C2149994080AF85F747E6F04B9
06FFF21497FE080ABD5F757E5704B9
06FE9014972E080A845F737E400519
06FC9714964E080A4C5F747E2C0518
06FA7614948A080A0E5F757E23057B
06F87F1491670809CF5F747E14057A
06F62714904508098E5F727E09053B
06F4B714916708094E5F727DFC0539
06F49214911C08090F5F737DEB04A9
06F529147DDD0808D25F737DDB04A7
06F27614789C0808915F737DD90493
06EEC1147A1C0808525F737DF7049C
06EC5F146CE60808135F717E1304CA
06E8AE1457F10807D35F727E2E04C7
06E067144FC80807945F717E65055A
06D6CF14517B0807505F737EA00558
06D0D8144D9E08070C5F737EE20596
06CCF9142D750806CA5F717F120599
06C3EA1417DF0806875F717F62065A
06BC9C13FD4C0806435F707FA9065B
06B7E113D48F0805FF5F73801D0795
06B39F13A28B0805BC5F70807C0794
06AE3F1367E608057C5F7180F306EA
06A8C9133D1608053B5F6F817906EA
06A54B131E210804FD5F7081ED0594
06A3B9131D000804C45F6E82510598
06A30713144C08048C5F6F82AE04AB
06A2C812FC610804575F7182EF04A8
06A2D312FF500804225F6E83270417
06A2F112EED40803EF5F70834E0418
06A2CE12D2020803BA5F6F83530416
06A2881287060803895F6F836304C8
06A10812787B08035F5F71836104C9
069EC512499D08034C5F6E8365069B
069C5911C30D0803475F6F8364069B
0698091150890803455F7183650866
069222110E280803405F6E836E0867
068C7310DA3608033B5F6F83750804
06881410C8ED08033A5F6E83760806
06850610C8050803355F6E837B0915
06839210C7450803375F6E83790915
0682FF10C0340803365F6F836D07D2
06828F10B9510803365F6E837107D6
06822810B5FE0803375F6D83740792
06819D10B66D0803385F70837C0795
06814D10B5CA0803395F6B838606AA
06812E10B2720803395F6D838F06AA
06810010B08608033A5F6C8393070A
0680BA10B01D08033F5F6C83A3070B
06808D10AF7908033F5F6B83AE06EB
06807210AF980803405F6E83BB06E9
06806F10AE790803415F6D83A7076A
06805C10AF2A0803405F6D83C80768
06804710AF390803415F6C83E806FA
06803410AF9E0803405F6E83E406FA
06803610B03F08033B5F6D83DF0699
06805810AE8F08032D5F6A83EA0694
06806110AD7708031D5F6D83ED05D9
06804810AD1308030D5F6C83F305DC
06801E10AB150803025F6A83FB0646
067FCC10A9FD0802F65F6C84050648
067F4510A8E10802E85F6D840905BA
067EBB10A7E80802D85F6A841A058A
067E4C10A7480802C55F6B84200588
067DFA10A7370802BE5F6B84250537
067DB210A5260802BD5F6A84240539
067D3510A4F80802B95F6B842E052C
067C9610A4CC0802B35F6A842F052A
067C4910A4D30802A55F6A84310527
067C2610A4F40802945F6B8437052D
067BF610A4BC0802895F6B84370517
067BC410A46D08027F5F69843A0518
067B8410A47A0802725F69843804D9
067B3B10A47508025F5F6B843604DC
067B0010A4590802435F6A8435046B
067AC610A4580802375F6A842F0466
067A8C10A44A0802335F6A84320427
067A5610A42E0802255F6A842F0427
067A4510A3D30802115F6784240409
067A4410A3810802045F66841F0406
067AA110A3890802025F6A840D063A
067B4F10A32A0802015F6A83E9063F
067BF410A3320801F65F6883C403F7
067CAB10A3D50801F35F6A838203F8
067D3E10A4550801F35F67833C19CE
067DC210A4610801F25F6882FA19CF
067E3010A4190801F25F6882B0FD75
067E93109E960801F45F688274FD67
067EEB0C04320801F45F66822A0DCE
067F540BAE110801F55F6C81B10DD0
067F8B0BC2C60801F25F69811C053D
067F9E0BC42D0801F55F6880770537
067FAD0BAE540801F45F667FD8FD74
067FC60B87B50801F35F687EF1FD72
067FF70B6DE20801F45F687E27FD74
0680400B5FF20801F55F657D5CFD71
0680880B54920801F55F667CA3FD75
0680D40B49830801F45F677BF1FD69
06811B0B47060801F45F677B51FD6B
0681620B5B040801F45F667AB804C7
0681A70B6D2C0801F45F677A3504C9
0681E90B7B010801F65F6879C10281
06822B0B77770801F45F687956027C
06826C0B68520801F35F6878FA035D
0682B10B5BD50801F45F6878A4035B
0682FB0B4B390801F55F677857016E
0683420B39080801F45F6978290170
0683910B2D000801F65F6877FEFD62
0683DD0B22400801F65F6877CDFD67
06842A0B178A0801F65F6777ADFD71
0684780B0BD20801F45F677795FD68
0684C70B02FD0801F55F6A778402FF
0685180AFA310801F45F67777802FB
06856C0AF1AC0801F45F6877710085
0685C10AEA180801F75F6777720089
0686140AE3190801F65F687777010A
06866B0AE53A0801F45F67777D010D
0686C10AF91F0801F65F66778B031C
0687160B00690801F55F687794031C
06876D0B04FD0801F45F6977A3011F
0687C40B02090801F55F6677B70118
0688190AF9050801F55F6977CC0477
06886D0AEF9F0801F55F6877DD0478
0688C10AE6AE0801F35F6977F300DE
0689160ADF1C0801F55F68782B00DC
0689690AE1110801F55F667862FD73
0689C00AEEC20801F55F69783DFD6C
068A140AF77E0801F45F6A7870A727
068A630AF8270801F55F67788A0388
068AB60AFBE30801F55F6978B60385
068B010AF7070801F45F6978C80083
068B500AF0C00801F45F6B78F00088
068B970AEACA0801F55F687913035B
068BDE0AE47B0801F75F67792A035E
068C270ADB9F0801F55F697951006B
068C700AD7620801F45F687973006C
068CBC0AD30C0801F35F6A79990100
068D040ACCEB0801F45F6879BD00FD
068D4A0AC7F80801F55F6879E200FC
068D930AC57D0801F55F677A060101
068DD70AD52F0801F55F6A7A2800FB
068E1A0AE8280801F55F6A7A5000FD
068E5D0AEA430801F65F6C7A6C00FD
068EA30AEE3D0801F65F6B7A9C00FD
068EE90AEF000801F55F6A7ABC01EA
068F2A0AE6B10801F55F6C7ADB01EA
068F670ADED30801F75F6C7B00FD67
068FA70AD8F60801F75F6B7B28FD6E
068FEA0AD3700801F65F6C7B4700FB
0690240ACE210801F55F6D7B7000FE
0690620AC9510801F55F6C7B8F0101
0690A50AC4FE0801F45F6B7BB100FC
0690E80AC1310801F65F6B7BDF00FE
06912A0ABDC60801F65F6A7BF800FC
06916D0ABA980801F65F6E7C1E00FE
0691B00AB7C60801F85F6D7C4200FE
0691EF0AB93D0801F75F6D7C6100FC
0692320AC67A0801F65F6C7C840100
0692710AD1600801F75F6C7CA800FE
0692AF0AD1E50801F45F6F7CCF00FE
0692EE0AD17F0801F65F6E7CEE00FE
06932C0AD2520801F55F6E7D0C00FE
0693690AD1100801F65F6D7D2D00FE
0693A00ACC1C0801F65F6C7D51010C
0693D80AC7090801F75F6E7D71010F
06940C0AC2260801F85F707D8E00FE
0694410ABB4D0801F75F6F7DB400FA
0694740AB7F40801F75F6F7DD50102
0694A70AB4CF0801F45F707DF500FE
0694DA0AB1430801F85F6E7E1600FE
06950D0AAE560801F65F707E2E00FE
0695420AAB750801F75F707E4D0102
0695760AA8F30801F75F717E6E00FE
0695AA0AA6C10801F75F707E9000FB
0695DB0AA4850801F75F6F7EA90100
0696100AA2DE0801F55F727EC700FD
0696430AA1000801F75F727EE80101
0696760A9ED80801F55F787EFF00FD
0696A80A9D360801F65F737F180100
0696DA0A9ED30801F85F757F3600FA
06970B0AA8E70801F65F747F4D00FC
06973B0ABD6E0801F65F737F6D00FE
0697650ABCD50801F75F747F8B0103
06978F0AC4BF0801F75F737FAA0100
0697B80AC75A0801F55F777FA600FC
0697E30AC2BD0801F55F757FE600FE
06980F0ABD8A0801F85F797FE40100
06983C0AB8AA0801F85F757FF500FB
0698670AB4530801F75F74800900FE
0698910AB0640801F75F75802000FD
0698B60AACD90801FA5F77803100FE
0698DE0AA9FE0801F75F7780460100
06990C0AA7140801F65F77805B00FE
0699370AA40E0801F75F78806700FC
06995F0AA11D0801F75F78807700FC
0699890A9E6D0801F95F77808700FE
0699B00A9CB70801F85F7780940101
0699D90A9B860801F75F77809E00FE
069A020A9A2F0801F85F7980A70101
069A280A98D70801FA5F7A80B600FE
069A4D0A979E0801F85F7980C000FE
069A760A99E50801F85F7A80CA0101
069A9B0AA85C0801FA5F7A80D50100
069AC10AAD6B0801F75F7B80E000FE
069AE70AAD6E0801F85F7B80ED0110
069B0B0AB4720801F85F7B80EE010C
069B2C0AB5920801F95F7C80F800FD
069B500AB1C90801F95F7B810100FE
069B730AADAE0801F95F7C810800FD
069B970AAA040801FA5F7A811200FD
069BB80AA6600801F85F7D811100FE
069BD80AA36F0801FA5F80811B00FD
069BF60AA1220801F95F80811900FD
069C140A9F2B0801F75F7F81270102
069C310A9D540801F85F7E812B00FC
069C4F0A9B850801F85F7F812D00FC
069C700A99CA0801F85F80812F00FA
069C910A98550801FA5F7F813300FE
069CAC0A97D00801FA5F80813900FD
069CCE0AA1620801F95F80813600FE
069CEE0AAE610801FA5F7F813E00FD
069D110AAC4A0801F95F7F813D00FD
069D340AB2800801F95F81814300FE
069D570AB6D30801F85F81814600FD
069D7C0AB33A0801F95F82814300FD
069DA30AAED50801F85F8081510103
069DC60AAAA00801F95F83814F00FE
069DE60AA6BE0801FA5F83815300FD
069E010AA3BD0801F95F82815300FE
069E200AA1430801FA5F81815100FD
069E3A0A9EB00801FA5F84815100FE
069E590A9C760801F85F85815A00FE
069E7A0A9A6F0801FA5F84815600FB
069E990A99850801F85F85815000FE
069EB90AA3E90801FA5F85815700FC
069ED60AADF80801F95F85815A00FC
069EF40AAC3E0801FA5F86815A00FD
069F110AB2A80801FB5F85815B00FE
069F310AB5A00801FC5F88815E0100
069F4F0AB23E0801F95F88816100FE
069F6F0AAE7D0801FA5F8881590100
069F8C0AAAB50801FA5F86815E00FC
069FA90AA6E70801FA5F87816700FB
069FC80AA3960801FB5F87816200FE
069FE30AA0CA0801F95F87816500FE
06A0030A9E6E0801FA5F87816100FE
06A01D0A9CBD0801FC5F89816400FE
06A03A0AA4720801FA5F88816D00FC
06A0550AB0580801FA5F8A816900FE
06A0740AAD910801F85F88816900FE
06A08F0AB38C0801FC5F89816D0100
06A0B00AB7B50801FA5F8A816D00FE
06A0CE0AB4390801FC5F8C816C0100
06A0F10AAFF70801FC5F8C816A00FD
06A1100AABE60801FB5F8B816E00F9
06A1320AA84A0801F95F8A816C0101
06A1510AA4F80801FC5F8D816900FE
06A1710AA20E0801FC5F8B816D0100
06A18D0A9F6B0801FD5F8D817000FC
06A1AD0A9CBF0801FA5F8E816E0100
06A1CF0A9A990801FA5F8E81720103
06A1EE0A98DA0801FB5F8D817100FE
06A20E0A97610801FD5F8F81750100
06A22E0A95FF0801FA5F8E817500FD
06A24D0A94C10801FC5F90817500FB
06A26B0A9A810801FD5F91817D00FC
06A2900AAA0E0801FB5F8F81750102
06A2B10AA9090801FB5F91817D00FE
06A2D60AAC9A0801FB5F90817200FD
06A2F70AB49E0801FC5F91817400FE
06A3190AB1AB0801FB5FA1817B00FE
06A3390AADBA0801FC5F91817C00FD
06A3550AAA060801FB5F9381780110
06A3740AA64B0801FC5F9281790110
06A3910AA2E70801FD5F9481780100
06A3AD0A9FD10801FC5F93817C00FE
06A3CA0A9D270801FC5F94817F00FB
06A3E80A9AED0801FB5F93817C00FD
06A4070A98E50801FB5F94817D00FE
06A4250A97280801FB5F95817B00FE
06A4450A95880801FC5F97818100FC
06A4630A93F00801FD5F96817D00FE
06A4820A92910801FE5F9681800103
06A49F0A91630801FD5F94817800FE
06A4C20A906F0801FD5F97818100FE
06A4DC0A913B0801FD5F9681810100
06A4FC0A9E680801FC5F95817F00FC
06A5180AA97A0801FD5F97818300FE
06A5360AA57E0801FC5F9981800101
06A5530AAD930801FC5F97818100FE
06A5710AB2DE0801FD5F98818300FE
06A5910AAEE00801FB5F99817F00FE
06A5AC0AAAF40801FE5F99818000FC
06A5CC0AA7550801FD5F98818100FE
06A5E30AA3E30801FD5F9A8180023B
06A5FE0AA0E00801FC5F9B8183023D
06A6140A9E200801FB5F9B818901AD
06A62D0A9B9A0801FB5F9A818601AD
06A6460A99940801FD5F9D818801A9
06A6610A97D60801FD5F9C8181008F
06A67C0A96510801FA5F9A8183008F
06A6960A94E00801FD5F9C8185017F
06A6B10A93780801FA5F9E818A017D
06A6CB0A92170801FD5F9D818A00FE
06A6E40A90CA0801FD5F9D818800FD
06A7010A905A0801FC5F9E818B00FE
06A71C0A9B570801FE5F9F818900FE
06A7360AA99A0801FD5F9F8187012D
06A7510AA50D0801FE5F9E8187012E
06A76B0AAA310801FF5F9E818D01CC
06A7830AB1C90801FD5F9E818901CC
06A79F0AAE9A0801FE5F9F818D010F
06A7B80AAA720801FD5FA0818B010F
06A7D10AA6CF0801FB5F9F818B00FE
06A7EB0AA3960801FD5FA081890100
06A7FD0AA0820801FE5FA081890102
06A8140A9DB40801FD5FA1818500FD
06A8290A9B670801FE5FA0818900FE
06A83F0A99BD0801FB5FA0818B00FE
06A8580A97D00801FE5FA2818BFD71
06A8700A95EA0801FD5FA5818CFD6F
06A8890A94C70801FC5FA3818E00B0
06A8A20A93DF0801FE5FA2818900AD
06A8BC0A929C0801FD5FA9818C0100
06A8D30A91560801FB5FA5819100FE
06A8EC0A90B70801FD5FA5818B0101
06A9040A90EC0801FD5FA3819300FE
06A91C0A9FF40801FE5FA4818E00FC
06A9340AA8100801FC5FA4818B00FD
06A94E0AA3AB0801FD5FA3818F00AD
06A9640AABC30801FF5FA5819000B0
06A9790AAECC0801FE5FA5818B00C5
06A9900AAAD90801FF5FA6818E012E
06A9A90AA6EC0801FF5FA5818C012B
06A9BE0AA3750801FE5FA6819300FA
06A9D30AA09A0801FE5FA8819300FC
06A9E80A9E0B0801FF5FAC818F00FE
06A9FE0A9B770801FF5FA7818F0104
06AA110A99850801FD5FA8818E00FB
06AA2A0A9B650801FE5FA8819100FC
06AA410AABFC0801FF5FA881940101
06AA590AABC10801FF5FA9819000FC
06AA720AAD500801FD5FAA819800FC
06AA880AB5440801FD5FAA818900FD
06AA9F0AB1CF0801FC5FA9819600FE
06AAB80AACFF0801FE5FAB818D00FD
06AACD0AA8F90801FE5FA8818F00FD
06AAE50AA5D20801FD5FAA818E00FA
06AAFF0AA27A0801FC5FAC819200FE
06AB190A9F6E0801FD5FAA81940101
06AB330A9CFA0802005FAA818F00FD
06AB4F0A9AA80801FC5FAB818D00FC
06AB6B0A98900801FE5FAB819200FE
06AB860A96EC0801FE5FAB819300FD
06AB9F0A954D0801FC5FAC819200FB
06ABBA0A93900801FF5FAB81930100
06ABD50A924E0801FE5FAE819100FD
06ABED0A91240801FC5FAF818F0100
06AC080A8FFB0801FD5FAD81920110
06AC220A8F0D0801FE5FAE8191010F
06AC3A0A930A0801FD5FAE818D00FB
06AC520AA65B0801FF5FAE819200FE
06AC6B0AA4540802005FB1819300FE
06AC860AA5550801FD5FB0819700FD
06AC9C0AAE1B0802005FB2819700FE
06ACB10AAB570802005FB0819400FE
06ACC80AA7C70801FC5FB0819200FD
06ACDC0AA45A0801FE5FB1819300FA
06ACEF0AA0F00801FD5FB1819100FE
06AD050A9E870801FF5FB181950100
06AD1A0A9BE70801FF5FB281930101
06AD320A99C70801FE5FB3819500FC
06AD4C0A979D0801FE5FB3819400FE
06AD640A96940801FD5FB3819700FC
06AD800A94A30801FF5FB4819100FD
06AD9B0A93680801FF5FB4819400FE
06ADB40A95D90802005FB181910100
06ADCD0AA9BB0802005FB581910112
06ADE90AA93F0802015FB48192010E
06AE050AAC9D0802005FB681950101
06AE1D0AB4900801FF5FB681930103
06AE330AAF680801FF5FB5819500FE
06AE4E0AAAA80801FE5FB7819600FE
06AE660AAE490801FF5FB7819800FE
06AE810AB86E0801FF5FB881980100
06AE9C0AB3940802005FB7819A0102
06AEB80ABCAE0801FD5FB7819900FE
06AED60AB8480801FE5FB781940101
06AEF40AB0EE0801FF5FB7819300FE
06AF120AACA90801FE5FB881930102
06AF340AA7F60802015FB7819600FD
06AF560AA3930802005FB881970100
06AF7A0A9FD10801FE5FB881970100
06AF9E0A9D350802005FB9819200FE
06AFC10A9A8D0802005FB8819500FA
06AFDF0A988C0801FF5FB9819300FE
06B0000A96990802005FBB819800FC
06B01C0A94820802005FBC819100FE
06B0390A928E0802005FBB819700FE
06B0550A910F0801FD5FBA819800FC
06B0700A90600801FE5FBA819800FE
06B08B0A90160802005FB9819800FB
06B0A50A8FAD0802005FB8819400FD
06B0BF0A8EC90802005FBC819400FE
06B0D90A8D640801FF5FBC819500FC
06B0EF0A8BC10802015FBC819400FB
06B1040A8AA80802015FBC819C00FE
06B1170A8A1E0801FF5FBD819C00FB
06B12A0A89AC0802005FBF81940100
06B13B0A8BC90801FF5FC081990100
06B14B0AA4D20801FF5FBE819400FD
06B1600AA4F40802015FBF819900FE
06B16E0AA6480802005FBD819C00FC
06B17F0AB0810802005FBF81950100
06B18F0AAC3B0802005FC0819A00FE
06B19F0AA7550802015FBE819700FD
06B1B00AA35D0801FF5FC0819800FE
06B1C10A9FC50802015FC9819B00FE
06B1DF0A9C9A0802005FC181970101
06B1F40A9A5D0802005FC1819900FE
06B20B0A98BD0802005FC1819B00FE
06B2280A974B0802015FC1819800FE
06B23F0A95B80802015FC081990100
06B25B0A94170801FF5FC1819A00FD
06B2740A92E00801FD5FC081990101
06B28E0A919B0802005FC1819D0101
06B2A60A8FEF0802005FC5819B0102
06B2BF0A8E910802015FC4819C0100
06B2D70A8DA10802005FC5819A00F6
06B2EE0A8CD80802005FC1819800FE
06B3040A8C4A0802005FC4819E0100
06B31C0A8BDC0802005FC4819A00FE
06B3320A8B550801FF5FC3819300FE
06B3480A8A780802005FC4819B00FE
06B35E0A89830802025FC4819B00FA
06B3730A88CB0802015FC381980101
06B3870A880A0802015FC8819E0100
06B39B0A877D0802015FC5819D00FE
06B3B00A8EA60801FF5FC4819C00FE
06B3C40AA2FF0801FE5FC5819A00FE
06B3D70A9E560802015FC881970102
06B3EA0A9FD10802005FC7819700FD
06B3FE0AA96D0801FF5FC581980100
06B4100AA69C0801FE5FC9819900FD
06B4240AA1CB0802015FC8819400FE
06B4350A9DED0802005FC6819A00FE
06B4490A9AE70801FE5FC8819A00FE
06B45F0A98330802025FC9819A00FC
06B4780A969F0802015FC8819A00FE
06B4940A95580801FF5FC9819400FD
06B4B00A93F00802005FC7819B0102
06B4CD0A92990802025FCA819C00FD
06B4EB0A91590802035FC8819C00FD
06B5090A90360802005FC9819C00FE
06B5230A8F280802015FC9819C00FD
06B53E0A8E2B0802015FCA819A00FD
06B55C0A8D5C0802005FCB819D00FE
06B5740A8C8E0801FF5FCA819D00FD
06B58C0A8BEB0802015FCB819A0100
06B5A30A8D820802035FCA819800FE
06B5B90A9F9E0801FF5FCC819F00FE
06B5D10AA1F10802025FCC819F00FC
06B5E90A9F8C0802015FCD819F00FE
06B6020AA9060802015FCC819E00FD
06B61A0AA78B0802025FCC819C00F9
06B62E0AA2710802005FCE819D00FC
06B6460A9E450802015FCD819C0100
06B65D0A9B260802025FCE81A200FC
06B6760A98ED0802025FCD819F00FE
06B6940A97490802005FCF819B0100
06B6B20A95D00802015FCE81A200FE
06B6D20A94540802015FCF819D00FE
06B6F10A92FE0802015FD081A000FE
06B7140A92050801FF5FD181A400FB
06B7330A91390802025FCD819C00FC
06B7540A90780802025FCE819F00FB
06B7720A8F8F0802015FCF819E00FA
06B7900A8E930802005FD081990100
06B7AD0A8D940802015FD1819D00FE
06B7C90A8CA60802025FCF819E00FC
06B7E40A8C0B0802025FD0819C0102
06B7FF0A8B9B0802015FD0819C0101
06B8160A8AF80802015FD0819A00FE
06B8390A8A550802015FD2819A00FB
06B84E0A8A0E0802005FD1819800FD
06B8670A99620802045FD3819B00FE
06B8800AA4D60802005FD1819D0101
06B8980A9FFC0802005FD281A00101
06B8B20AAB550802025FD4819D00FA
06B8C70AABC80802025FD5819C00FE
06B8DF0AA6050802025FD5819800FE
06B8F70AA0EA0802025FD4819A00FE
06B90F0A9D150802015FD4819C00FD
06B9290A99CA0802015FD6819E00FE
06B9470A97340802005FD681A100FE
06B9670A951D0802005FD5819A00FE
06B9900A93190802015FD5819F00FE
06B9B70A91700802015FD4819D00FC
06B9D90A90200802025FD7819F0101
06B9FD0A8F130802015FD7819B00FE
06BA1C0A8E1D0802015FD7819900FE
06BA3C0A8D580802015FD681A20101
06BA5A0A8CBE0802025FD781A100FD
06BA780A8C170802005FD5819E00FD
06BA960A8D2F0802025FD8819C00FD
06BAB20AA1750802025FD781A000FC
06BACD0AA3140802025FD581A300FE
06BAE60AA2DD0802015FDA81A500F9
06BB000AAD960802015FD781990100
06BB180AA9F30802015FD881A000FC
06BB300AA4110802005FD981A200FE
06BB4A0A9F5C0802005FDA819F010E
06BB630A9BA20802025FD681A1010E
06BB7F0A98830802035FDA819F013D
06BB9E0A95EB0802025FD881A3013F
06BBC30A93BA0802015FD8819F00FE
06BBE60A91660802045FD881A200FE
06BC0A0A92420802015FDA819F00FE
06BC2C0A92E90802025FD981A000FE
06BC4B0A92FB0801FF5FDB81A500FD
06BC6C0A9B720802015FDC819F00FC
06BC8C0AB9E90802015FDB81A20085
06BCA80ABD530802015FDC81A50084
06BCC50ACB4A0802015FDB81A200FE
06BCE10AC2CE0802025FDB819B0100
06BCFC0ABB440802015FDC819E011C
06BD170AB5D90802015FDC819E011D
06BD3A0AAFFA0802015FDC819F0100
06BD630AAA830802025FDD819F00FD
06BD8E0AA6200802025FDB81A2019D
06BDB60AA1D10802005FDE819E019C
06BDE00A9D750802015FDC819C010E
06BE030A9A020802025FDD81A00110
06BE250A96EC0802015FDF819B00FE
06BE420A94AC0802025FDE81A400FA
06BE620A92770802025FDD819D00FB
06BE7D0A90C20802015FDE81A000FD
06BE980A8F3A0802015FDE81A100FD
06BEB90A8F040802025FE0819C0084
06BED20A95180802005FDF81A10083
06BEEE0AA74A0802005FE0819D02BF
06BF050AA22C0802025FDE81A102BE
06BF210AAD350802035FDF819D021B
06BF390AAF960802015FDF81A1021B
06BF520AAB030802025FE0819D04C9
06BF6A0AA5510802035FE0819F04C8
06BF820AA1320802015FDE819C00AE
06BFA00A9C1F0802025FE1819F00AE
06BFBB0A97AB0802025FE3819F00FC
06BFDC0A94730802035FE2819E00FE
06BFFE0A91E00802025FE2819D0239
06C01D0A8F5F0802015FE281A5023B
06C03B0A8D850802025FE581A2005C
06C0560A8C5F0802015FE3819F005F
06C0750A8AA20802015FE181A20086
06C08B0A88FC0802015FE381A30084
06C0A50A876E0802015FE481A30129
06C0BF0A869B0802025FE4819F012B
06C0D60A86DA0802025FE4819F00FE
06C0EF0A88C80802005FE681A000F9
06C1080A8B8C0802015FE3819E015A
06C1220A8C9E0802035FE7819F015D
06C1390A89B80802025FE6819C0218
06C1540A863C0802015FE4819B021D
06C16A0A84270802015FE381A40085
06C1810A82C60802035FE681A10086
06C1970A83040802035FE6819A009D
06C1AE0A84220802035FE781A30099
06C1BF0A85060802015FE6819E00AC
06C1D20A853D0802005FE5819800AC
06C1E80A857A0802035FE6819F00A9
06C1FC0A89A00802035FE781A200CC
06C20F0AA5A70802025FE5819F00CD
06C2220AA08C0802015FE5819C00AC
06C2350AA9750802025FE7819F00AC
06C24A0AB1BE0802015FEA819E016B
06C25E0AAB420802025FF9819E016C
06C2730AA60F0802015FE781A0010B
06C2840AA1400802045FE9819B0110
06C29D0A9DB70802025FE8819D014B
06C2B40A9B5D0802035FE8819E014D
06C2CE0A97F30802035FE681A2010D
06C2E90A95B20802015FEB819C010D
06C3030A96D60802025FEA81990100
06C31D0A95410802025FE981A300FD
06C3350A978B0802025FEA819E00FD
06C34F0A90F50802015FE9819C00FD
06C3650A9A6F0802035FE9819D0190
06C37A0AB8E10802025FE9819D018C
06C3930ABFCF0802015FEA819D00DB
06C3A80AC7850802015FED819900DA
06C3BE0ABAB00802025FEA81A3011A
06C3D30AB2B50802025FEB819E011C
06C3E60AAA470802015FEB819F015B
06C3FA0AA43F0802025FEB81A3015B
06C40E0A9F0E0802015FEB819C00DE
06C4200AA5850802045FEB81A100DE
06C42E0AB7950802015FEC81A400DC
06C43C0AB9300802025FEC819C00DC
06C44B0ABDA10802035FEB819B00ED
06C4590AB9740802035FEC81A300EC
06C4670AACF40802035FED8198010E
06C4780AA9470802025FEE819D010C
06C4890AA3E80802005FEC81A1010C
06C4980A9DDA0802025FED81A10111
06C4A80A9A2A0802035FED81A0010D
06C4B60A97DB0802045FEC819900EC
06C4C50A95180802035FEE819900ED
06C4D30A92600802015FED819D010D
06C4E20A8FEE0802005FEE81A9010C
06C4EE0A8DF20802035FEF81A0010D
06C4FA0A8C520802035FEE819E010F
06C5080A8AF50802035FEF81A100EC
06C5160A89BC0802035FEE819B00EE
06C5270A88990802035FED81A1010D
06C5340A879C0802035FEF819D0111
06C5470A86BD0802025FEE819F010D
06C5590A85F00802005FEE81A8010C
06C56B0A852E0802035FF081A000DC
06C57E0A84860802035FF0819F00D9
06C58D0A83D10802025FF081A000FB
06C59E0A831B0802025FF281A000FE
06C5B10A82670802025FF0819D011C
06C5BF0A81CB0802015FF081A2011C
06C5D10A81450802035FF0819D013C
06C5DF0A80DD0802015FEF819D0139
06C5EF0A80BA0802015FF381A2012C
06C5FF0A80AB0802055FF0819E012A
06C60F0A80A00802025FF081A2010C
06C6200A80930802035FF281A7010C
06C62D0A80890802035FF381A600EE
06C6390A80910802055FF281AB00EC
06C6490A80910802045FF481A100EB
06C6590A80850802015FF481A400EC
06C6690A80710802025FF381A3010E
06C6790A80530802045FF381A60110
06C6850A80230802015FF281AB0138
06C6920A7FE90802025FF481A3013A
06C6A10A7FB00802045FF581A1013F
06C6B00A7F7F0802015FF4819F010E
06C6BE0A7F4F0802015FF381A7010B
06C6CB0A7F2A0802005FF3819C011C
06C6DA0A7F200802015FF581A4011C
06C6E80A7F120802025FF4819F012A
06C6F50A7F200802045FF481AD012A
06C7030A7F470802015FF681A1010A
06C70F0A7F710802045FF4819F010B
06C71E0A7FA80802045FF681A500EC
06C72B0A7FCF0802035FF781A300EA
06C7380A7FE30802035FF581A200DB
06C7440A7FD70802025FF581A700DD
06C7540A7FAB0802035FF781AB010D
06C7620A7F6E0802025FF581A3010E
06C7710A7F300802045FF6819F00ED
06C77D0A7EFE0802045FF681A000EC
06C78B0A7EEC0802035FF681A400EC
06C7990A7EFE0802045FF5819F00EB
06C7A80A7F330802035FFE81AE010B
06C7B80A7F6C0802055FF481A8010C
