* Sea-Bird SBE 19plus Data File:
* FileName = C:\Users\mseas\Desktop\seabird\data\ctd-data\leg2\SpongeReef2\SpongeReef2.afm
* Software Version SeatermAF 2.1.4.55
* Temperature SN = 
* Conductivity SN = 
* System UpLoad Time = May 31 2023 08:51:18 (localtime) = May 31 2023 15:51:18 (UTC)
** Site SpongeReef2
** Cast 42
** Winch Payout Length 90
**  
** Issues/Notes 
** Latitude (decimal degrees) 54 22.457
** Longitude (decimal degrees) 130 37.513
* ds
* SBE 55 V 1.4.1  SERIAL NO. 210  31 May 2023 15:50:28
* main battery = 12.40 volts
* lithium battery =  3.12 volts
* SBE 55 is NOT ARMED
* A>
*END*

1  2   31 May 2023 15:43:27  confirmed   12.3  1959
    00BB0007A7
    00BB0007A8
    00BB0007A9
    00BB0007AA
    00BB0007AB
2  5   31 May 2023 15:45:45  confirmed   12.2  2510
    00660009CF
    00660009D0
    00660009D1
    00660009D2
    00660009D3
A>