* Sea-Bird SBE 19plus Data File:
* FileName = C:\Users\mseas\Desktop\seabird\data\ctd-data\leg2\SpongeReef1\SpongeReef1.hex
* Software Version SeatermAF 2.1.4.55
* Temperature SN = 4345
* Conductivity SN = 4345
* System UpLoad Time = May 31 2023 09:25:02 (localtime) = May 31 2023 16:25:02 (UTC)
** Site SpongeReef1
** Cast 43
** Winch Payout Length 67
**  
** Issues/Notes 
** Latitude (decimal degrees) 54 21.855
** Longitude (decimal degrees) 130 37.505
* ds
* SeacatPlus V 1.6  SERIAL NO. 4345    31 May 2023  08:23:20
* vbatt = 11.2, vlith =  7.7, ioper =  62.6 ma, ipump = 123.5 ma, 
* iext01 =  33.7 ma
* status = not logging
* number of scans to average = 1
* samples = 220235, free = 339005, casts = 43
* mode = profile, minimum cond freq = 3155, pump delay = 40 sec
* autorun = no, ignore magnetic switch = no
* battery type = alkaline, battery cutoff =  7.3 volts
* pressure sensor = strain gauge, range = 1450.0
* SBE 38 = no, Gas Tension Device = no
* Ext Volt 0 = yes, Ext Volt 1 = yes, Ext Volt 2 = no, Ext Volt 3 = no
* echo commands = yes
* output format = converted HEX for AFM
* S>
* cast  43 31 May 2023 08:06:20 samples 217085 to 220235, avg = 1, stop = mag switch

*END*
06E65C0A6C850801F56049812F0121
06E65B0A6C7F0801F4604B812F010D
06E65B0A6C7C0801F3604C8130010D
06E65B0A6C700801F3604B8132010E
06E65B0A6C6D0801F3604E812B010F
06E65D0A6C670801F6604A812F010D
06E65F0A6C620801F3604E8130010E
06E6620A6C620801F4604C812E010E
06E6640A6C5C0801F3604C812F010B
06E6640A6C5B0801F4604E812A00FE
06E6610A6C590801F3604D813100FD
06E6600A6C530801F5604D813000FB
06E6600A6C500801F3604E813000FD
06E6600A6C490801F3604F812E010C
06E65D0A6C450801F3604E812E010C
06E65C0A6C3F0801F4604E8131010F
06E6540A6C310801F3604F8130010D
06E6560A6C2B0801F5604D812B0111
06E6580A6C2C0801F4604E812D0111
06E65B0A6C220801F4604F8130011A
06E65B0A6C1F0801F5604D812B011D
06E65D0A6C1C0801F6604F8128011E
06E65E0A6C110801F5605081300120
06E6650A6C120801F5604F812F00F0
06E66E0A6C0B0801F46051812D00ED
06E6740A6BF10801F56050812C011B
06E67B0A6C2D0801F2604F812D011A
06E67F0A6C1F0801F46052812E010C
06E6850A6C100801F460518132010E
06E6870A6C020801F360508127010D
06E6900A6BF90801F56051812E011F
06E6A20A6BF40801F5605081300118
06E6B50A6BF40801F46050813200FE
06E6C10A6BEB0801F36050813200FD
06E6C50A6BE50801F46050812E011C
06E6C80A6BDC0801F36052812C011D
06E6D00A6BC80801F6604F812F010D
06E6F80A6BC30801F4604D8135010A
06E73E0A6BBF0801F46052813200FC
06E7960A6BBD0801F46050812D00FE
06E7E50A6BC20801F76051812E0129
06E81B0A6BBF0801F56050812F012A
06E84F0A6BB10801F56051812E00FD
06E89A0A6BBA0801F56051812E00FC
06E8D80A6BB60801F560538133010B
06E8F40A6BA50801F4605281300110
06E9240A6BAB0801F46051812E00FC
06E95C0A6BB10801F56052813100FD
06E9760A6BA80801F56051813000FC
06E9770A6BAB0801F46053812E00FD
06E9720A6BAB0801F46052812F00ED
06E95E0A6B9F0801F56052813300ED
06E9470A6B9A0801F6605E812F011A
06E9360A6B910801F560538134011B
06E9200A6B8A0801F26050812C0101
06E9120A6B880801F36051813100FB
06E9010A6B870801F46053812C010D
06E8E90A6B770801F460528134010E
06E8D20A6B6E0801F36051813800FC
06E8C20A6B6E0801F66052813300FB
06E8B30A6B630801F660518131012D
06E8A50A6B610801F56052812D012D
06E89A0A6B660801F360538134012B
06E88C0A6B5E0801F66053812F0110
06E87C0A6B600801F7605381300109
06E8630A6B5D0801F46051812F00F0
06E83E0A6B5E0801F46052813100ED
06E80D0A6B570801F46052813000FD
06E7D80A6B4C0801F66053812F00FD
06E7B10A6B3D0801F36053812F010D
06E7970A6B2B0801F46052812C010E
06E78C0A6B1D0801F56052812C010E
06E7860A6B180801F360528132010D
06E7810A6B0F0801F46051812D010F
06E77B0A6B060801F36051812E010C
06E7750A6B040801F46051812F011A
06E7710A6AFB0801F460548131011B
06E7720A6AFB0801F560508133010C
06E76D0A6AFA0801F460538131010B
06E7690A6AEF0801F46052813000DE
06E7630A6AE80801F46052813200DE
06E7600A6AE30801F36052812F010B
06E75D0A6ADE0801F460528133010C
06E75A0A6AD20801F56051812C010C
06E75C0A6ACF0801F560528132010B
06E7660A6AC90801F46051812D010E
06E7700A6AC40801F660528132010D
06E77C0A6AC10801F56052812F011F
06E7870A6AB80801F46051812E011C
06E7970A6ABB0801F46053812B00FB
06E7A30A6AB70801F76054813000FD
06E7AB0A6AB20801F460518132010D
06E7B20A6AAF0801F56053812F010F
06E7AA0A6AB20801F560538133010D
06E7A40A6AAD0801F46051812E010F
06E79C0A6AA70801F46054812E0109
06E7A20A6AA70801F460528132010B
06E7A30A6AA20801F76052812D0109
06E7A10A6A9B0801F460548132011C
06E79C0A6A980801F560528131011E
06E7930A6A8F0801F560548130010C
06E78F0A6A810801F460538136010E
06E7900A6A7E0801F460558133010B
06E78B0A6A750801F76053812C010E
06E7850A6A6C0801F660528130010C
06E7820A6A6A0801F460518133010C
06E77F0A6A650801F560538132010D
06E77C0A6A640801F460528131010D
06E7780A6A5E0801F56051813500FD
06E7740A6A5D0801F46054813000FE
06E7720A6A560801F46052813300FD
06E76A0A6A5A0801F66051812E00FD
06E7670A6A560801F46051812E00FA
06E7600A6A500801F46052813700FC
06E75D0A6A4E0801F5605381320119
06E75D0A6A4A0801F56053812D011D
06E7610A6A460801F46053813300ED
06E76A0A6A470801F26052813200EB
06E7740A6A460801F66053812F00EE
06E7790A6A440801F46052812D00EB
06E77D0A6A410801F460558138010E
06E77E0A6A410801F360518130010D
06E77F0A6A390801F66052812D00FE
06E77D0A6A310801F56052813700F9
06E77E0A6A2A0801F46051813400FD
06E77E0A6A1F0801F56054813400FA
06E7810A6A180801F4605381300110
06E7880A6A130801F560538135010B
06E7900A6A0D0801F46053812E00FC
06E78C0A6A080801F36054813200FE
06E7880A6A030801F56053812D0110
06E77F0A69F90801F56052812F011D
06E77C0A69F00801F360538136011E
06E77E0A69F40801F360528136010C
06E7820A69E80801F560528130010D
06E7820A69EC0801F36055812F00F8
06E77D0A69EB0801F56053813000FE
06E7730A69E50801F56053813200EB
06E7630A69E20801F36053812E00F0
06E7580A69DF0801F660548131012A
06E7490A69DC0801F6605281320129
06E7490A69D10801F460538130012E
06E7550A69D60801F460538135012D
06E75D0A69D70801F660518139010C
06E7600A69D10801F56053812F010E
06E75F0A69CD0801F360528133010E
06E75F0A69D30801F660538132010B
06E75F0A69CD0801F560548131010B
06E7610A69BC0801F46051812F010B
06E7610A69C20801F460528132010E
06E7600A69C00801F660528133010D
06E75E0A69AE0801F660558133011E
06E7580A69B10801F460558136011B
06E7590A69A80801F360548137011C
06E75C0A699D0801F560528132011E
06E7600A69A40801F460528133011C
06E75B0A69A20801F36053812E011E
06E7530A698F0801F36053812E010C
06E75C0A69970801F360538131010C
06E76E0A69950801F46053813500EC
06E7700A69850801F36052813200EE
06E76A0A69940801F76052812D010D
06E75A0A69920801F56052812F010E
06E7480A69830801F560548131010D
06E7390A69880801F560538131010A
06E7330A69880801F36051812E010D
06E72B0A69770801F460508132010F
06E7280A69800801F56053812D010C
06E72C0A69710801F460528132010B
06E7310A696B0801F460528129010B
06E73F0A697A0801F46051813200EE
06E74F0A69740801F26052813200EE
06E7520A696B0801F660548131010B
06E74E0A69770801F56051812D010D
06E74C0A69710801F56053812C00F9
06E7470A69660801F46052813000FD
06E7490A696B0801F560538130011F
06E74F0A695D0801F560548133011D
06E75F0A69510801F56053812F0129
06E78E0A69540801F660528131012E
06E7C10A694C0801F560548134010C
06E7EC0A69450801F660538135010D
06E8010A69490801F46052813000FB
06E8060A69460801F46052813400FE
06E8000A693B0801F560518137010C
06E7F30A69430801F660538133010E
06E7E80A693D0801F66053812A010B
06E7DA0A69370801F4605381370109
06E7CD0A693A0801F56054813B00FD
06E7C20A693B0801F66052813000FD
06E7B40A69320801F36053812F011D
06E7AE0A69350801F460528131011E
06E7AA0A69340801F560538133010B
06E7A70A692B0801F560528131010D
06E7A70A692F0801F56052812D011E
06E7A90A692C0801F460528132011E
06E7AA0A69230801F460548133010C
06E7AE0A69290801F460528125010C
06E7A80A69260801F460528131010C
06E7A80A69180801F560518131010B
06E7A80A69180801F360548133010B
06E7B60A69140801F56053812F010F
06E7C10A69090801F76052812E0109
06E7C60A690A0801F56052813500ED
06E7CB0A69090801F36051813200EE
06E7CB0A69000801F66054812E00FA
06E7CA0A69020801F66052813500FD
06E7C80A69030801F66051812C010C
06E7C60A68F80801F560528132010E
06E7C60A68FB0801F560538131010D
06E7C30A68FE0801F5605981350109
06E7C20A68EB0801F460528132010F
06E7BC0A68F20801F360518133010D
06E7BA0A68EB0801F460538135010D
06E7BB0A68E10801F560528136010F
06E7C60A68E10801F560528135011D
06E7D10A68E40801F4604F81340120
06E7D60A68DE0801F56050813300FD
06E7D50A68E30801F46051813300FB
06E7D00A68E60801F460528133010D
06E7C70A68DE0801F36052812D010B
06E7C40A68DE0801F760538132012A
06E7CC0A68DE0801F46054812F012C
06E7DB0A68D40801F6605181320108
06E7EA0A68D80801F660518130010D
06E7F40A68D60801F8605281310109
06E7F60A68CA0801F360538132010D
06E7F90A68CC0801F46051812C00FC
06E8000A68CA0801F46053812D00FD
06E8070A68C40801F66052813700FC
06E8110A68C40801F46051813100FC
06E81B0A68C70801F56050813400FA
06E81C0A68A10801F46052813100F9
06E8230A68DE0801F5605181310103
06E8320A68E90801F36052812E011B
06E83B0A68E80801F560538137011D
06E83C0A68EF0801F46053812E010E
06E8390A68F80801F660538134010B
06E8350A68F20801F560528131010C
06E8320A68F20801F460548133010E
06E82D0A68F30801F56052812D00FD
06E82D0A68EC0801F56055813600FC
06E82D0A68E30801F66054813200FE
06E82F0A68E90801F36052813600FE
06E8330A68E40801F260518133010D
06E8340A68E10801F660518134010B
06E8370A68E10801F46053812F010D
06E8360A68DC0801F560528130010D
06E83A0A68DB0801F36054813000FA
06E8400A68DE0801F46054813400FE
06E8480A68DC0801F66052812E010B
06E85C0A68E10801F4605281360110
06E8740A68E10801F660528133011D
06E8940A68E40801F46051812E0120
06E8B30A68E90801F760538134011C
06E8C60A68EB0801F46051813D011B
06E8CB0A68E90801F56052812B00FD
06E8D00A68F30801F36051813500FC
06E8D40A68EF0801F460528135012C
06E8D60A68EB0801F560528136012D
06E8D60A68F20801F460548137010E
06E8D50A68EC0801F6605181360110
06E8E20A68E60801F660528135011D
06E8FC0A68E90801F560518139011B
06E90A0A68E60801F560538135011C
06E9200A68DE0801F560528132011D
06E9570A68E10801F560538136011E
06E98D0A68EB0801F660518130011E
06E9B30A68E60801F660528136011C
06E9DA0A68E80801F660528137012D
06EA0E0A68F50801F460538131012A
06EA370A68F50801F460518135011C
06EA460A68F30801F46053813A011D
06EA4E0A68FB0801F560528137010C
06EA500A68F50801F560538133010C
06EA500A68EF0801F46051812F011C
06EA4C0A68F30801F460528136011E
06EA4F0A68EF0801F560528136011F
06EA520A68E40801F660528138011D
06EA5C0A68E30801F660538138010C
06EA800A68F50801FD60548135010B
06DC840A70EE080207605381360A72
06AE150CB09408020C605381360A76
068C7F0EC2770802186051813814FC
067865106E63080221605381371503
066C25119E480802216050813815B0
06661F0F39E40802206053813215B4
0660BF120625080232605281341613
065C3D1233400802486052813B1612
065906123AF508025D605481401693
065282123EE0080272605481371693
064B41123F610802896052813C175B
064783123F3D08029C6054813A1760
06463F123ED20802B160528137186D
06452B123DBF0802C260548150186A
0643CD12398B0802CF6053816B1734
0642E11234E80802D7605181921734
0642631234F60802D4605281C4166F
06445F12334D0802CA605382031673
0645ED1233820802C16053823C1635
0646991238BF0802BB605082861636
0646AA123CFC0802BE605082E21630
064685123DBF0802D2605384021705
064580123D8E0802EC605184A81703
064425123C7E08030C605284C316F2
0642E8123B7F080323605184B416F3
0641FB123C58080338605284A8179B
064155123CC208034E605284BC179F
0640D912392408035B605284AC1735
0640C212350E08035D605184891733
064087123835080358605284611742
064037123AC9080350605184351744
064030123B33080345605583F316B2
06404B123A8908033C6052839C16B0
064083123A320803346051833A1632
06406F123B99080332605282DD1633
064026123C580803356051829815E1
063FFC123C430803406051822D15E1
064002123B3808034B605081D41745
064061123796080354605281811744
06413812337508035960548140149F
06413F12329808035A6052811714A2
0640FC123597080359604F80F2139C
0640D3123746080354605380CF139C
064090123912080352605380AF134A
06403F123A1C08034E60518096134B
06401D123B10080349605280811323
064031123B94080344605280791322
06404E123B5708034060518072146F
06405B123B5708033C6051806D146E
064034123CE608033A6050805F146D
063FFE123E5508033960548050146F
063FD7123F7B08033A6053803A1462
063FC1123FCB08033E60518023144C
063FCA123F7F08034060538016144F
063FE6123EDF080341604F8017146E
064028123D6608033E6054801D1470
0640BC123C9F08033A6050802615BF
064175123D3F08033B6052803415C4
0641711241180803396052803E12D4
06410C1243D608033B6053804F12D5
0640E41244C7080341605180501333
06410A12447208034260528058132F
0641771242BA0803466051805B156F
064263123F7708034960518063156E
064309123D470803486051805313BD
064308123F7708034B6054804413B9
0642DB12409208034D6052802713DA
06428712414D08035060537FFE13DE
0641FF12431C08035260517FE012C1
06417C1243B708035260527FCD12C3
06412312441A08035360507F981520
0640E812471B08035D60547F891520
0640FA124B2E08037C60517F7115DF
0642581242BE08039560517F6F15DE
0642591240F00803A160537F711540
0641FE123CB50803B360527F69153D
0641A1123B220803C060537F8F1593
06415412395E0803CA60517FBE1591
06427E1238180803D060517FF9155E
06442812391B0803D96050804B1560
0644BB123AA10803E5605380981613
0644F2123BF60803F1605480D01616
06452F123CBC080400605181081654
06457D123FCB0804126052812A164E
06458C12424B0804256051813B1654
0644F51243ED08043B6051813A16C2
0643E41245190804536052813316BF
0642CA1244F80804716053811E1653
0641F41243AE080493605481001653
06417D1243170804BC605380E81654
0641371242B60804E4605580C91654
0640EF12426E08050C605380AB1752
0640831242C70805346054808E1751
06401712439008055E6053806A156E
063FB412444A0805856054804A1572
063F5C1245310805AD605380241602
063F0D1245DB0805D460557FFB1604
063EC41246960805F560547FE8143C
063E811247DF08061960558005143E
063E771249BC08063B60568059139A
063E7C124BEA080663605480D8139C
063EB0124F9808068960548171140E
063F071254160806B360538204140E
063F431258530806E36055827E1100
063F9D125D9F0807136056830F1104
063FF71261D40807456056836C1150
064037126531080779605583C2114E
06409B126B480807AB60568409111F
064131126F390807E1605584621120
0641B61272BB080816605584BC1284
06424B1276B908084F605485171287
0642FD127EE008088A605685831100
0643A3127A190808C9605785F21101
0643B51281EE0809046057864915BF
06440B12B3F80809416058869915C0
06469712D399080980605986E615BD
064ACF12E56E0809BE6057872715A3
064ED812EF250809FD6059876D15A1
0652B412FBC7080A3C605887B01B39
06567E13129A080A7E605788041B3A
065BD1133B62080AC26058884F184E
066554139254080B0560598885184D
06718913C996080B48605988BC115F
067BD713E42C080B89605A88F0115D
06839F13F29C080BCA605B89160F97
06897313FCFC080C0B605A89390F9A
068DD014063B080C4D605A89580EDC
06915A140DFC080C91605C894B0EDD
06946A1414F0080CD8605B894B0EFF
06970E141BD6080D1F605A89440EFC
06995B142162080D67605D89330E5F
069B7514261D080DB0605D89260E61
069DA9142B32080DF7605E891D0F2D
06A033142E79080E34605C891A0F2E
06A27D142F00080E65605B890E0DBB
06A44C1436D7080E91605D89030DC1
06A67E143C6D080EB8605E88E80DBC
06AA0A143FF5080EE1605F88C30DBC
06AE5B1441ED080EFC605C888B0CDF
06B24B1441FD080F15605C88310CDE
06B55F1439FC080F2C606087B60BC1
06B6C81430E3080F38605F87210BC0
06B7AE1427A3080F41605E86850C1E
06B902142227080F47605E85EA0C22
06B977141BCC080F49606085550CF0
06B6DA140AEE080F47605F84B50CEC
06B20413FF18080F3E605F84130C70
06AB0713FDED080F336062835D0C6F
06A45E13FF64080F28606082B20C70
06A005140573080F1E6062820A0DEE
069E0C141076080F13606481590DF2
069D55141BF8080F0E606280B30E40
069D23142636080F0C606380150E3C
069E76142EAE080F0D60637F840DCF
06A334143515080F1560647F090DCE
06A9D6143CFB080F1D60637E930C21
06B037144268080F2560647E2D0C1F
06B5F814461D080F3160667DCB0B68
06BAC91448C2080F4060657D710B64
06BEB6144AF9080F4D60667D170D30
06C1C9144C93080F5A60657CCA0D2F
06C447144D08080F6760697C7C1085
06C6661458FA080F7360687C211080
06CABF145EF4080F7D60687B5D0B16
06CFCF146078080F8560687AAB0B16
06D35C14616E080F8B60687A880AF8
06D591146260080F8E606C7AD60AF6
06D7211462F2080F8C606A7B770B67
06D827146325080F8B606C7C4C0B69
06D8BF1462F8080F83606A7D0C0C60
06D907146266080F7A606D7DD00C5F
06D9141461D1080F6E606C7E690CD2
06D91B14615C080F61606E7EEF0CCF
06D8F2146087080F55606E7F5D0DA2
06D889145E9B080F47606E7F880DA1
06D7C7145E65080F3E606F7FEA0E3E
06D712145E34080F33606C80170E40
06D68F145E20080F2C606F80360E22
06D620145E36080F27606F804B0E23
06D5BD145E1B080F24606F80570E25
06D574145DD0080F26607280610ECF
06D52F145D88080F28607180670ECE
06D4E1145D96080F2D607180690DFC
06D4BC145D77080F336072806D0E02
06D4AC145D39080F3B6072806A0D61
06D492145D43080F476073806B0D5E
06D486145D1A080F51607380700DB0
06D47C145D1C080F5B607380700DB1
06D47B145D03080F696072806E0D00
06D49B145E44080F72607480680D00
06D53A145F78080F78607480630C54
06D661145FE3080F816074805D0C4F
06D747146029080F86607580570C4E
06D7DD1460AE080F89607780560C4F
06D874146094080F886076804E0BD0
06D8C1145FA5080F84607780490BD2
06D85A145F11080F7F607880410C81
06D7A0145E15080F766076803D0C7C
06D6BF145D74080F6D607880380C9F
06D5E6145D49080F5F607D80350CA2
06D529145D2A080F54607980330D1F
06D483145D60080F4A607B80380D1A
06D402145DAF080F40607C80350CCF
06D3BE145DC3080F38607B80340CD1
06D39F145D8D080F34607A80300D82
06D376145D7C080F30607C80380D81
06D34C145D39080F33607D803A0D6E
06D320145D12080F35607D803B0D74
06D2F9145CEB080F3C607C803F0D30
06D2F7145C4D080F47607E80440D2F
06D2FA145C11080F4F6080804A0C6E
06D2A7145BFF080F5A607F80470C71
06D254145C21080F606080804F0C70
06D23A145C3B080F686081804E0D8F
06D24E145C6B080F6F607F80490D8D
06D279145C88080F706081804E0CDF
06D2BC145C85080F70608280490CE4
06D2F2145C83080F71608380450DAD
06D30F145C83080F70608380460DB0
06D32D145C93080F6E608280470DEC
06D338145CA1080F69608480450DF1
06D311145CAF080F686085804C0EFE
06D2DB145CBE080F64608780470F00
06D2B0145CC3080F63608680450DD5
06D291145CD4080F606084804D0DD1
06D26E145CD2080F606086804A0E40
06D25D145CDC080F5E6089804B0E3E
06D24C145CD9080F5F608880540DE3
06D242145CEA080F5B6089804F0DE0
06D227145CF4080F5B608980551015
06D203145CF9080F59608A80591016
06D1DF145CF9080F556088805C10DF
06D1B0145CDD080F52608A805B10E2
06D174145CD7080F4F608B80670D2F
06D130145CB9080F4A608A806B0D30
06D0F8145CA1080F48608A806A0C34
06D0D1145C97080F47608B80650C32
06D0B7145C97080F47608D80670CAF
06D0AB145C7C080F4B608C80650CB2
06D0A8145C83080F4F608D80640D7D
06D0AC145C79080F55608C80630D81
06D0A2145C49080F5B608E80640D11
06D086145C26080F66608D80670D12
06D068145C43080F6A608D80670D10
06D063145C5B080F706090806A0C42
06D06C145C83080F75608E80690C3F
06D093145CBD080F786091806B0D80
06D0D5145CB4080F79609080670D7C
06D10D145CB4080F75609280680D83
06D13C145C77080F71609080630D80
06D118145C43080F6A6093805D0D01
06D0BB145BEB080F63609280630D03
06D05F145B57080F5D609380620DA0
06D00C145ACE080F55609380670DA0
06CFB6145AA2080F51609480630E3D
06CF75145AA1080F4C609480640E3E
06CF4F145A98080F4B609480681056
06CF39145AA1080F4B609480681056
06CF31145A8E080F4B609680670E6E
06CF28145A67080F4E6096806B0E6F
06CF1C145A85080F4E6096806E1006
06CF1E145AA2080F4E6097806F1008
06CF30145A89080F52609680770F21
06CF36145A85080F52609780720F1E
06CF32145A71080F55609880770DBE
06CF28145A5D080F58609980790DC1
06CF21145A52080F5E609980780D52
06CF1B145A3B080F62609A80770D52
06CF14145A31080F6A609780740D7F
06CF0B145A2D080F72609A807C0D7E
06CF08145A2C080F77609B807B0DAE
06CF09145A45080F7D609B80840DAF
06CF10145A5B080F81609A80830DA0
06CF1B145A76080F81609B80890DA1
06CF2B145A6E080F80609B80890C94
06CF2C145A4E080F7D609A80910C91
06CF221459D4080F76609D80910C90
06CEF91458EC080F6F609D80910EAF
06CE9F145833080F64609D80910EAF
06CE2614576E080F5C609D80930E32
06CDBB145709080F50609F80960E2D
06CD541456EF080F49609C809A0D31
06CCED145604080F40609E809A0D33
06CC4F14557E080F3B609F80A00DD0
06CB9B14556C080F3960A080A90DD4
06CB14145522080F39609F80A90EA0
06CAE51454D7080F3B60A180AD0E9F
06CAA314547C080F4060A180B10D75
06CA531453BD080F43609F80B80D72
06C9A9145315080F4D609F80B90CBF
06C8C114525C080F5260A180BF0CC0
06C7CA145230080F5A60A180CA0D92
06C7311452D4080F6360A280CC0D90
06C739145378080F6860A280D40CC3
06C7B01453DA080F6E60A080D80CC3
06C847145463080F7260A380D40C50
06C8BA14547C080F7860A280DA0C50
06C92E1454E2080F7B60A380DE0DC1
06C9B21454EE080F7D60A380D90DBC
06CA1B145513080F7F60A380D70D51
06CA6A145531080F8360A280D50D4E
06CAA214554B080F8160A480D50E12
06CAC1145505080F8060A580C80E12
06CAA8145499080F7B60A580CE0F0D
06CA451453C0080F7560A580CD0F0A
06C9A21452BE080F6F60A680C40EB3
06C8BF1451A2080F6860A680C80EB2
06C77114505F080F6160A780D50EAC
06C5D3144FDC080F5A60A780D61041
06C459144F8D080F5760A780DF1043
06C336144F52080F5260AA80E70EBE
06C255144F15080F4F60A680F80EC3
06C1A2144F04080F4D60A780FE0F0E
06C12A144EBB080F4D60A880FA0F0E
06C0AA144E93080F5260A8810F0F87
06C02B144EC9080F5760A981180F87
06BFF8144E8F080F5E60A881280ECF
06BFD5144E8E080F6460AA812E0ED2
06BFA3144E80080F6B60A981470EAD
06BF73144E85080F7360A8814D0EB2
06BF52144E80080F7760AA815C0EEF
06BF3A144EA5080F7960AA81680EF0
06BF47144ED8080F7A60A981740FB8
06BF95144EBB080F7860AE81830FB7
06BFBE144E98080F7460AA818B0D1C
06BF92144E15080F7060A9818F0D20
06BEF6144D9F080F6A60AC81A00F89
06BE0C144D6B080F6260AD819D0F84
06BD0B144D56080F5960AC81AC0FA7
06BC31144D43080F5060AC81C20FA8
06BB93144D17080F4A60AC81C90DCD
06BB0D144D12080F4460AE81DB0DD1
06BABE144CFE080F3E60AC81E80EFF
06BA81144CD7080F3C60AE81F60F00
06BA33144CC9080F3C60AE820E0F87
06B9EA144CC8080F3B60AF821A0F89
06B9C4144C75080F4060AE822B10FD
06B978144C9A080F4560AE823C10FE
06B932144CE1080F4860B182430F87
06B94C144C89080F5060AE82580F4C
06B929144C98080F5860B1826C0F4B
06B8D0144CCD080F5F60AF826F0EF0
06B8C7144CD7080F6760AE827E0EF0
06B8DB144CE6080F6F60AF828D10D1
06B91D144D05080F7460AE829710CC
06B92D144D3E080F7860AF82981005
06B9AB144D73080F7E60AF82A31005
06BA9E144D7D080F8160B082AA0E20
06BB07144DF7080F8460AF82B00E20
06BBF3144E19080F8460B182B40E5F
06BC9A144DB9080F8360B182B80E5E
06BC4F144DA9080F8160B282B80EA2
06BBEC144D82080F7E60B082B30E9F
06BB9B144D43080F7C60B282B90F3D
06BB2F144D21080F7160B382B60F3D
06BAA9144CBF080F6A60B482B80E21
06BA1B144C53080F6460B482B80E1F
06B98E144C43080F5660B182AD0F1D
06B91C144C31080F4D60B482B60F1F
06B8DA144BED080F4560B282B61005
06B891144BEF080F4260B282C21004
06B862144C00080F3D60B282C20E31
06B877144CA6080F3E60B282C80E30
06B8DB144D39080F3D60B282D61122
06B971144D61080F4160B282D21121
06B9F3144C6C080F4360B482D80F10
06B9B6144B5F080F4B60B382D80F11
06B8A7144C0B080F5460B482E21091
06B829144C98080F5D60B482EA1090
06B891144BAD080F6760B582DD0E2E
06B83E144BC1080F7060B382E10E2E
06B7AF144C3E080F7760B482E00E2E
06B7BF144D03080F7C60B482E30E62
06B891144D5B080F8160B782DF0E5E
06B9A5144D38080F7F60B682D80E50
06BA45144CF9080F8060B582D30E4E
06BA19144CAB080F7B60B682D30F01
06B9A8144C71080F7360B682D60F00
06B943144C36080F6860B682E10EC1
06B8E0144BA8080F6060B682E50EBE
06B863144B47080F5560B682E60F89
06B7F0144B64080F4D60B782EB0F89
06B7C8144B90080F4760B682EC1073
06B7C7144B47080F4260B582ED1074
06B7B2144B32080F4160B582EE1181
06B786144AFD080F4260B782F1117E
06B733144B86080F4960B882F31237
06B731144BBC080F5160B882FB1238
06B76C144BB2080F5860B783000F78
06B796144ADB080F5E60B883020F7A
06B7661448F3080F6560B883050F7B
06B6561448E2080F6E60B7830F0F7D
06B572144969080F7160B6831E0FE4
06B53214497C080F7860B883220FE9
06B51F14493A080F7860B983290FF5
06B4FF144933080F7760B783340FF7
06B4EB14495F080F7960B883330E5E
06B4EB1449A8080F7760B783350E5D
06B5171449C4080F7560BB83411051
06B54B1449C5080F7560BA83411054
06B5641449D4080F7560B983430F79
06B56F144A18080F7260BA834A0F79
06B5911449F6080F7060B883500EAB
06B5A41449A3080F6B60B983560E8F
06B57F144955080F6860BA835D0E93
06B541144927080F6060B98363115C
06B50B14491A080F5B60B983651160
06B4CF144911080F5460BC836E0FB7
06B48D1448EB080F4C60BC83750FB7
06B44C14491A080F4860B983721034
06B43C14492E080F4360BA83721036
06B44514491A080F3E60BC837E0FCA
06B45014495F080F3C60BB83800FC9
06B46C144950080F3D60BB83881015
06B4A7144938080F4160BB838D1014
06B4B114497A080F4960BC8396119E
06B4A81448AA080F5260BC8392119D
06B4721447D9080F5A60BA83970F04
06B3AB144746080F6760BB83A00EFD
06B27F144837080F7060BD83AA0FAA
06B2431449CF080F7B60BA83B90FA7
06B37A144950080F8160BD83A51062
06B3DD1448D9080F8660BC839F105F
06B38314491F080F8960BB83AC0FA8
06B3981448FD080F8760BB83A90FA8
06B3A71448EF080F8260BD83B10FD4
06B3B41448B8080F7C60BB83B40FD4
06B39B144883080F6F60BC83BF1045
06B36C144861080F6260BD83BD1046
06B33F144853080F5360BB83C610C1
06B31D144849080F4B60BD83A210C0
06B30214483F080F4260BE83A61045
06B2D914486B080F3C60BB83C81044
06B2DE144853080F3C60BE83C90FD6
06B2C6144827080F3C60BD83A60FD8
06B28D1447D9080F4260BB83C50FD4
06B20B14473E080F4B60BD83C90FC7
06B124144772080F5660BE83DE0FC8
06B0BE144794080F5E60BD83C20F96
06B126144897080F6860BF83DF0F95
06B21D144B52080F7260BD83E010A5
06B412144AEA080F7A60BC83DA10A0
06B554144A4E080F7E60BD83E00EA2
06B596144A79080F8060BE83CD0E9E
06B5A1144AAF080F7B60BE83E20FA7
06B5B0144A53080F7860BE83D80FA9
06B5A51449E7080F7460BF83D61133
06B55B144A21080F7160BE83D81134
06B53E14498B080F6C60BF83CE1082
06B4FD14493D080F6960BF83C41082
06B49E1448D9080F6760C283C40FD6
06B4311448D1080F6260C183C50FD4
06B3E41448D1080F6160BF83C0118A
06B3B5144888080F5A60BE83CA118D
06B384144840080F5660C183C80F97
06B3391447FB080F5060C383AE0F98
06B2F7144822080F4A60BE83B91074
06B2CD1447F2080F4660BF83C31075
06B2A11447DE080F3F60C183C01033
06B27E1447D9080F3A60C083C81035
06B2741447CF080F3760C283C21018
06B25E1447DF080F3660C083C51014
06B259144781080F3D60C083DF0FB4
06B29614488D080F3E60C283D50FB7
06B3331448CB080F4960C083DE1007
06B3C3144A2C080F5560C183E61005
06B494144D60080F6460C183D11079
06B716144D78080F7160C183E9109F
06B955144D2A080F7E60C183B710A2
06BA83144EF1080F8760C283BA0DFF
06BD1B145073080F9160C183A60E01
06C060145249080F9760C1838A1044
06C31814534C080F9C60C383741046
06C532145485080F9B60C083590F6B
06C6EA1454C0080F9A60C183370F69
06C8671453E9080F9460C183190ECD
06C87E14518A080F8D60C382FA0ECE
06C684144FE5080F8460C382E50DD1
06C3D8144E28080F7B60C582D90DCF
06C118144C7F080F6C60C582C70E5F
06BE0A144C0F080F6260C182C20E60
06BBE4144BEF080F5660C382B21092
06BAAE144C40080F4B60C382A41092
06BA47144C58080F4360C2829B0DD3
06BA4E144CCD080F3D60C482920DD0
06BAAA144C93080F3660C4828B0FD6
06BAEC144C5D080F3660C2828B0FD8
06BACC144CE0080F3460C382890E60
06BB0E144D87080F3760C382920E5D
06BC52144E99080F3C60C582900F61
06BE08144F2B080F4360C382870F5E
06BFD2144F55080F4A60C5827D0EB0
06C0C81452EA080F5460C482720EB1
06C31B145446080F5D60C3826D0ED1
06C6501457B5080F6860C382550ECD
06C93714584B080F7360C3823F0E13
06CB88145959080F7760C482240E0F
06CCE3145A3F080F7D60C3820C0E31
06CDC11459CF080F7E60C381FC0E33
06CE1F145949080F7F60C381E70E31
06CE1A145959080F7E60C481DA0EEF
06CE111459C0080F7C60C581CE0EEF
06CE221459C6080F7660C481BF0F88
06CE3E1458CB080F7460C381B00F88
06CDEB145829080F6D60C4819F0E14
06CD41145829080F6960C581950E12
06CCB714576E080F6760C5818B0CFF
06CC1F145751080F6560C5817D0D01
06CB9C1457BE080F6360C481720FD4
06CB7F14580B080F5F60C681740FDA
06CB9C1457DA080F5D60C581640ECD
06CB941457A2080F5B60C581550ECC
06CB9A1457EE080F5760C7814E110E
06CB95145778080F5360C781441110
06CB6A1456ED080F5060C681400D8D
06CB22145707080F4B60C681380D8F
06CAD01457A9080F4A60C5812D0D34
06CAF0145832080F4960C5812D0D2C
06CB8114596D080F5060C5811C0E0F
06CC6B145AFF080F5960C681120E0E
06CDC8145C03080F5D60C781090E03
06CFA6145C0D080F6560C580FD0DFF
06D0FE145C1A080F6C60C580F01316
06D1F1145D03080F6F60C980E21314
06D325145CAB080F7560C780DE0D91
06D404145CB4080F7260C880D20D91
06D43B145CFE080F6F60C680CA0F21
06D48E145D0D080F6C60C780C00F21
06D4ED145C98080F6460C580BA0DDF
06D499145C52080F5D60C680B20DDD
06D3DC145BF5080F5760C980B40DCA
06D2D0145B77080F5360C980AD0DC5
06D183145B26080F5160C780AE0DC1
06D0CB145B61080F5060C880AE0F6C
06D106145B8E080F5160C880AF0F6C
06D167145C17080F5460C580A4111F
06D212145C80080F5860C7809C111F
06D305145C5C080F5D60C780900F12
06D384145CC8080F6060CA808C0F10
06D42A145DFA080F6460C880800F97
06D51C145E34080F6660C7807F0F9A
06D5CA145E9B080F6660CA80720F9B
06D63E145E1F080F6660C8806A0F99
06D63F145F16080F6460CA80610DA1
06D664145EF8080F6660CA805A0DA1
06D6D4145EC6080F6560C9804F0D31
06D6EF145E87080F6660C980490D30
06D6B8145E6E080F6660C780460D75
06D65E145E65080F6760C980410D71
06D61B145E82080F6860C8803B0EBE
06D606145EB4080F6960C780350EC0
06D61E145EDB080F6960C9802A0D02
06D65D145EB4080F6B60C780240D01
06D686145EB9080F6D60C9801C0DE1
06D69C145F25080F7060C8801B0DDF
06D686145F65080F7160C980220BF3
06D659145FAA080F6E60C980120BF3
06D665146007080F6D60C980110BF3
06D6D0146032080F6C60CA800F0BEE
06D76E14604C080F6A60CB80020C33
06D7CB146064080F6260C880000C32
06D809146045080F5F60C980030CFE
06D842146047080F5C60CA7FFB0CFF
06D86E146049080F5B60C97FF20D00
06D88D146047080F5960C97FF60F4D
06D8A9146047080F5960C97FF00F52
06D8B1146057080F5760C97FF90DE3
06D8AE146025080F5460CA7FF30DDE
06D894146042080F5860C97FF00DA1
06D892146032080F5760CD7FEC0DA1
06D894146051080F5860CA7FE20BFF
06D88C14605C080F5860CA7FDC0C01
06D87A146073080F5660CA7FE80BC3
06D87B1460E4080F5560CB7FDB0BC2
06D8AA14611B080F5260CB7FDF0BE2
06D906146102080F4F60CA7FB20BDE
06D95A1460C7080F4D60CB7FE70C91
06D98314608B080F4C60CC7FA50C8F
06D97C146042080F4C60CB7FB90E21
06D952146040080F4E60CA7FA00E22
06D91B1461A4080F5560CA7FD10DB0
06D9331462C2080F5C60CD7FAB0DB2
06D9961463A8080F6860CB7FAF0C70
06D9EE14648C080F7460C87FAB0C6F
06DA56146580080F7F60CD7FAA0CC2
06DAB61465CD080F8E60CC7FA70CC2
06DB261465D7080F9760CC7FA90E2E
06DBB11465F0080F9E60CA7FAA0E2D
06DC0E1465E0080FA260CB7FA40C73
06DC231465CB080FA160CA7FAC0C70
06DC1014657E080F9C60CD7FA90D72
06DBD7146543080F8F60CD7FE10D71
06DB971464C0080F8260CB7FE10C82
06DB3D146474080F7460C97FE70C7F
06DADC1464AF080F6060CB7FA30C63
06DAB114648D080F5060CF7FE00C51
06DA8514642F080F4060CB7FD90C54
06DA581463A8080F3360CC7FE20C20
06DA3E146347080F2960CC7FE00C1E
06DA311462F3080F2260CD7FED0D44
06DA111462F7080F2060CE7FE60D3E
06D9F91462EE080F2260CC7FEE0E3B
06D9F0146200080F2760CC7FE90E40
06D9DE146129080F2B60CD7FE80DEE
06D9D21461A0080F3460CD7FF20DF0
06DA1D14630E080F3E60CE7FE11064
06DA791464B9080F4760CC7FE91063
06DA8F1464A4080F5160CD7FD50E20
06DA981464DB080F5D60CE7FDB0E21
06DAA3146596080F6460CC7FDF0E33
06DAD514658E080F7160CD7FDD0E2E
06DAFF146588080F7B60CE7FE20E93
06DB10146589080F8860CD7FCA0E95
06DB351465A0080F9360CD7FC90CA5
06DB95146596080F9D60CD7FE10C9F
06DBBE1465A1080FA360CD7FDC0C4F
06DBBE1465AA080FA660CB7FCC0C4F
06DBC11465D2080FA560D07FDF0B72
06DBD6146615080FA160CD7FCF0B71
06DC03146608080F9960CD7FCD0B46
06DC301465CB080F8D60CD7FE00B49
06DC3B146520080F7E60CF7FDC0BB1
06DC0B14653E080F7160CD7FDE0BB3
06DBC4146564080F5F60CC7FD50D6F
06DB7C146503080F5160CC7FE20D75
06DB371464CA080F4560CF7FCD0DA0
06DAF2146496080F3C60CD7FDD0DA2
06DAC3146482080F3760CC7FDB0D9E
06DAB014645A080F3760CF7FDB0BE0
06DAB2146447080F3360CE7FE70BE2
06DAC3146422080F3660CF7FE90DD0
06DACA146416080F3460CE7FEA0DCF
06DACA14640C080F3760CD7FE60CF1
06DACF1463EA080F3860CE7FEF0CEE
06DAD31463CC080F3A60CF7FE80ED6
06DADB1463B6080F3D60CE7FEB0ED0
06DADD1463A0080F4060CD7FE80CB1
06DAE4146396080F4660D07FE90CAF
06DAE914637E080F5060CD7FE80C61
06DAEA1463AA080F5A60CD7FE80C63
06DAE914640A080F6460CD7FDA0D13
06DAF8146487080F7160CC7FE30D13
06DB47146534080F7E60CF7FD10C80
06DBBF14653A080F8C60CD7FC60C7E
06DC1E146551080F9660D07FC50C90
06DC49146560080F9D60CE7FC40C8F
06DC6914659C080FA160CE7FDC0FCC
06DC851465B4080FA060CD7FDD0FC6
06DC991465B8080F9960CD7FD70BA6
06DC9B146583080F9660CE7FDE0BA1
06DC9B146516080F8960CF7FC20C22
06DC7F14649B080F8060CE7FAA0C22
06DC4E146491080F7260CE7FDE0CCF
06DC361464D3080F6260CE7FE10CD0
06DC161464AF080F5660CD7F9C0BE2
06DBD1146474080F4B60CD7FC20BE2
06DB7F1463F3080F4260CD7FA30CB1
06DB481463A5080F3A60D07F9E0CB5
06DB34146383080F3860CD7F9C0C7C
06DB39146365080F3460D07F9C0C40
06DB3D14634C080F3660CE7FB90C3D
06DB3814634B080F3860CD7FE10E00
06DB38146356080F3E60D07FCB0DFE
06DB3D146342080F4560D07FB10D61
06DB47146333080F4D60D07FB50D62
06DB52146316080F5260D07FDF0D90
06DB57146338080F5A60CE7FAC0D90
06DB58146351080F6060CF7FAA0BC1
06DB52146373080F6460CD7FA20BC2
06DB4C14639F080F6860CF7FA40C13
06DB3F14638C080F6B60CE7FA70C10
06DB3A1463BB080F6960CF7FA70BA1
06DB461463C7080F6B60CD7FA70BA3
06DB581463AF080F6A60CE7FA40B9E
06DB62146396080F6960CE7F9B0BA3
06DB62146373080F6760CE7FB10CE1
06DB57146350080F6860CF7FA70CDE
06DB4B146356080F6C60CE7FA60B18
06DB4B146365080F6D60CF7F940B17
06DB4E146359080F7160CD7F820C6F
06DB4A146360080F7260CF7FA50C73
06DB49146350080F7060CF7FA80CAF
06DB49146333080F7660D07FAA0CB1
06DB4E146347080F7560CF7FA60D93
06DB721463B6080F6D60CE7FAA0D91
06DBC0146360080F5E60CE7F6C0BF3
06DBCD14632E080F4D60CF7FA50BEF
06DB931462BF080F3B60CD7FA80BE1
06DB5E14622E080F2A60CD7FA70BE1
06DB36146129080F1760CD7FA60C4D
06DADB1460E4080F0160CE7FB50C53
06DA65146038080EEC60CE7FAA0C51
06D9EA145FAB080ED460CD7FAA0BA0
06D965145F25080EBE60CE7FB00BA1
06D8D6145E2A080EA360CE7FA20C81
06D7F1145D11080E8460CE7F880C80
06D67F145CFE080E6460CF7FA60CEF
06D551145D0C080E4660CC7FA70CEF
06D4BB145B49080E2760CE7FAC0C60
06D3C3145824080E0560CE7FBF0C5E
06D1671456A2080DE660CC7FA50CF0
06CEBF14545E080DC360CE7FD00CEF
06CBF21452D6080D9F60CF7FF10E3C
06C919145153080D7C60CB800B0E3D
06C641144F44080D5760CE801E0EA0
06C3C0144B9A080D3260CD80440E9F
06C00F1447A8080D0F60CD80600FD7
06BC791446E6080CE660CD80820FD5
06BA02144590080CC160CD80B00E30
06B869144414080C9A60CF80D60E2C
06B6FB143DF8080C7160CD80F70DED
06B3EA143D09080C4560CE812F0DF0
06B137143C9E080C1D60CD816B0E02
06AFF9143996080BF260CC819A0DFD
06AEB61437C0080BC460CF81C91007
06AD6114359C080B9760CD820E1007
06ABF1143083080B6960CE82450F9A
06A9C5142EBD080B3860CB82840F96
06A7C9142BC3080B0660CD82CF0F60
06A5C9142AB5080AD460CD83110F63
06A4BD141E71080AA260CE83521275
06A341141592080A7160CE83901275
06A0F813FE72080A3F60CD83DD12E1
069D7D13D0B2080A0B60CD843615E3
0696B9139BDA0809DB60D0848E15E2
068CBD137A100809AC60CE85051810
06835313687708097960CD8594180D
067C11135F8208094A60CB861819BD
06776513505608091E60CD869419BE
06739E1357FA0808EC60CE871819DC
06712F1353A70808BE60CE87AF19DC
06700013435908089060CD881B17AE
066D5C1337D908085E60CB88BC17B2
06699F13225D08083360CC894E1603
0665631303B908080C60CB89E81607
06606412F4F80807F060CB8A85137D
065B6812F47E0807D960CC8B27137F
0658F812B1800807BF60CC8BAB10FD
0653D212BECF0807A660CC8C4110FF
06509312B42308078F60CC8CDF114C
064EBE12BA4E08077A60CC8D541150
064DB712A2C608076460CB8DD41208
064C4C1295F108074F60C98E441209
064A3012904508073C60CB8EB11258
064861128FDF08072A60CD8F0F1254
064738128A7108071860CC8F6D10CF
06466E12834608070860CB8FB510D2
06456C127FEA0806F960CC8FF6124C
06448E127C650806EB60CC9039124B
0643C7127C3A0806DB60CC90771101
064355127A340806CC60CB90A210FF
0642E5127B390806BC60CA90D0119A
0642C6127A820806AE60CB90E7119B
0642D812781C08069E60CA91091238
0642AB12772808069160CA911F123B
0642781274C508068660CA91331238
06422912732A08067960CC914E10D2
0641C41270EC08066A60CC916E10D3
06415D126F0C08065760CA9184121B
06411F126FA608063F60CB919E121B
06412A126EFB08062260CE91C7115D
064127126D1E08060560CB91F01160
064110126AA50805E660CD91E41054
0640C41269710805C460C992231056
0640761267970805A360CA920A122C
06402D1265F408058760CA92211228
063FDC12644208056B60CB92321313
063F7D12638E08055660C992301313
063F361260B708054360CB924B15D3
063EED1260B408053460C9925715D4
063EAF125E4D08052860C9925D1584
063E7E125A3D08051960CB926F1582
063E1612585C08050C60CA927A146E
063DB712563A08050060C99283146F
063D7412541B0804F260CA928D14C0
063D551252910804DA60CA929014BF
063D4C1251CC0804C460CB92981297
063D4512532E0804A760C8929E1296
063D5B1250CD08048460CC92A61293
063D5012524608046460CB92B41295
063D5B1250FA08044060C992B713AB
063D6812504208042060C992C013B0
063D55124DB608040760C992CB148D
063D1B124C750803F960C892DE1492
063CE4124B760803ED60C992E2141F
063CBC124A4F0803E160C792F01420
063CA212495F0803CF60C892F6141E
063C9812483D0803B860CB92FB14A3
063CA51247790803A160C89306149F
063CC31246D008038160C8930F147F
063CDB12468108036260CA9312147D
063CED1245E808033F60C9931A1595
063CFE1245A108032B60C7931A1596
063D0512445808032660C993261603
063CF512441008032460C9932C1601
063CE91243E408032460C893351532
063CE112434808032260C8933A1534
063CD51242F008031F60C89346152F
063CCD1242EF08032460CB93471531
063CCC1242D408033060C8935014A2
063CC51242D908033C60C89350149F
063CBE12427B08034860C79358147E
063CC212429608035160C69359147C
063CCE12425408035460C9935314CE
063CE612421508035260C7935414D0
063CF61241F508035160C793511552
063D041241A608035060C893531551
063D1812417508035160C993581577
063D2D12419408035360CA9356156F
063D3E12421F08035860C9935C16B4
063D3C12421108035E60C8935C16B8
063D3212423908036060C693651644
063D251242BA08035E60C893651647
063D0E1242B208035C60C9937016A5
063CFD12428008035860C7936016A5
063D0512423D08035560C79365182F
063D2112422C08034F60C99367182F
063D3A12421A08034C60C9935D1781
063D4212420808034B60CA93611781
063D3C1241ED08034D60C993631781
063D3012423408034960C893651606
063D1D12422C08034960C793651600
063D1512420408034460C6935C15F3
063D221241E008033D60C8935E15F0
063D3D12419E08033660C6935615F4
063D5C12418308033360C7935115F0
063D6E12416808033160C9935416D6
063D7712416808033460C7935016D3
063D7312418908033C60C8934C17FE
063D691241A608034260C893521801
063D5112423008034160C993531593
063D2D12421E08034460C793541593
063D1E12420208034260C8935516B6
063D271241CE08033D60C9934E16B8
063D3A1241DC08033960C9935217CE
063D4312420408033460C8935317D0
063D3812420608033960C993541761
063D2E12432908034A60C993541760
063D0712449108036160C9935E16F8
063CBC12447708037660C9936616F5
063C9012446508038860C9936415B2
063C7812444608039A60C7936B15B3
063C781243D20803AF60C8936914CE
063C8D1243EC0803C460C7936E14CF
063C9F12442B0803DA60C8937214A0
063C9B1244070803F060C9937514A0
063C9812443D08040A60C99379145F
063C9C12447E08042060CA9382145F
063CA512451B08043560C9937F14DF
063CA212454308044960C9938914DD
063C9C1244D408045C60C9938614DF
063C9F12451D08047260C8938314FE
063CA51245C008048860CA937D1501
063C9F1246650804A260CC937813BF
063C9C1246BC0804C160CC937D13C0
063C911247E80804E160CB93791490
063C8312491C08050360CC93741490
063C71124B1408052B60CC9377145F
063C5D12506F08055560CA93781460
063C4A12553108058260CB937C13CF
063C48125A4A0805B360CB938113CE
063C75125FD20805E860CC9382143D
063CEC12632608061A60CA93781440
063D6112676E08064B60CC937E1245
063DD7126DB408067E60CD936F1245
063E671272A00806AD60CC936011CB
063F021275B00806DD60CB935711CE
063F9512772F08070E60CC934B10DF
0640141278D408073F60CA933D10E3
064083127A7D08077260CC932F0F99
0640E2127BE00807A760CD932D0F9B
06412A127CAE0807DA60CD93221072
064168127CE108080F60CD93171070
0641AA127D1F08084860CE93141073
06420B12895D08088460CC93061074
0642FC12A05A0808C160CF92F51094
06430E12C3EF08090160CB92EC1094
06427112D92808093F60CD92EA1337
0643CF12EE7A08097F60D092DF1334
0649DB1304A50809C160CF92B6195E
0651311307ED080A0760CF927E195F
0655A9131D13080A4B60CF92751C03
0659EF13612F080A9160CE927A1C08
0662F61386E1080AD760D192641C05
066E6C13AC15080B1B60D1921F1CB4
06788F140C88080B5D60D091E31CB2
06847D141CD4080B9D60D0918012C2
068D45142042080BE360D0912D12C2
069333142411080C2360CF90E70FD7
0697D9142730080C6460D290AD0FD4
069B4B142CDF080CA760D2905A0F2E
069DBA1431BE080CEA60D4900B0F2E
069FD11435BE080D2F60D38FA30EF1
06A1E01439D0080D7760D48F330EEF
06A455144078080DC160D38EBA0E0F
06A76314481B080E0C60D58E260E10
06AB49144D39080E5660D58D970ED1
06B15E145621080EA560D48CF20ECF
06BB3A145C11080EF260D58C3F0E4E
06C5B2145FA0080F4260D48B760E50
06CE3114644C080F9060D58ACA0D63
06D48F1467C8080FE060D88A250D5F
06D8E6146D7A08102E60D689900B69
06DC321470B108107C60D788FC0B68
06DF171471AC0810C860D6886F0B65
06E0FF1471F208111460D787CF0B6A
06E22714725C08115B60D887430A45
06E2EC1473F508119E60D986B50A46
06E3D01474F20811E460D686360A87
06E4ED14764308122760D785AC0A84
06E74D14772B08127160D985290946
06E9A81477050812B660D884990945
06EB151476520812F960DA842D0B45
06ECC614773B08133A60DA83BA0B45
06EEDB1477AA08137D60D883480B44
06F09F1477A40813BE60DB82DA0A36
06F1D214777B08140160D982710A33
06F28C14776308144160DC82040A04
06F30614774508148360DD81980A0A
06F35014772B0814C560DD81310DFF
06F39114771E08150A60DB80C30E02
06F3CD1477C108154E60DE80610A57
06F43C14784D08159360DC7FFA0A53
06F4F91479010815DB60DC7FA508D6
06F5CF147C0C08162260DF7F3D08D4
06F6C214814A08166F60DF7EDE08F6
06F82714880F0816B860DE7E8408F5
06FAA5148B9E08170760DF7E2B074B
06FE29148E2308175760E07DD1074C
0701FA148F1F0817A360DE7D76071D
07052D1490C50817F460DF7D210719
0707BD14916808184360E07CCA074B
07097B1491BC08189560E07C6B074C
070A9F1492210818E660E27C0906ED
070B741492DE08193460E27BAD06EA
070C571493BC08197F60E37B450815
070D501493FB0819CE60E27AD30813
070E3C14945F081A1260E37A7006DC
070F001495C2081A5860E57A0A06D7
07103314961A081A9D60E479A10668
07115B14972B081ADF60E6793E066D
07127D14984B081B2560E478DF0677
0713CE149930081B6460E77887067D
07152F149A64081BA860E678200609
0716B8149BA0081BEB60E677D40609
071895149D52081C2D60E97788058A
071A99149F43081C6E60EA772D0589
071D0014A24E081CB460E876D30587
071FF514A36D081CFE60E77682056A
0722C014A419081D4560EB762F0568
0724C814A568081D9260E975D904A9
0726B714A774081DE160EA758604A7
07290C14A88C081E3060EB753505DB
072B5614AA33081E8360EC74D905D8
072D9E14AAED081ED760EC747D0499
072FB014ABDD081F2D60EB742D0497
07317814ADCB081F8460ED73D105CC
0733BA14B041081FDC60ED737405C9
0736D314B25108203060EE73150417
073A1314B51008208260EF72B00416
073E2F14B6F60820D460EF7254044B
0742C914B7FF08212860EF71E40447
0746ED14B89008217860F0717F037A
074A0414B9630821C560EF710C0379
074C5114BA1608220C60F2709E053C
074E3514BA6D08225660F1702B0538
074FA814BAE608229B60EE6FAA03A4
0750FB14BB510822E560F16F2D03A4
07526214BC4108232B60F26EA4034C
07539014BCBF08237460F46E190350
07549014BCD20823BB60F26D8C030D
07554514BD2008240460F26D06030C
0755E514BD8A08244B60F46C8102E9
0756F014BDB508249360F26BEF02ED
0757E014BDBF0824DC60F56B70030E
07587414BDC308252260F76AEF030C
0758C914BDC408256960F66A6C02DC
07590114BDE10825B060F869F802DC
07592E14BE0C0825F860F7698202C0
07595614BE6208264060F9691A02BC
07598214BEA708268960F968AB02BB
0759BC14BEF90826D860F6686002AB
0759FA14BF5E08272660F9681202AD
075A2C14BFDB08277460F767C002AB
075A4D14C0200827C760FA677702AD
075A6114C09408281660FC673B028D
075A6214C0F908286460F966FA028C
075A5614C1400828AF60FC66C50290
075A4A14C15F0828F660F9669C028B
075A3F14C16D08293960F8666F027E
075A3D14C19908297C60FC6648027E
075A3C14C1C50829BD60FC661C028A
075A4014C1DD0829FC60FD6625028E
075A4014C1FA082A3D60FC65F3029E
075A4314C1FF082A7E60FE65CE029D
075A4914C202082AC360FD65B3027C
075A4D14C203082B0E60FD659A027F
075A5314C203082B5A60FD6586027F
075A5B14C208082BAB6100656F027D
075A6314C212082C0360FF6559029D
075A6E14C22A082C5A61016541029D
075A7A14C25B082CB161016530028E
075A9114C299082D08610065210290
075AB714C31B082D626101651102BE
075AFC14C32F082DBB6101650102BC
075B4814C33E082E10610364EE02AC
075B8314C343082E66610364DE02AE
075BAB14C34E082EBB610364CE02CC
075BC214C34D082F0D610564B302CF
075BD514C351082F60610464A302AA
075BE014C365082FB26106648502AA
075C0614C372082FFF6103647302EB
075C4814C37308304E6105644C02EC
075C8F14C3730830996105643402EB
075CD114C3730830E26103641302CE
075CFD14C373083124610363FC02D0
075D1A14C377083168610563E1029D
075D2F14C3820831A7610663BC029E
075D4314C37D0831E1610663A3031E
075D5714C38208321E61076384031C
075D6C14C3810832586107636D02CD
075D7914C37D0832916106635102CA
075D7F14C3900832D06107633802BB
075DAA14C3A408330F6109631D02C0
075E1514C3BA0833526108630902FC
075E7714C3C1083397610762EE02FC
075EB414C3CA0833E0610962DC02FD
075ED214C3DE08342B610A62BC02FB
075EE914C3ED083475610762A40384
075F0414C3FB0834C06108628A0387
075F1B14C40908350E6108626E02CF
075F3514C4220835606108625902CF
075F4714C42B0835AD610A623C02DE
075F5914C42A0835FC6109622002DA
075F6E14C42608364B6109620B02EF
075F7E14C42B083697610861ED02EE
075F8C14C42B0836E3610A61D902EB
075F9D14C42F083730610A61BC02ED
075FAC14C44808377E610B61A002BE
075FC514C4870837CA6108618A02BC
075FF114C49F0838176109616E02CC
07602014C4B9083860610C615302CB
07604414C4DE0838A9610A6165034D
07607414C4F70838F1610B6145034D
07609C14C51D083938610A611F02F9
0760CE14C53A083980610C610502D9
07611414C55D0839C5610B60F902DB
07616214C579083A0B610A60DA02CE
0761A714C592083A4E610B60BE02CB
0761DC14C5CC083A93610D60A402DE
07620D14C5DD083ADA610B608B02DB
07623214C5E9083B22610C606B02EB
07624B14C601083B6E6109604C02ED
07625F14C628083BBF610C602A02FD
07627B14C634083C11610B600402FC
07628F14C645083C69610B5FE0030C
07629F14C64F083CBF610D5FCF0309
0762AD14C675083D17610C5F9D02FF
0762BA14C689083D6D610C5F7C02FE
0762CC14C6A9083DC4610C5F6002FE
0762DC14C6C3083E14610B5F3F02FD
0762EF14C6EA083E5E610C5F1A033A
0762FF14C707083EA5610A5F01033D
07630E14C715083EE9610C5EE40308
07631E14C71F083F27610C5EC80310
07632914C724083F63610D5EAD0388
07633214C732083F9E610C5E950388
07633814C74B083FD6610A5E7C035B
07633D14C76C084014610C5E62035B
07633E14C78A084054610D5E430339
07634014C7A7084096610A5E2F033B
07633C14C7B50840E061095E1B032E
07633A14C7C808412C610B5E04032B
07633714C7D7084179610B5DEF034E
07633B14C7FE0841CF610C5DDB034E
07633F14C85F084222610A5DCA033F
07634214C8B1084275610A5DB9033F
07634714C9430842C8610B5DA4033D
07634214CA0F08431C61095D95033B
07633D14CA4E08436A610B5D8C033E
07634114CA9B0843BA610C5D79034D
07634B14CAD608440861095D70034C
07635714CAF108445661075D5F03B9
07635E14CB280844A4610B5D4C03B5
07636D14CB760844F461095D340395
07638014CBA608453F610B5D21039A
07639314CBB008458C61085D15036B
0763A014CBC30845DE61095CFD036C
0763AB14CBFE08462961085CD0036E
0763B814CC5008467661085CD3036B
0763CB14CC7C0846C161085CA90375
0763D414CCF608470B61065C9E0379
0763D914CD1008475361085C8403C8
0763DF14CD4D08479961055C6603C8
0763E314CD910847DC61075C4F03E8
0763EA14CDA008482261075C3003E7
0763EE14CDB308486861075C150387
0763F014CDD30848A961065C020388
0763F714CE0F0848EC61065BE3035B
0763F714CE3608493061085BC4035D
0763F914CEC808497361065BB10418
0763FD14CEDC0849B961075B89041A
0763FD14CEE3084A0261045B7D0398
0763FA14CEFE084A4961055B610398
0763FB14CF29084A9161035B4F0387
0763FD14CF69084ADC61035B3E0388
0763F614CF81084B2861035B2A03A5
0763EC14CF82084B7261035B0F03A7
0763E214CF8F084BBC61045AFC037B
0763DF14CFB2084C0A61035AEE0375
0763E314CFCF084C5961045AD30375
0763EF14CFFA084CA761025AC60385
0763F914CFFD084CF561025AB10385
07640014D00E084D4061015AA00375
07640214D01C084D8A61005A980377
07640414D02B084DD761005A820374
07640414D052084E2061015A770379
0763FA14D079084E6960FF5A6B0377
0763EB14D083084EB061005A620379
0763E114D088084EF861015A560398
0763DF14D08C084F4061015A41039A
0763DF14D08C084F8860FF5A3A035B
0763E114D07E084FD260FE5A35035D
0763E714D07408501F61005A28036B
0763F014D07408506B61005A1C036D
0763F614D0C20850BA60FD5A1A0377
0763F514D14008510D60FC5A120379
0763E614D15908515F60FB5A0A0378
0763D714D1760851B360FE5A020375
0763CE14D19808520360FC59F80378
0763C814D19808525560FB59F40377
0763C214D1A70852A860FB59E60375
0763BE14D1A70852F460FA59E30379
0763BF14D1B008534060F959E10374
0763BF14D1C608538460FA59DE037D
0763C214D1C90853BD60FB59D40375
0763BF14D1DC0853F360F759D10375
0763C014D1E108542360F859BE0386
0763BF14D1EB08544860F859BE0386
0763C414D1F008546560F959B5033B
0763C414D1EA08547660F659A9033D
0763C114D1F008547960F559AA032B
0763BF14D1FE08546F60F559A6032F
0763B414D20308546D60F4599B032B
0763A614D1FE08546960F35998033B
07639A14D20408546860F5598D033B
07639414D1FE08546860F3598E0353
07639314D1FE08546760F3598C034D
07639214D1FE08546760F3597D032D
07639314D1F408546860F2597D032E
07639814D1FE08546760F05979032C
07639814D20408546960F15979032D
07639714D20808546760F0596F035B
07639414D1E608546B60F15971035D
07639314D20808546D60EE596E031E
07638F14D20D08547260F05966031C
07639014D20E08547860EF596402FD
07638F14D22008547E60EE59640301
07638E14D21B08548860ED59660311
07638D14D22008549160EA5961030D
07639014D22F08549B60EA595D02EE
07639714D2390854A160ED595802EE
07639C14D2470854A760EA595902FE
0763A514D2510854B060EB595202FF
0763AE14D2560854B260EA595002DF
0763B714D2600854B360EA595202DD
0763BA14D2690854B060E7594F032B
0763BB14D26B0854AE60E7594C032E
0763B614D2690854AD60E6594F036C
0763AB14D2640854A960E459420370
0763A514D2640854A760E75941036E
07639B14D2600854A360E7593E036D
07639D14D2640854A560E5593A0387
07639F14D2610854A660E559340387
0763A114D2640854A860E45934031B
07639D14D2560854AA60E3592F031C
07639E14D25B0854AD60E259300320
0763A014D2560854B160E0592F032C
0763A014D24C0854B260E05927032C
07639F14D24C0854B460E0592A031C
07639F14D24C0854B260DF592A031B
0763A214D2510854B260DF5928034D
0763A414D2420854B260E05923034E
0763A114D24C0854B460DF5925034E
0763A214D2470854B060DE5927034E
0763A514D24C0854B060DC592003F9
0763A514D24C0854B360DB592303FA
0763A414D2510854B260DC5925035E
0763A114D2560854B560DA591F035F
0763A114D2510854B560DB5921032F
0763A114D24C0854B960D9591B032A
0763A414D2470854B860D95920034E
0763AA14D24C0854B960D75920034D
0763AA14D24C0854BB60D65920032B
0763AE14D2470854BD60D65922032D
0763AC14D2510854C060D7592402FE
0763AD14D24C0854C460D4592002FD
0763AC14D2420854C360D65920032B
0763AD14D2470854C560D65922032C
0763AB14D2470854C960D3591F033F
0763AB14D2420854CB60D3591F033D
0763AE14D2420854CA60D2591B035B
0763AF14D2470854C960D159220359
0763AB14D2470854C960D1591B033B
0763AA14D2420854C760CF5920033D
0763AA14D2470854C660D0591E032E
0763AB14D2470854C360CF5920032F
0763AC14D2420854C160CD591D0350
0763AF14D2510854BF60CC591E035E
0763AD14D24C0854BC60CD591B035B
0763AA14D2510854BA60CC59210388
0763A714D24C0854B760CA591F0385
0763A414D2510854B560CB5924036A
0763A414D2510854B360C9591C036B
0763A514D2470854B360C859200384
0763AC14D24C0854B060C7591D0385
0763B214D2510854B460C65920035B
0763B414D24C0854B560C75922035B
0763B614D24C0854B960C8592103E5
0763B714D24C0854BE60C6592003E7
0763B714D2510854C460C5592202FA
0763B614D2560854CD60C5591F02FE
0763B314D25B0854D760C3591F031E
0763B114D26B0854DC60C35921031D
0763AF14D2640854E660C4592202FA
0763B014D2640854EA60C1591E02FF
0763B414D2690854EF60BF591B030D
0763B614D2690854F360C0591D030D
0763B314D26E0854F360BD591B031F
0763B414D2700854EF60BC5915031D
0763B614D26E0854EB60BC591A034D
0763B514D2780854E560BF591D034C
0763AC14D29A0854DE60BB5910034E
07639814D29A0854D560B95916034B
07638514D2950854CC60BA59140374
07637C14D2850854C560B959130377
07638214D2860854BE60B8591403D5
07638914D2820854BE60B8591103D4
07638D14D2780854BD60B859100368
07639814D2730854C060B759120371
0763A714D27A0854C460B5590E036C
0763B014D27D0854CB60B65915036D
0763AF14D2780854D360B55908036B
0763B114D2780854D960B3590E033B
0763B614D2730854DE60B2590D033B
0763B914D27D0854E060B2590B030E
0763BA14D27F0854E260B05908030E
0763B414D2860854E160AF590903C5
0763B214D28B0854D860B0590803C7
0763B114D2900854D560AF5907033B
0763AB14D29A0854CE60B05908033B
0763A414D2950854CA60AF590E0387
07639C14D28F0854C760AD59040384
07639F14D2900854C560AD5904034C
0763A414D2860854C360AA58FE034E
0763AB14D2900854C460AA59060382
0763A914D2950854C560AA59040387
0763A814D2940854C860A858FA035F
0763A314D28B0854CB60AA5905035A
0763A514D2900854CD60A758FF034E
0763AF14D2900854D060A75904034B
0763B214D2950854D160A55900034C
0763B414D29A0854D360A458FE0348
0763B114D2990854D360A358F60359
0763B014D29A0854D360A358F5035D
0763AE14D2A40854D360A358FC035B
0763AB14D2AD0854CF60A158F5035B
0763A614D2B20854D160A158FB032B
07639E14D2C70854D160A258F7032B
07638B14D2BC0854CF609F58F50360
07638014D2A90854D160A05901035A
07639214D29F0854D4609E5901034B
0763A114D29F0854D8609D59000348
0763AC14D29F0854E2609D58F5034C
0763B714D2990854E7609D58F40348
0763C214D29F0854F0609A58F7034C
0763CD14D2A40854F7609B58F2033E
0763CD14D2A40854FE609858FB033E
0763CE14D2A9085500609758FA033A
0763CC14D2AD085504609858F4033D
0763C914D2A9085504609758F9035B
0763C614D2B20854FF609758F9035D
0763BE14D2B70854FB609758F7033D
0763B214D2BC0854F5609758ED033B
0763AC14D2CB0854EA609558EF034C
0763AA14D2D20854E3609458FC034D
07639C14D2CB0854D9609258EC0385
07639314D2ED0854CF609158F70382
07637B14D2E80854C2608F58F20394
07636814D2F20854B7609158FB0395
07635F14D2E80854B1608F58F70387
07635E14D2F60854AB608F58F80384
07635C14D2ED0854A5608E58F0035B
07635F14D2ED0854A3608E58ED0360
07635C14D2D40854A6608C58FD035B
07636514D2C60854A7608C58F7035B
07637714D2BC0854AB608A58F50388
07638A14D2940854AF608A58E40388
0763A614D2780854B5608858F60388
0763C314D2730854BC608858F10382
0763D514D27D0854C2608758F1036D
0763DE14D2820854CA608858E8036C
0763E114D2850854CF608558E603A7
0763E314D2820854D3608458D903A8
0763E214D2820854D8608258EA0395
0763E214D2820854DF608158F80394
0763DE14D2860854E5608358F60395
0763DF14D2820854EB608458F103C6
0763E214D27F0854F3608258EF03C5
0763E014D2820854F6608358D103E8
0763E014D2860854FB608158E803E7
0763E014D2860854FB607E58E30423
0763DE14D2860854FE607F58DF0427
0763DD14D28B085501607D58E2037A
0763DB14D29E0854FF607C58F70375
0763CA14D2A90854FE607A58E70377
0763B714D2A90854FB607A58F60375
0763AB14D2B70854FC607B58EE0385
07639C14D2B20854F6607C58E80384
07639914D2A30854F9607B58E20479
07639C14D2AD0854F6607958E2047A
07639F14D2AD0854F3607758E603E8
07639C14D2AD0854F2607758DB03E8
07639514D2B70854EF607558D80395
07638C14D2BC0854E9607458FA0393
07638114D2C20854E6607558DB03A6
07637B14D2C10854DE607358EF03A2
07637114D2D00854D5607158D303B8
07636E14D2D00854CC607458E703B7
07636C14D2E30854C0607258E90381
07636A14D2E80854B2607358E20388
07635914D2FB0854A5607158D8035B
07634A14D2ED085498606E58E0035B
07634614D2F208548D606F58E00382
07634214D2F2085484606E58EA0386
07633714D2ED08547C606D58E603B4
07633414D2C7085479606C58EE03B7
07635014D29F085478606A58FB0375
07637B14D28208547D606C58D70377
07639E14D278085487606B58F50375
0763B614D290085494606858D3035B
0763B914D2900854A5606758F7035B
0763B614D27F0854B7606558EC0395
0763BD14D2860854CC606758E70394
0763C414D2780854E1606758E10419
0763CC14D2730854F6606558D40417
0763D914D28B085508606358F703D7
0763E114D294085518606458D903D7
0763E514D29A085524606258EF03C8
0763E814D29F08552E606358E203C8
0763EC14D2A4085535606358E1045B
0763EF14D29F08553B606258F8045B
0763EE14D29A08553C606058ED0418
0763ED14D29E08553A605E58F20419
0763E114D29A085534605F58F8035F
0763D814D29A08552C605E58EE035D
0763D014D2AD085522605C58F103C8
0763C114D2BC085517605E58D403C7
0763AA14D2CB085508605C58F903D5
07639214D2D20854F7605B58EA03D5
07638514D2D00854E7605958DD036A
07637714D2D90854D4605958E50368
07636714D2D90854C2605758FD034C
07636414D2D00854B0605958FA034B
07636914D2D208549F605758F00374
07636814D2D9085494605658E50378
07635E14D2D408548B605558E10394
07635A14D2D9085486605358DB0399
07635B14D2C1085484605458FA0398
07636D14D29F085484605458ED0399
07638614D294085488605258E10395
07639D14D28208548E605258CC0395
0763B314D28B085497605258D20393
0763C414D2900854A0604F58D20395
0763C914D2820854AB604E58F00395
0763D014D2900854B9604F58F103B9
0763DA14D28F0854C2604D58EF03B5
0763DF14D29A0854CC604C58F503C8
0763E014D29F0854D3604C58F803C7
0763CF14D29F0854DB604B58E00393
0763CA14D2950854E3604958E40395
0763D214D2940854E8604958F40386
0763E014D29A0854EF604958F70388
0763E014D29A0854F2604A58E80377
0763D714D29F0854F4604858F90374
0763D114D29A0854F5604558E9039B
0763CE14D29A0854F8604658C90398
0763CC14D29E0854F8604558D6035B
0763CE14D29A0854F6604558EC035D
0763CD14D29F0854F4604358D00406
0763CE14D29A0854F5604558E70405
0763CC14D29F0854F5604258DA0360
0763CA14D2AD0854F3604358D0035D
0763BE14D2B80854F1604158F7039A
0763B314D2B70854F3603F58E60394
0763AB14D2B20854F0604058DC03B4
0763A514D2BC0854EE604058C903B5
07639B14D2C60854EB603D58CB036C
07638D14D2C70854E8603E58F8036B
07638914D2BC0854E3603E58FB0379
07638514D2CB0854DF603C58CD0377
07638914D2D00854D9603B58D803C8
07638114D2E30854D4603958F403C8
07637214D2F60854D0603C58C503C2
07635C14D2E10854CE603A58CE0387
07635114D2E30854C9603958E90384
07635214D2D40854C8603758F90384
07635A14D2E80854C6603858CF0387
07635714D2DE0854C6603758C703D7
07635914D2D40854C5603658CC03D8
07635C14D2DC0854C7603758C903F3
07636314D2D90854C4603758D003F5
07635F14D2E80854C5603358FC0385
07635714D2E80854C6603458CD0387
07635814D2D00854C7603258CB03A8
07636514D2BD0854C5603258E203A7
07637214D2CB0854C4602F58FC0395
07637614D2D40854C6602E58F90398
07636914D2C60854C3602E58E20386
07637614D2C10854C1602D58D20385
07638214D2C10854BD602C58CD03C6
07638D14D2AE0854B9602C58F303C7
07639D14D2AD0854B9602C58E60427
0763AD14D2B70854B8602B58F40428
0763AD14D2B70854B8602C58D303D7
0763AA14D2B20854BD602858D103DA
0763AA14D2A90854C4602958F003E4
0763B414D2990854CC602958CE03E2
0763C414D28B0854D8602758C803C4
0763D514D28B0854DF602858E903C5
0763E214D2900854E9602758CF03B7
0763E814D28B0854EF602558C903B5
0763E914D28A0854F8602558D0035F
0763E914D2860854FD602458C9035D
0763E514D286085500602358E10386
0763E214D286085500602458E00388
0763DF14D290085500602258FB0384
0763DA14D2A90854FD602058F803A7
0763CD14D2B80854FB602158F503A5
0763BF14D2CB0854F6602158D7035F
0763AE14D2E30854F2602158CA035D
07639514D2E30854EE602058E8034D
07638514D2F20854E8601E58CF034E
07637614D2F20854E5601D58CF03D4
07636A14D2EB0854E1601C58CC03D5
07637014D2E80854DB601D58F90384
07636F14D2ED0854D9601B58CF0386
07636F14D2F60854D5601A58D303B5
07636A14D2ED0854D0601A58CD03BB
07636914D2E10854CA601A58CD039D
07637114D2E30854C7601958F3039B
07637914D2E30854C8601A58CE0406
07636614D2DE0854C6601758CC0407
07636014D2D90854C2601658C603A6
07636014D2CB0854C5601658D703A6
07637314D2C20854C7601558EE0406
07638714D2C10854C9601558CC0409
07639E14D2C10854CA601558E80395
0763A714D2C60854CA601358CD0394
0763AC14D2C10854CA601358E40375
0763B114D2C10854C9601358D30377
0763B714D2C70854C5601158CD034C
0763B714D2D40854C4601158CB034C
0763AD14D2D90854BD601058EE0384
07639F14D2D90854BA600F58D9038A
07639614D2D40854B4600F58F10388
07639514D2E10854B5600D58C70388
07639614D2D00854B6600C58D30394
07639C14D2D00854B6600C58C80394
07639F14D2CB0854BC600B58F90395
0763A614D2BC0854C2600C58CF0398
0763B714D2AD0854CA600B58D70399
0763C214D2B80854D0600B58CC043A
0763D014D2CB0854D5600958C80438
0763D014D2C60854DB600858C7035D
0763C814D2BC0854E1600958CF035D
0763CD14D2C10854E1600658CC0320
0763CC14D2C20854E5600558C6031E
0763CD14D2BC0854E8600658CB0388
0763CE14D2C10854EA600558CF0382
0763D114D2C60854F0600658CE035A
0763D114D2C60854F2600558D4035B
0763D514D2C10854FA600258CF035A
0763DB14D2BD085501600258CD035B
0763E214D2C1085506600258CF0399
0763E514D2BC08550D600158CE0397
0763E714D2B7085511600158D0034E
0763E814D2B70855145FFF58CC034D
0763E914D2BC085515600058CC0359
0763EA14D2C2085510600058CD0359
0763E614D2CB0855085FFF58CC032D
0763DD14D2E30854FE5FFC58A1032F
0763CA14D2E30854F25FFD58AE036E
0763BB14D2ED0854E55FFD58CF036D
0763AD14D3050854D45FFA58B8032C
07639814D30F0854C45FFB58A7032F
07638514D3140854B35FF858BE0394
07637614D2FB0854A25FF858BD0398
07637714D2F20854945FF958CE035D
07638114D2E80854885FFA58CE035B
07638514D2E108547C5FF758A003A0
07638B14D2DE0854785FF758CB03A7
07639414D2D40854745FF558B203A5
07639C14D2CB0854745FF558CB039B
0763A614D2B208547B5FF558CE0397
0763B914D2A40854815FF358D30370
0763CA14D29908548E5FF258D2036D
0763DA14D2A408549A5FF358CD036E
0763E014D2AD0854A75FF358D2036E
0763E114D2A40854B95FF158D503B9
0763E714D2A40854C75FF2589F03BB
0763E914D2A30854D65FF158BC0388
0763EF14D2A40854E35FF058D30388
0763F114D2A40854F15FED58D20397
0763F514D2A40855015FEF58A10393
0763F714D2D008550D5FEF58D5034C
0763F914D2E30855185FEF58AF0350
0763FF14D2BD0855245FED58D60398
07640014D2C108552B5FEC58D30393
0763FF14D2BC08552F5FED58D103DA
0763FC14D2B708552F5FEC58CC03D7
0763F714D2BC0855315FE858CD035E
0763F614D2C60855295FEB58B6035B
0763EC14D2D20855225FEB58AE031B
0763DB14D2CB0855155FE858D5031F
0763D414D2D008550A5FE858A00351
0763C614D2E80854FB5FE558BF0350
0763B714D2E80854EB5FE758D30379
0763AA14D2DC0854DD5FE658D60375
0763A414D2D40854CC5FE558CE0395
0763A414D2D00854BF5FE358AC0397
0763A914D2DE0854B45FE458D00386
0763AE14D2D40854A75FE458CB0386
0763AF14D2D008549E5FE358A5039B
0763AD14D2CD0854935FE358BC03C8
0763AF14D2C608548C5FE258AC03C2
0763B214D2B70854885FE258D00388
0763BB14D2B20854895FDF58CF0386
0763C614D2AD0854895FE258D703C7
0763CF14D2AD08548F5FDE58D003C8
0763DA14D2A30854995FDE58CF03A7
0763E314D29A0854A45FDE58B503A8
0763EA14D2A40854AE5FDD58C90408
0763F014D29A0854BA5FDD58BC0407
0763F414D2A40854C55FDD58D7037A
0763F514D2990854D25FDB58D50375
0763F514D29F0854DB5FDB58D10395
0763F914D29F0854E35FDA58D60399
0763F714D2A40854E85FD858D80388
0763F714D29F0854EE5FDA58CF0386
0763F714D2A40854F05FD758D4032C
0763F414D2A90854EE5FD858CD032F
0763F014D2AD0854EE5FD858CE032C
0763EA14D2B20854EA5FD758AA032C
0763E514D2B70854E85FD758AC033D
0763E114D2BC0854E45FD658D3033E
0763D814D2B70854E25FD458D503C8
0763D614D2B80854DF5FD458CE03C8
0763D814D2BC0854E05FD458A90399
0763D914D2B70854E15FD358AE0395
0763D914D2B70854E65FD358B9036B
0763DB14D2B70854E95FD258CB036A
0763DF14D2B30854ED5FD158CF034B
0763E214D2B20854F45FD058A8034B
0763E614D2B70854F75FD358B403A7
0763E714D2B70854FC5FD058D403A5
0763E514D2BC0854F95FCF58D803A5
0763E314D2BC0854F65FD158B5033B
0763E414D2CD0854EF5FCE58A10338
0763E014D2D90854E55FCD58D5035D
0763D714D2D40854D95FCE58AF035B
0763D114D2D90854CC5FCD58A6036E
0763C814D2E80854C25FCB589F036B
0763BE14D2F20854B75FCA58A703A7
0763AE14D2EB0854B05FC958CF03A8
0763A514D2DE0854A85FC958A503C5
0763AF14D2D40854A85FC958A703C8
0763BC14D2D90854A65FC858D00386
0763C114D2D40854A85FC758A50384
0763C314D2CD0854AE5FC658CD036B
0763CD14D2C60854B35FC958BC036C
0763D514D2C10854BB5FC658D1036C
0763DC14D2C10854C15FC658C70368
0763E314D2C10854C75FC558AB0375
0763E714D2C10854CC5FC358D00375
0763EA14D2C20854D25FC458BE034D
0763EC14D2C10854D85FC458D1034E
0763F014D2C10854DB5FC358D7036E
0763EE14D2C10854DF5FC358B4036C
0763ED14D2C60854E35FC258A3033E
0763EB14D2CB0854E25FC058B7033D
0763EA14D2C70854E25FC258C0035B
0763E714D2C60854E15FC158A2035D
0763E614D2C10854E15FBF58AC03E7
0763E514D2CB0854DE5FBF58B503E7
0763DE14D2D00854DB5FBE58AC03D9
0763DA14D2D20854DA5FBE58BA03D8
0763DB14D2CB0854D85FBC58A60381
0763DA14D2D00854D55FBD58A50382
0763DA14D2D00854D45FBD58D10384
0763D814D2D00854D25FBA58B70319
0763D714D2D00854D35FB958A1031A
0763D814D2C70854D25FBB58B40339
0763DA14D2C10854CF5FBB58C3033B
0763DA14D2CB0854D25FB958B9033B
0763DC14D2D00854D65FB858D7033F
0763DA14D2C60854D65FB958A60386
0763DC14D2CB0854DB5FB758D2038B
0763DE14D2CD0854DC5FB858CF032B
0763DD14D2CB0854E25FB558C1032F
0763DC14D2CB0854E85FB758A6034D
0763DB14D2C60854EC5FB358B80348
0763DB14D2CB0854F05FB558C6031B
0763DD14D2CD0854F35FB558B4031C
0763D914D2DE0854F55FB458B7034E
0763D114D2D90854F45FB458AE034E
0763CF14D2D90854F25FB258AA032E
0763D414D2D90854EF5FB158C4032D
0763D814D2DE0854E85FB258AD0375
0763DB14D2E10854E25FAF58BD0374
0763D714D2E30854DB5FAF58AC0374
0763D014D2E30854D45FB058B00375
0763CB14D2D90854CA5FB258AC0382
0763CE14D2DE0854C35FAE58A90384
0763CC14D2EB0854BA5FAD58C0035B
0763C714D2E30854B55FAE58A80360
0763C714D2DE0854AF5FAD58AE034B
0763C514D2D40854AA5FAD58C5034D
0763CB14D2D00854A65FAB58C8035B
0763CF14D2D40854A35FAB58C3035B
0763CD14D2DC0854A55FA958CB0397
0763C914D2CB0854A65FA958B00399
0763CF14D2C10854AA5FAA58AB0393
0763DC14D2C10854AF5FAA58C3036B
0763E014D2C10854B55FAA58C7036D
0763E414D2B70854BA5FAA58A2036D
0763E614D2B80854C25FA858CE036A
0763EA14D2B20854C75FA858AF034C
0763EE14D2A90854C55FA458D30351
0763F114D2B70854BF5FA658B7034D
0763EB14D2CB0854B55FA558B4034D
0763E014D2D20854AE5FA458D6032C
0763D614D2D00854A75FA358C50330
0763D114D2D008549F5FA458B0034B
0763CE14D2D40854A05FA358C9034C
0763CE14D2D40854A45FA358D90395
0763CF14D2CB0854A85FA158D30395
0763CE14D2C70854AD5FA158C9036C
0763D414D2BC0854B25FA258A2036A
0763D814D2BC0854B35FA058BE034E
0763DD14D2BC0854B85F9E58BB034A
0763E114D2BC0854BC5FA258C1035F
0763E214D2BC0854BD5F9E58D7035D
0763E314D2C20854BD5F9E58D6036D
0763E214D2C10854BE5F9D58AC036C
0763E114D2C10854B95F9D58AC0331
0763DF14D2B70854B55F9D58D8032F
0763DD14D2B70854B05F9B58AC035B
0763DB14D2B80854A85F9E589E0359
0763DB14D2BC08549F5F9D58B3036B
0763D514D2BC0854935F9A58A7036D
0763D114D2BC0854845F9B58C40375
0763C714D2C60854795F9758B50377
0763C314D2C608546E5F9958A60353
0763BE14D2BD0854625F9958D5034D
0763BC14D2C60854545F9958B9034E
0763B714D2BC08544A5F9858AB0397
0763B414D2BC08543D5F9758CB0397
0763B314D2CB0854345F9758D30388
0763AD14D2CB08542E5F9558D30388
0763A614D2D208542C5F96589F0374
0763A314D2AD08542C5F9558D30377
0763AC14D28B08542D5F9458CD036E
0763C214D2730854355F9458CC036D
0763D714D27808543D5F9358A40378
0763E214D27A08544D5F9258A10379
0763E914D27808545A5F9358D10428
0763EE14D27D0854685F9258CF0429
0763F014D28208547A5F9058CD03A6
0763F114D29008548D5F9158CC03A5
0763F314D2A908549D5F8F58CD0385
0763F614D2AE0854AB5F8F58CE0386
0763F814D2AD0854BB5F8E58CE03A7
0763F814D2BC0854C85F9158CF03A2
0763FB14D2C10854D45F8F58CD0375
0763FE14D2C60854DB5F9058CE0375
0763FF14D2C10854DF5F8F58CF034D
0763FE14D2C20854E35F8D58D2034E
0763FE14D2BC0854E25F8D58D10379
0763FB14D2B20854DE5F8D58D30375
0763F514D2BC0854D75F8C58CD03A5
0763F214D2B70854CD5F8A58B403A8
0763EA14D2B30854C15F8A58AD03A6
0763E514D2B20854B35F8B58BD03AC
0763DE14D2C10854A55F8958D1032D
0763D314D2B70854935F8A58A8032D
0763CA14D2B20854875F8A58A40341
0763C514D2A40854795F8758C00385
0763C514D2A908546B5F8858A10385
0763C514D2B20854635F8558D303A5
0763C014D2AD08545B5F8858CC03A8
0763BB14D2A40854555F8658D70388
0763BD14D2A40854505F8458D60384
0763C014D29F08544E5F8658A50395
0763C514D29408544D5F8558B60395
0763CB14D2860854515F8458A10393
0763D614D27D0854535F8458D40399
0763E214D27D08545A5F8358A70377
0763EA14D2950854605F83589F0379
0763EA14D2990854675F8658D4036B
0763EA14D2A408546D5F8158D2036D
0763F014D2A90854725F8158CE0379
0763F414D2A40854765F8358D00375
0763F314D2A908547C5F8158CF0375
0763F714D2A408547E5F8058AD0374
0763F714D2A90854805F8258CE032E
0763F814D2A90854845F8158CD032B
0763F414D2AD0854885F8058CC033D
0763F314D2B208548C5F8058D1033F
0763EF14D2B20854905F7F58D0035D
0763EA14D2B70854945F7E58BB035A
0763E914D2B30854975F7C58CF035E
0763EB14D2B708549C5F7D58CE035B
0763EC14D2BC08549C5F7958D2033D
0763EC14D2B708549D5F7D58D5033B
0763EC14D2BC08549E5F7A58CD0359
0763EC14D2C20854A15F7958D5035D
0763EB14D2CB0854A15F7858C30310
0763E014D2C608549E5F7A58A7030D
0763DA14D2D008549C5F7858CE030B
0763DB14D2CB0854995F7858D20348
0763DE14D2C60854985F7958CD034E
0763DE14D2C70854965F7958A20387
0763DE14D2C60854945F7858AB0385
0763DE14D2C60854915F7658B80393
0763E214D2C608548C5F7658AC0397
0763E114D2C60854895F7858C3036B
0763DF14D2C20854855F7558BC036A
0763DE14D2C10854845F7458A80377
0763DE14D2C10854845F7558AE0377
0763E014D2BC08547F5F7458C60377
0763E014D2B708547F5F7558A80378
0763E114D2B708547D5F7358CB0397
0763D914D2C708547E5F7058C00395
0763D014D2BC08547E5F7358AC036C
0763CA14D2B708547D5F7258B5036B
0763CA14D2BC08547E5F7358B00347
0763CD14D2BC0854825F7158A5034B
0763CC14D2B70854855F6F58D3033B
0763D114D2AE0854885F7058D7033D
0763D914D2B20854895F7058D4035B
0763DE14D2AD08548E5F6F58D6035B
0763DE14D2B208548D5F6E58B40377
0763E014D2AD08548D5F7058A20375
0763DF14D2BD08548C5F6E58D50374
0763DB14D2C10854895F6F58A4037B
0763D214D2C10854835F6C58CF0407
0763CE14D2BC08547A5F6E58D40406
0763C514D2B70854705F6958A9036E
0763C214D2B208546A5F6B58C6036B
0763C214D2B80854665F6D58D203A6
0763C214D2B708545F5F6A58CB03A6
0763C314D2AD08545C5F6958B903A6
0763C714D2B708545E5F6758D30385
0763C814D2A90854635F6A58D60386
0763CA14D2950854685F6958BC03A8
0763D414D2940854755F6958A803A2
0763E214D2B20854805F6958D0034B
0763EE14D2C108548F5F6858D4034D
0763F514D2CB08549B5F6958D604AA
0763F914D2D40854A65F6858D704A8
0763FD14D2D70854AE5F6558D60375
07640014D2E30854B45F6558A50373
07640214D2D40854B75F6458D4035B
07640314D2D40854B85F6658AE035B
07640014D2D00854B45F6558D2036B
0763FE14D2D40854B05F6658BA036B
0763F514D2CD0854AB5F6558B30387
0763EA14D2CB0854A45F6458A60387
0763DF14D2C608549C5F6358AF0385
0763DC14D2C60854935F6458B80388
0763D814D2D408548B5F6258B8036D
0763D414D2D40854845F6158A9036C
0763CC14D2D708547F5F6358A4036E
0763C614D2D408547A5F6158A9036E
0763C414D2D40854725F6158B80393
0763C414D2D40854715F5D58B70395
0763C214D2D008546E5F5F58A703A5
0763C614D2C708546D5F5E58BA03A2
0763CA14D2C608546E5F6158A8035A
0763CF14D2C608546D5F5E58B5035B
0763D314D2BC0854715F5F58A70368
0763D714D2B20854735F5E58B8036E
0763DA14D2A90854785F5D58C0036A
0763DF14D28F08547D5F5D58BD036B
0763E314D2860854845F5D58C4036B
0763E514D2860854875F5C58BF034D
0763E914D28608548F5F5B58BA034D
0763EA14D2900854965F5A58B8035B
0763E914D2900854965F5B58B9035A
0763E614D2940854975F5C58A5033E
0763E514D2900854955F5A58B00339
0763E614D2900854925F5958CF031C
0763E514D29508548F5F5758D3031E
0763DF14D2950854885F5758CE039A
0763DA14D2990854815F5958BF0398
0763D414D29A08547E5F5858B10375
0763D414D2950854795F5658A00375
0763D414D29A0854735F5758D10395
0763D514D29A0854725F5758AE0392
0763D114D29A0854715F5658D503C7
0763D314D29E0854735F5758D303C7
0763D414D2A90854745F5558D10436
0763DA14D2B208547A5F5858B20437
0763E114D2B70854815F5558CD035E
0763E614D2C10854875F5358CE035D
0763EC14D2AD08548E5F5458CD0395
0763EF14D2A90854915F5258CF0398
0763EF14D2A90854965F5358D6033B
0763ED14D2A40854995F5358D5033A
0763EE14D2B208549B5F5258BC0350
0763EE14D2B708549A5F5358A3034C
0763EA14D2B808549A5F5258A6036A
0763E814D2A90854995F5358D0036C
0763E314D2AD0854975F5258A70360
0763DF14D2AD0854965F5058BF035B
0763DB14D2A90854945F5058B90368
0763D714D2AD0854935F5158B00368
0763D714D2AE0854905F5058AF0368
0763D814D2A90854915F5058B1035D
0763DC14D2A908548F5F4E58A4035D
0763DE14D2AD08548C5F4D58CE036C
0763D714D2AD08548A5F4E58B2036A
0763D814D2A30854885F4E58A9036D
0763D814D2B20854855F4D58AD036C
0763D314D2AD08547F5F4B58C303D7
0763D614D2A908547C5F4D58A903D4
0763D814D29F08547A5F4E58B9035B
0763D714D29F0854795F4A58B5035B
0763D414D2990854795F4B58C60374
0763D014D29A08547B5F4C58A50375
0763D514D29008547E5F4B58C903A6
0763D814D28B08547D5F4958A803A6
0763D914D28B08547E5F4858B6034D
0763DC14D27D0854815F4958A7034D
0763DD14D27F0854815F4758A70398
0763DE14D2820854805F4858A90397
0763DE14D28208547E5F4858BD0359
0763D814D28B08547C5F4658C6035D
0763D514D28608547D5F4658B2033B
0763CF14D28508547C5F4758CF033B
0763D214D28B08547E5F4758C60378
0763D214D28B0854815F4658BC0375
0763D114D2820854875F4558D4032B
0763D114D28208548D5F4558CE032D
0763D514D2820854925F4558C9035B
0763DA14D27F0854985F4558CF035D
0763DB14D28208549B5F4458AC036D
0763DE14D28208549E5F4358D0036C
0763E014D2860854A05F4458CC036B
0763E214D29008549F5F4358CB035B
0763E014D29508549B5F4458CF035B
0763DD14D29E0854935F4458C8035B
0763D914D29508548A5F4158CD035E
0763D514D29A0854825F4358D10384
0763CF14D29A0854795F3E58A60388
0763C714D29F0854765F4058D2036C
0763C114D29E0854725F4058CB036B
0763C214D2950854735F4158CF03E6
0763C714D2950854755F3E58CD03E8
0763CE14D29A08547A5F3D58CF0375
0763D414D2A40854805F4058CD0374
0763DE14D2A408548A5F4058CD034E
0763E514D2990854915F3D58CF034A
0763E914D29A0854915F3E58CE034E
0763EA14D29A0854915F3C58CF034D
0763E814D29A0854905F3C58CB033B
0763E614D2A40854895F3D58CE033D
0763E114D2A908547E5F3B58CE031C
0763DD14D2A30854705F3C58C2031A
0763D614D2A40854595F3C58CF034E
0763D314D2A40854415F3B58D0034C
0763CC14D29F0854225F3B58D0032E
0763C414D2900853FD5F3A58CE032D
0763C014D2850853D55F3A58CD031D
0763C114D2780853B05F3A58E4031D
0763C314D2780853865F3758CF034E
0763C414D2780853605F3858D0034E
0763C214D26E0853345F3858D0035D
0763BF14D26008530E5F3758CF035A
0763BD14D2660852E55F3658CB035D
0763BC14D2640852BF5F3758CF035B
0763B814D2640852985F3658CE035F
0763B414D2510852735F3858D10377
0763AF14D2560852485F3558D10375
0763B014D22D08521F5F3458CD0387
0763AF14D1EB0851F05F3558D00386
0763B614D1C40851BB5F3658EB0377
0763BF14D1C40851825F3458D00377
0763C214D1B50851475F3458D0035E
0763C414D1BF0851075F3558E5035B
0763C314D1A30850C65F3458E80359
0763BE14D19308507E5F3358FB0361
0763BD14D17B08503A5F3358E10357
0763BE14D171084FF55F3358D9035F
0763BE14D14A084FB25F3258FA036E
0763C314D137084F6E5F3158F50370
0763C914D123084F2C5F3258F503A8
0763CC14D115084EE65F3258EC03A8
0763D114D101084EA15F3158F8034E
0763DA14D0D5084E5D5F2F58FC034E
0763E114D0DF084E185F3158F9035F
0763E614D0E4084DD45F2E58FE035F
0763E614D0D0084D8E5F2F5902036D
0763EA14D0C2084D475F2D590D0370
0763EB14D0B3084D005F2E590E035B
0763EF14D09B084CB35F2E5912035E
0763F714D092084C695F2C591D035B
0763FE14D09B084C205F2E591A035D
0763FC14D09B084BD45F2B59200348
0763F714D08C084B8A5F2C5925034B
0763F614D079084B415F2C5924035B
0763F514D083084AF75F2D59310359
0763F514D06E084AAF5F2D59370387
0763F414D06F084A675F2D593B0384
0763F114D048084A215F2E59370388
0763F114D04D0849DD5F2B5940034D
0763F414D03508499C5F2A593D034E
0763F614D0260849585F2C593B035E
0763F914D0210849145F2A593B035D
0763F814CFC00848D15F295945036B
0763FD14CF9408488C5F295941036A
0763FD14CF7708484A5F295943034D
0763FA14CF3A0848075F275947034E
0763F714CF160847BF5F28594A035E
0763FB14CEDC0847755F27594C035E
0763FC14CECD08472A5F275950034D
0763FD14CE980846DB5F275951034D
0763FC14CEC408468D5F275957034A
0763F814CE8E0846415F27595C034D
0763F514CE5D0845F85F24595F036A
0763F814CE310845B65F275962036C
0763F814CE2308456F5F265968034E
0763F814CE1408452A5F255975034D
0763F714CDD30844E45F2859740388
0763F814CD4D08449F5F2459840388
0763F314CD740844575F255987034D
0763F114CD480844115F23598C0350
0763EC14CC9E0843C95F21599B033B
0763E214CC8608437D5F21599E033B
0763D814CC990843305F2159A3036C
0763D014CC110842E05F2559A9036B
0763C314CBBA0842915F2259B4034C
0763AF14CB930842425F2259C2034C
07639F14CB150841F25F2259C6032D
07638E14CADF0841A05F2159D7032E
07637F14CAB40841505F2159DF030E
07637314CA610840FD5F1F59F5030D
07636914CA000840AD5F215A020309
07636414CA4908405F5F205A10031D
07636014C9E80840125F1E5A2C031E
07635F14C991083FC75F205A41030D
07635D14C99F083F7D5F1F5A4C030B
07635C14C943083F325F1D5A67032B
07635B14C8E7083EE35F1E5A77032D
07635714C8DD083E9B5F1E5A8F032B
07635514C8B6083E4F5F1D5AAF032C
07635414C838083E065F1E5AB7033D
07635314C833083DBD5F1B5AD60339
07635314C825083D715F1C5AE9033F
07635314C7BA083D275F1D5AFF033E
07634F14C7B0083CDB5F1D5B18032D
07634914C7A9083C945F1C5B310329
07634614C771083C4A5F1B5B3F030E
07634214C763083C045F195B5E030C
07633E14C732083BBA5F1B5B70030D
07633714C724083B715F195B80030C
07633314C6E2083B2A5F185B9A02EB
07632914C707083AE35F195BA902ED
07632214C6DB083A9B5F1A5BBF02FF
07631A14C697083A555F185BD302FD
07631014C68B083A0D5F1A5BE302ED
07630714C67F0839C35F195BF302ED
07630014C6400839785F195C0902C8
0762F114C6010839305F175C1602D0
0762DC14C5FC0838E45F185C2902EB
0762C714C5FB0838995F175C3602E7
0762B814C5E908384B5F185C4602CB
0762A914C5B40837FE5F175C4F02CF
07628A14C57E0837B15F155C6102CE
07625C14C5250837635F175C7202CC
07621D14C51D0837135F145C8602CB
0761E214C51D0836C65F145C9102CC
0761BF14C50008367B5F125C9E02CD
0761A314C4F708362D5F175CBA02BE
07618914C4D50835E45F155CDD02BE
07616F14C4C608359D5F145CD802CC
07615014C4960835525F145CE702CD
07612D14C49608350B5F145CFC02D9
07610714C47C0834C65F135D2002DA
0760EF14C4600834825F115D3802DD
0760D314C45C08343D5F115D5402DC
0760BE14C42B0833F25F135D6702EC
07609C14C42F0833AB5F145D8302ED
07607F14C4220833635F105D9D02DD
07606814C3E70833185F125DBA02DC
07604214C3B70832CF5F115DD702FB
07600F14C3BF0832825F105DF10303
075FE814C3A40832325F0F5E0802BC
075FC114C37D0831DF5F0E5E2502BE
075F8E14C37D08318C5F0E5E4B02C0
075F5814C3730831375F105E5A02BC
075F3514C3680830E15F105E7802CC
075F0814C34D08308D5F0F5E8E02CD
075ECB14C33E0830355F0F5EB102BC
075E8E14C326082FDF5F0F5ECB02B9
075E2C14C32B082F8B5F0D5EE602CF
075DEF14C32B082F3A5F0B5F0002CD
075DCC14C326082EEB5F0E5F2902CE
075DBD14C326082E9F5F0C5F4802CB
075DA814C31B082E575F0D5F5F02FC
075D8114C30E082E135F0F5F8002FD
075D5214C309082DCF5F0C5FA102FB
075D3114C309082D8F5F0B5FBD02D9
075D1914C302082D515F0C5FE002DE
075D0214C2FA082D175F0B5FFD02DE
075CEE14C2FA082CD55F0C601C02D8
075CDC14C2F5082C995F0C603802E9
075CCD14C2DE082C575F0B605B02EE
075CA214C2D4082C145F0A607602DE
075C7A14C2D8082BCF5F0D608E02DC
075C5F14C2BB082B8A5F0A609E02CC
075C4A14C2A3082B445F0B60BA02CC
075C2914C269082AF85F0960D702DF
075BF314C273082AB05F0960EC02DD
075BCD14C22F082A645F0A610502A2
075BA914C234082A1A5F086118029C
075B8914C2210829D15F0A612E028D
075B6B14C21C0829815F086145028D
075B5D14C2250829365F096154029B
075B5714C1E60828E95F086184029C
075B3814C1AC0828945F066193025F
075B0814C16D0828405F0861AE025B
075ACF14C1420827EC5F0761C9026D
075AA314C13D0827965F0761E0026C
075A8E14C1450827425F0661FD027D
075A8214C1250826EA5F0762160279
075A7F14C12A0826965F066229025B
075A7F14C0FE0826445F076249025F
075A7D14C0D50825F25F056267027F
075A8014C0D30825A35F05627D027F
075A7E14C09908255C5F05629702AD
075A7E14C0080825125F0562AF02AC
075A7514BFA80824CD5F0562CD029C
075A6914BF7208248A5F0562E3029C
075A6114BF6D0824445F0462F702AF
075A5814BF160824015F05630902DA
075A4814BECD0823BC5F04631602DB
075A2F14BE7B0823805F02632C02CC
075A0C14BE4108233F5F03634102CD
0759DB14BCF40823005F05635002EA
07593E14BC6E0822B95F02635E02EB
07587414BC980822775F03637802EC
0757F314BC240822305F00638402EB
07578214BB770821E55F0263870375
0756CD14BB280821A05F0563930375
0755ED14BAA70821525F0363A4036C
07551114BAEB0821035F0163B5036E
07547514BA660820B65F0063BA035F
07542B14B9E10820675F0163C5035E
07536B14B8F00820195F0063D503A5
07525214B7FA081FCD5F0163E503A8
0750BC14B7F4081F835EFF64010427
074F6414B726081F385F0264160428
074E3614B627081EF05F0064300417
074CB614B494081EAD5EFF64480419
074ABE14B39D081E685EFF64600487
07486814B2BB081E275F01648F048B
07469214B248081DE55EFF64BA04E7
0744F314B0CF081DA25EFF64DF04E9
07431014AEE2081D5F5F006519052A
0740C514AB78081D1D5EFF6547052B
073D1814AD16081CD65EFD658A0538
073AEC14AD83081C955EFD65DB053B
073AA514AC68081C4D5EFE6623052A
073A1414A755081C025EFD665F052B
07371114A43A081BBA5EFE66B10586
07327A14A0DE081B6E5EFD67170588
072D7614A096081B215EFD677C0586
0729C514A070081AD45EFB67DF05E9
0727CF149D9D081A885EFB684105E7
072597149D49081A3A5EFD68AE05E8
0723B9149DAD0819EC5EFC691305E9
0722EE149C9808199E5EFC6986062A
072223149AD80819525EFC69F40629
0720AC1497A40819065EFC6A6F068D
071DC914965C0818BD5EFB6AF0068C
071AF51496360818745EFC6B53073B
0718D814973008182A5EF96BE4073C
07183F1496530817E25EFB6C5006FB
0717D614953F08179B5EF96CB606FC
0716EA1494640817525EF96D21071C
07159A14939C08170D5EFA6D930719
0714571492B80816C75EF86DFB076A
0713051492D00816845EF86E50076D
0712191491720816425EF76EC207F5
07111A1491460815FD5EF96F2007F5
070FFC1491440815B75EF96F820774
070F661490750815755EF96FDC0777
070EC0148F7E0815315EF6702C0864
070DBE148E1E0814F15EF870770862
070C7C148D740814AB5EF770CA0925
070B60148C3D0814685EF671150925
070A691489A80814215EF8715B09D5
07090A14846A0813D85EF671B009D5
0706C01487540813905EF571F709C1
07058D1483ED0813485EF6723F09C5
0704171482870812FF5EF472850B07
0702841480800812B45EF572CF0B08
0700F7147E2D08126B5EF5731E0AC7
06FF26147B7B0812215EF473640AC5
06FCC0147A1C0811D85EF573BD0AC6
06FACE1479630811915EF574080B18
06F97F14780308114B5EF6745B0B16
06F82814775E0811085EF374A40B21
06F6B114774C0810C65EF4750A0B26
06F5881477680810815EF375690B49
06F4CB14770F08103C5EF475BC0B44
06F41C147698080FF85EF276220A46
06F30C1475D6080FB35EF2767B0A41
06F1C2147571080F6B5EF176DF0AC6
06F09E1473A6080F215EF377350AC5
06EEE5147359080ED65EF277920A97
06ED37147079080E895EF577E30A93
06EB2B146AF6080E375EF278290B18
06E817146A95080DE55EF178A40B17
06E5ED146BE9080D8D5EF279080BC2
06E5861463C7080D355EF079560BC1
06E2A3145D43080CDD5EF279B90C50
06DD89145A5B080C895EEF7A2A0C4F
06D8EB145BF0080C325EEF7A930DB0
06D64914572F080BDF5EF27B010DB1
06D3281450A8080B915EEE7B5F0DC1
06CD961445B2080B4E5EED7BD10DBB
06C63A1444F9080B145EF07C4A0E9D
06BFF6143C33080AE15EEF7CBD0E9E
06B9DE142DDD080AB95EF07D360F10
06B2371422FA080A995EEF7DB90F0F
06AA521422D4080A7A5EED7E471037
06A5C3142227080A5F5EEE7ECF1037
06A304141AD8080A475EEC7F510FB7
06A021141959080A305EEB7FDD0FB6
069DFF141033080A1A5EEF80710FB9
069C2114034C080A065EEC81091207
0699DA13F5E90809F35EED81991206
06979A14013E0809E05EEC823611C9
06968E13F6390809C95EEC82C811C6
0695D313F7F50809AE5EEA834C12F3
06951913F8200809915EEC83C612F4
0694A913FABA0809765EEC844B1563
0694AE1407790809595EEA84B11563
06963B140E9E08093B5EEB850B1344
06989D140E9908091F5EEB85591343
069AD91400640809015EEA859213EE
069B3513ECA60808E05EEC85D613F1
06997013E3960808C05EEA861F1602
06970513D1B80808A05EEC866B1604
0693FD13C30808087C5EEA86B4183F
0690A513B6A80808585EE986EE183F
068D0D13942C0808365EEB873215E1
068811137C8108080F5EEB877815E5
068253136A960807E95EEA87D612D6
067CAB135A4A0807C55EE9882E12D6
067811134F8F0807A05EEA887B1341
0674751335350807805EE988CF1342
0670CE131CDC0807625EEA89271574
066AA01306020807465EEA89A51571
0664AA130AD20807265EE98A1512D5
06611F12EC2908070E5EE98A9412D5
065DB912CAE20806F75EE68B0214F1
06589812D0D50806DF5EE68B8114EF
06550F12BEAC0806C65EE68C0113BF
06535812A6B70806AE5EE78C7013BC
06505B12A7660806955EE78CFB11AA
064E0B12A19408067A5EE78D4B11AB
064C7A12A50B08065F5EE48DAB11AA
064BC012A5BE0806445EE58E0011CB
064BA712A1B50806275EE78E5B11C9
064B56129D8F08060C5EE78EA812B6
064AA0129D880805EE5EE78EEF12B5
064A1812A0F10805D15EE88F32138F
0649FF12AEDD0805B55EE68F70138E
064AFE12ACD50805975EE68FA21298
064C3E12A0AB08057A5EE58FB91298
064BE8129F2808055D5EE68FEA13BC
064B53129D4C08053E5EE6901413BE
064B2E129C7D0805215EE6903611FA
064B16128AAD0805045EE5905511F7
064A0112830E0804E65EE49078145E
0648A012819D0804C75EE49099145B
0648161280150804A55EE690B6135A
0647D01281F80804835EE590D2135C
06477D1280780804635EE590E714F1
0646F21271F30804475EE590FC14ED
0645BD126AE70804305EE4911A148E
0644081266DE0804235EE491331490
0642C212657E0804155EE29150142C
0641EE12648708040A5EE49168142D
0641811258BB0804015EE4917E140F
0640971253190803F35EE49192140C
063FB51253A20803E25EE391AD13B1
063F5D1255C50803CD5EE691E713AD
063F9C124F2F0803B35EE491E3137C
063F7E124C8B0803945EE591E6137B
063F1C124BCB0803765EE391ED1324
063EE6124B2E0803575EE392251324
063ECF124AE60803405EE39227131F
063EA9124AA408033A5EE49238147F
063E7112496308033D5EE29249147D
063E231248FF08033F5EE4925F1572
063DF01248FD0803415EE4926F1571
063DE31248B50803445EE4927E1521
063DD912487708034A5EE492911521
063DD412483E0803545EE3929F14CC
063DCE1247FE08035A5EE292B014D1
063DE21247F108035D5EE392BE1584
063DF21247B808035F5EE292C31580
063DF21247860803575EE292D214BB
063DF112476708034C5EE392D614C0
063DEE1247790803425EE392E2146F
063DDC12477D08033B5EE392EC146E
063DCE12477908033A5EE392F41634
063DC612477908033B5EE392FE1633
063DC51247640803405EE292FD1665
063DD812477408034D5EE393041664
063DE412478208035A5EE29301148F
063DE71247B70803635EE392FF1492
063DD31247F208036B5EE492FB14C0
063DB71248220803705EE392FB14C2
063D9F12484F08036F5EE492F514BC
063D8F12486908036E5EE392FF14BF
063D811248250803655EE493001530
063D9A12482208035D5EE593001534
063DB61248030803565EE5930613FF
063DC41247FF0803565EE3930A13FD
063DCD1248220803585EE4931314A1
063DC712483808035B5EE4931C149F
063DAF12482208035E5EE5931A15EE
063DA21247F208035F5EE5931C15F3
063DA01247A108035F5EE5932015F2
063D9E12477008035F5EE59323154E
063DA312477008035F5EE6931F154E
063DAE1247670803605EE29324143D
063DC11247BC0803635EE59324143D
063DC71248190803665EE4932315A5
063DB012486C0803675EE4932A15A6
063D941248A308036B5EE6932A13FC
063D7A12485808036E5EE4932C13FF
063D8012480C0803705EE5932F14A0
063DA01247D60803715EE5932A149D
063DB91247CD0803755EE6932B142E
063DCE1247B70803795EE49328142E
063DDB1247BC08037C5EE5932C1595
063DE51247AA08037B5EE6932D1592
063DED12478B0803725EE6932B13BB
063DF212477D0803695EE7933413BC
063DED1247BC0803565EE7933114B1
063DD21247DB0803415EE7933B14B2
063DBF1247BC0803355EE79331149E
063DC112478A0803275EE59332149C
063DD912477008031C5EE7933D15B1
063DF812475E08030B5EE7933715B4
063E051247430802FB5EE8933C15D4
063E0B12472D0802F05EE8933A15D3
063E0F1247200802EA5EEC9337151E
063E161246EF0802E95EE9933A151E
063E211246C90802E75EE9933E1530
063E2D1246C70802E25EE9933D1530
063E391246A30802D55EEA93421534
063E491246B90802C95EEA9340152F
063E4E1246F30802B95EE8933D1530
063E351247320802B15EE89341155F
063E131247630802B05EE993411560
063DF212476B0802B35EEB934114E4
063DD81247750802BB5EED934114E2
063DC91247860802C05EED933F15BF
063DC61247A50802BE5EEA934215C1
063DC81248460802B75EEB93471590
063DBE1248720802AA5EED93441592
063D9E1248690802985EED934714AD
063D891248770802895EED934814AE
063D7C12485F08027E5EEE934C14F2
063D791248410802725EED935014EF
063D7D1248220802665EEF934A15E5
063D7B1247DD08025C5EEF935215E4
063D8712476708023C5EED934F1590
063DA012473A08020B5EF093541591
063DC711CDAC0801E85EEE934E1341
063DF40F5CEB0801EB5EF093541341
063E2E12355D0801EB5EEE934E07F4
063E7A123D810801EC5EF0933D07FA
063EAE1230330801EE5EF193150F77
063ECB122A200801EA5EF192CD0F76
063EF91232EC0801F45EF292740C20
063F2D12364E0801F55EF292150C22
063F59122F750801EB5EF1919C1101
063F7F1234870801EA5EF2913D10FD
063FA21236380801EB5EF690E404B4
063FCD12366B0801E95EF4907304B7
06400910937F0801EB5EF28FC90309
06405D0C063B0801EB5EF48EBF030B
0640C10BF4550801E95EF48D6E02BF
0640EF0C0FFC0801EC5EF78BDB02BC
0641090C10E10801EC5EF58A3102B9
0641220C068B0801EB5EF6888D01DA
06413F0BF3A40801EC5EF586F901DC
0641570BE0780801E85EF7857101EA
0641730BE13B0801ED5EF8841C01EA
0641920BE0470801EC5EF882DD01FA
0641B00BD6D30801EB5EF981C401FC
0641D30BEB980801EC5EFA80C6023D
0641FB0C03DB0801EC5EF97FDD023A
0642200BECF90801EB5EFD7F28026C
06424C0BD4AA0801EA5EFA7E81026C
0642790BD0280801EA5EFB7DF6029A
0642A70BBC200801EC5EFC7D7E029D
0642D60BA7620801EC5EFB7D1E02ED
0643060B97CB0801EA5EFE7CC402E9
06433A0B8B2E0801EA5EFD7C7B028B
0643720B85020801EC5EFD7C48028A
0643A60B7A920801EC5F007C1B024B
0643DC0B71BC0801EB5F007BF5024E
0644150B700C0801EE5F017BE6022A
06444D0B6B590801ED5F037BE0022C
0644880B66D60801EB5F017BCD0279
0644C30B6F430801EC5F017BD2027E
0644FE0B73B30801EE5F037BE7027C
06453E0B6F2C0801EC5F047BE2027C
0645790B66330801ED5F047BF902A9
0645BB0B67CE0801ED5F057C0A02AB
0645FA0B60320801EC5F047C2202AD
0646390B589E0801ED5F057C3E02AB
06467A0B537B0801ED5F077C5302AB
0646BA0B51240801ED5F077C7602AF
0646FA0B484C0801EC5F077C8D02AB
06473A0B456A0801EC5F0A7CAF02AC
0647790B3EA00801ED5F0B7CDA02A8
0647B90B409C0801ED5F097CF702AF
0647F70B38430801EF5F0A7D1202AB
0648370B329C0801EF5F0C7D36027D
0648760B36330801EE5F0C7D5E027C
0648B70B20C30801EC5F0B7D7E029D
0648F50B28710801EE5F0F7D9F029C
0649350B202A0801EE5F0C7DC302FC
0649740B22810801EC5F0F7DDE02F9
0649B10B1AE10801EC5F0F7DFE028E
0649F10B25EE0801EE5F117E1E0289
064A300B28700801ED5F107E3801FA
064A6D0B31400801EC5F117E5601F9
064AA90B40ED0801EF5F157E6701DA
064AE50B74390801EC5F147E8701DA
064B230B8EEA0801EF5F167E9C028B
064B5F0B9D4A0801ED5F167EAF028C
064B9A0B905F0801EE5F157EB9029D
064BD70B7E1C0801EC5F167ED0029C
064C150B6ACD0801EE5F1A7EE4021B
064C510B5A280801EF5F187EF20219
064C8C0B47970801EF5F1A7F070289
064CC50B38CD0801EE5F1A7F12028D
064D000B2F070801EF5F1A7F2A025E
064D370B26AB0801EF5F1D7F2D025B
064D700B1F2B0801F05F1B7F3A026F
064DA60B17D00801EF5F1E7F44026B
064DDF0B0FC90801F05F1F7F53024B
064E180B09670801F05F207F61024C
064E520B03F70801F05F207F6A025D
064E890AFDC40801F05F217F65025B
064EC30AF8DD0801ED5F227F84022A
064EFD0AF4250801F15F237F74022A
064F350AEF5D0801EE5F237F7E0261
064F6D0AEC260801EF5F247FAC02AA
064FA50AE8960801F05F227FAA02AC
064FDE0AE5020801F05F277F9C02AD
0650160AE2B40801F05F277FAE02AC
06504E0ADF080801F25F277FAD022B
0650860ADC390801EF5F297FA8022D
0650BF0ADAA40801F25F297FD2024E
0650F70AD7940801F15F2B7FB0024D
0651310AD51B0801F15F2C7FAB0219
06516A0AD39F0801F15F2D7FA50218
0651A30AD0B40801F15F2D7FE7022C
0651DB0AD1D50801F15F2E7FC80229
0652140AE2080801F35F2F7FD8024C
06524E0AEF8B0801F15F307FDF024D
06528C0B00E70801F25F307FE2022A
0652C90B05930801F25F327FDA022A
0653040B06D00801EF5F347FD6022A
06533C0B0AC20801F25F347FDC022A
0653780B10640801F35F357FE6022B
0653B10B123D0801F35F367FED022B
0653ED0B0F700801F35F357FEC01FA
0654270B09980801F35F357FF101FC
0654630B04A40801F55F377FF7022B
0654A20B00710801F35F397FFB022C
0654E20AFABD0801F25F3A7FF6021C
06551F0AF6E40801F25F3B8000021E
06555B0AF2A60801F35F3A7FFD01DA
0655910AED710801F25F3C800001DD
0655C30AEA620801F65F3D8005020E
0655F50AE68F0801F35F3E8009020D
0656230AE1980801F45F3D800B01A9
0656530ADFD20801F45F40800E01AC
06567F0AE8E50801F45F40801600EE
0656B10AF5BF0801F45F43801400EE
0656E20B0E850801F55F43801D00E8
0657110B14E30801F25F408019012C
0657400B17F80801F35F46801C012C
0657700B1C7A0801F55F458021010C
06579C0B1F690801F35F478027010A
0657CB0B1AD00801F45F48801F00FE
0657F70B147D0801F65F48802A00FE
0658240B0CD60801F55F4B802800EA
06584B0B05F80801F65F4C802600F0
0658710AFF830801F65F4C802E00FE
0658950AF9830801F55F4E802B00FE
0658BB0AF4EC0801F45F4C8035010B
0658E40AF01C0801F55F4E803A010E
0659110AEB8A0801F65F508032010E
06593B0AE8410801F55F4E8039010A
06596B0AE4C70801F45F51803D010F
0659980AE1B10801F45F518035010A
0659C60ADF0E0801F65F52803E010A
0659F70ADC1A0801F55F53803E010D
065A250ADA660801F55F558043010C
065A540AE30B0801F65F568045010D
065A830AEF740801F75F548049010D
065AB10B06D80801F75F58804E010A
065ADC0B0D470801F55F58804E010E
065B070B11830801F75F5A804D010D
065B340B15260801F55F59804E011B
065B5E0B17F00801F85F5B8055011F
065B880B128C0801F65F5B8056010C
065BB40B0B410801F65F5D8053010D
065BDF0B03E00801F75F608058010C
065C0E0AFDB30801F75F5F8059010B
065C400AF7C60801F65F618061011B
065C700AF2C80801F75F5F8063011F
065CA30AEF220801F85F5F8061010C
065CD40AEAF40801F65F62805C010E
065D040AE7650801F75F648064010C
065D360AE4B30801F75F668062011F
065D650AE0FE0801F55F63805F011A
065D950ADE840801FB5F668069010C
065DC90ADD4C0801F95F66806C010A
065DFA0AE4640801F95F67807100FA
065E2D0AF0320801F85F67806F00FA
065E5F0B04CF0801F85F69806C010C
065E900B0A1D0801F75F6B806F010C
065EC20B0F1C0801F85F6B806D0123
065EF20B12910801F85F6C8074011E
065F250B15940801F85F6C80720129
065F5A0B11060801F85F6F8077012F
065F8F0B0A060801F75F6D8077011A
065FC20B035C0801F85F71807C011D
065FF80AFE030801F85F6F8077010B
0660300AF7C60801F95F728080010F
0660680AF2EA0801F95F73807A010B
0660A00AEE530801F85F7380810110
0660D60AE9C50801F95F7380800128
06610C0AE7C20801F95F748081012B
0661430AE39D0801F85F74808100EB
0661780AE1520801F95F76808200E9
0661AE0AE9E30801FA5F75808100FE
0661E30AF8180801FA5F77808900FE
0662190B0CAD0801F95F77808A010C
06624F0B13B70801F85F798088010F
0662870B13C60801F95F7B80910139
0662BD0B1B390801FB5F7A808C0139
0662F20B19E00801FA5F7D8091011B
0663270B120C0801F95F7D808F011D
06635D0B0BEA0801F95F7F8091010D
0663930B065C0801FC5F7D8095010C
0663CC0AFF050801FC5F8180940109
0664060AFABA0801FA5F80809A0130
06643D0AF6510801FA5F828097012B
0664750AF0A10801F95F8280980121
0664B00AEE0C0801FC5F838098011E
0664EB0AEA920801F95F83809A012F
0665220AE5560801FB5F85809C012E
06655E0AE40B0801FA5F88809D011E
06659B0AE0AF0801FA5F8580A1011F
0665D40ADCF40801FB5F8680A1011C
06660A0ADC470801FB5F8780A3011F
0666430ADBDF0801FA5F89809E010D
06667C0AE6BF0801FB5F8A80A6010F
0666B30AF8D20801FB5F8A80A30120
0666EA0B05FA0801FB5F8C80A2011B
0667200B0B0A0801FC5F8C80A9010D
0667540B0F970801FC5F8D80A6010D
06678B0B13510801FB5F8D80A90110
0667C00B12120801FA5F8E80AC010F
0667F30B0C310801FC5F8E80A9010E
06682B0B04450801FC5F8F80AF010D
06685D0AFF720801FD5F8F80AD00FD
0668920AF9300801FA5F9080B300FE
0668C80AF2E70801FE5F9280B9012F
0668F90AEF9F0801FD5F9380B0012B
0669310AEA9A0801FD5F9280B5010C
0669670AE5FA0801FC5F9780BB010B
06699C0AE3E00801FE5F9680B7010A
0669CF0ADF7E0801FC5F9580B90109
066A050ADB970801FB5F9680B9010D
066A3D0ADA960801FB5F9880BA010F
066A740AD7460801FC5F9A80BF011C
066AB20ADE440801FB5F9880C3011A
066AF40AEE180801FC5F9B80C2012A
066B370B01C40801FC5F9B80C3012C
066B7D0B08550801FF5F9D80C0012A
066BC00B0D720801FE5F9C80C5011C
066C030B0F330801FD5F9F80C4011A
066C440B13DA0801FF5F9C80C5010B
066C860B0EEE0801FD5F9E80C5010E
066CC80B07850801FE5F9F80C600FE
066D090B02230801FD5F9E80C500FE
066D4C0AF8A70801FD5FA080C3011E
066D900AF6D60801FF5FA080CB0118
066DDA0AEEDE0801FB5FA480CC0109
066E250AED870801FE5FA380CD010C
066E710AE6570801FF5FA680D1011A
066EC00AE64A0801FE5FA480CB011A
066F070AE0260801FE5FA580D7010A
066F520AE0420801FF5FA680D5010F
066F9B0AD9E30801FE5FA680D1010D
066FE50ADB8E0801FE5FA780DA010A
06702F0AE94A0801FE5FAB80D400E6
0670780AFB850801FE5FA880D600EC
0670C20B074E0801FD5FAA80D9011A
0671090B0CAD0801FE5FA980DC011C
06714E0B10F20801FC5FAB80D6010B
06718E0B132C0801FF5FAB80DB010C
0671CF0B147A0801FD5FAC80D6012B
0672120B0C6E0801FE5FAE80D9012B
0672590B066B0801FE5FAE80D9011A
06729E0AFDF20801FE5FAD80E0011C
0672E60AFA950801FD5FB180E6012A
06732E0AF0A40801FE5FB080E5012C
06737D0AF3120801FF5FB080DE010C
0673C90AF5FE0801FD5FB280E5010C
06741D0AFD710801FE5FB480E6012B
06746C0B04000801FE5FB080E40129
0674BC0B04EF0801FE5FB380E3011E
0675090B052B0801FE5FB580E6011E
0675530B03590801FE5FB480EE011E
06759F0B02110801FE5FB580E5010D
0675E70AFC890801FE5FB880E9010D
06762E0AFA200801FF5FB880EB00FA
06767A0AF2A30801FF5FB880EA00FE
0676C50AF0350802015FBA80E9010E
0677110AF5000801FF5FB880F1010D
06775A0AFEB20801FF5FBC80EF012B
0677A70B08AE0801FE5FBB80F20127
0677F40B0C820801FF5FBD80F10129
0678420B10100801FE5FBC80F4012B
0678900B10FE0801FE5FBD80F3011B
0678DC0B0DD20802015FBE80F6011E
0679260B07BC0801FD5FBD80F5011C
0679690B02140802005FBE80F4011A
0679AC0AF9390802005FC180FC011F
0679F30AF5670801FF5FC180F5011E
067A3D0AF0CB0802005FBF80F60139
067A8D0AEB300802005FC280F3013A
067ADA0AE6D80802015FC38100010B
067B2B0AE2E10802005FC48102010F
067B770ADF130801FF5FC48100010B
067BC10ADA7B0801FF5FC480FC010E
067C0C0AD8E20802015FC48102010D
067C580AD6F50802005FC580FC010B
067CA30AD5000802005FC78101010D
067CEC0AD1A60802005FC580FB0107
067D310AD06C0802025FC8810900FB
067D720ACF020802015FCA80FE00FB
067DB00ACBA50802015FC9810A011F
067DEB0ACA390802005FC98108011A
067E280AC9B10802015FC880FA010E
067E670AC7CC0801FF5FCC8109010C
067EA60AC5830802005FCC8104010F
067EE30AC45F0802005FCC8107011C
067F200AC2AA0802015FCD8101011C
067F550AC3C70802005FCE8109012B
067F860ACFE50802005FCE81030129
067FB70AE2790802015FCE810A00FE
067FE20AEF300802015FCE810800F8
0680110AF1920802025FD0810B011F
06803F0AF65F0802005FD08112011B
0680700AFCC50802025FD3810C011C
0680A00AFB880802025FD3810D011F
0680CB0AF6370801FF5FD28112010D
0680F50AF0B50802005FD2810E0108
0681240AEB1C0802005FD38112011C
06815A0AE0D10802015FD58112011D
0681940AD6C00802015FD4811400E9
0681D60AD2D60802025FD4810A00E9
0682180ACE050801FF5FD7810E011D
0682580AC9F40802005FD78117011D
06829E0AC67C0802005FD98116010D
0682E10AC2F70802015FDE8111010D
0683250AC0750802025FD78113010D
0683660ABE620802015FDC8113010E
0683AA0ABBBF0802025FD8811B0129
0683E50AB73D0802025FDA8118012D
0684240AB62A0802035FD9811700F2
0684600AB66C0802025FDA811900EA
06849F0AB5260802015FDC811700FD
0684DE0AB3800802015FDE811C00FC
06851D0AB1340802015FDF811A012C
0685560AB29A0802015FDF811B012B
06858E0AC14B0802025FDF811E011D
0685C80AD6410802035FDF8120011A
0685FC0AD7940802015FE0811A010F
0686350ADA100802015FE0811D010D
06866E0AE4D50802015FE18121010E
0686A40AE5CA0802015FE1811D010F
0686D70AE1680802015FE38122010F
06870C0ADC2B0801FE5FE2811E013B
06873D0AD7040802025FE281250139
0687710AD2070802005FE78123012A
0687A90ACD300802025FE48122012B
0687E40AC8A60802015FE58125012C
0688230ABDBB0802035FE78123012C
0688630AC6F00802005FE38124011E
0688A20ACCA10802025FE78126011D
0688E20ACEC20802005FE8812700DD
0689270B06790802005FEA812700DE
0689710B2C370802035FEB8125010C
0689BF0B44D30802025FE8812C010E
068A0E0B30360802025FE98127010C
068A580B1D6E0802005FE9812B010D
068A9D0B14910802035FEA8127010C
068AEA0B10410802035FEC812A010F
068B430B0C710802035FEB812C010B
068BA70B02760802035FEC812F010F
068C060AFCAC0802025FEE8131011B
068C610B01BB0802005FEF812C0120
068CB20B054B0802035FED812F012A
068D000B05790802025FEF8129012D
068D4C0AFFBF0802045FEF812F010D
068D9A0B00AB0802035FF0812E010E
068DDB0AFA120802035FF28131011E
068E190AF3A80802035FF18133011F
068E570AEAB60802035FF28132010E
068E930AE5DB0802025FF281320110
068ED20ADD4E0802025FF4813500F8
068F170AD7000802005FF5813300FB
068F640AD5C80802035FF481320121
068FAC0ACF1A0802035FF581360129
068FEF0AC7BF0802035FF38136012B
0690270AC6660802035FF68134010F
0690560AC4700802025FF68136010D
06907F0AC2100802025FF78137010B
0690A60ABEB70802045FF88133010C
0690D10ABEF30802045FF68139010D
0690FE0AC0FA0802045FF681380110
06912D0ABE260802025FFA8139010D
0691590AB9660802045FF8813D010E
0691830ABD690802025FF9813B0118
0691AC0ABCB50802015FF98138011F
0691D50AB5C60802035FF9813E010C
0691FB0AB6D10802045FFD813A010E
0692260AB6700802035FFC8134010C
0692570AB1110802035FFD813A010C
0692870AB2870802015FFC8140010D
0692B70AB0250802035FFE8140010D
0692E20AAD930802025FFD813E011E
06930E0AAB4A0802035FFF8138011F
0693370AA9240802015FFE8139010E
0693630AAAA80802055FFF8144010B
0693900AA96F08020260008138010D
0693BD0AA3DB0802025FFE813E010F
0693E80AA51C08020360018142011D
0694150AA5E208020460008144011E
06943D0AA28C080202600281390120
0694640AA30D0802036003813C011C
06948E0AA6A608020360008146011B
0694B90A9F8C08020260038144011D
0694E30A9A350802036001813F011D
0695100A974B0802046004814C011B
06953B0A95EE08020460048141011B
0695620A934808020360048143011F
06958A0A916C08020460058150011A
0695AE0A8E6708020360068143011B
0695D20A941C08020460088146011D
0695F70A91ED080203600781440128
06961E0A8FE10802036008814C0127
0696450A901E0802046009813F012B
06966A0A91680802016008814F012B
0696920A926008020460098143010A
0696BA0A940C08020260098142010C
0696DE0A9577080202600A8152010E
0697060A94D608020460088149010E
06972E0A942F080203600C8145011E
0697560A9648080204600B814E011B
06977C0A95A0080203600D8152011B
0697A00A9313080203600D814F011C
0697C30A953B080204600E8153014A
0697E80A94E7080202600F8143014C
06980D0A955D080203600C814E010E
06982D0A994A080204600E8151010C
06984B0A98AD080203600D814D012C
06986B0A999D080203600E814E012E
0698890A97CA080205600D8154010A
0698AA0A9F1B08020360108146010D
0698C90AA26C080204600F814A010F
0698E90AB686080203600F8154010D
06990B0AC1450802056012814E011B
06992E0AC7190802036012814E0120
0699500AC06708020160128154012B
0699710ABD260802026012814F012E
0699900AC3A70802056011815000FB
0699B30AC31D0802036012815300FC
0699D50ABFF408020460128146010A
0699FC0ABBE70802026017814D010D
069A230AB83B08020360148152012C
069A4F0AB4B108020560158150012C
069A7B0AB24908020460158151012B
069AAF0AB1FD08020360178150010E
069AE50AB0250802036017814E010B
069B1D0AAD5E08020260178152010D
069B550AAC840802026018814B010E
069B8D0AAA6A080205601781590110
069BC20AA87208020560188153010C
069BF60AA7CA08020360178151011C
069C2A0AA53B08020360178153011F
069C560AA4F808020460178151010C
069C880AA53A080204601A8150010F
069CB80AA1E608020460188152010A
069CE80AA3D5080204601D814E010D
069D1A0AB1FA080203601D814F00FB
069D480ACFCC080204601C815500FC
069D750ACF4C080203601B8154010B
069DA40AD561080204601D8152010B
069DD40ADF78080204601B8156010F
069E060AD397080203601D8153010A
069E370AD0B7080205601F8158010A
069E6B0ACD0C080204601E8151010C
069EA10AC9430802046020815000FA
069EE50AC5F3080202601F815600FC
069F2E0AC24D080204601F8154010E
069F7A0ABD6C080204601C8154010E
069FC30ABA3E080204601F815300FC
06A00C0AB5660802046021815000FE
06A0500AB40008020260228155010C
06A0940AB20208020360218157010F
06A0D60AB048080204602181560120
06A1180AAF8F08020460238157011B
06A1530AAC1208020660228159010B
06A18B0AA96508020460228156010C
06A1C00AAA4A080204602481580109
06A1F10AA78808020360238156010A
06A2200AA72408020360238155010C
06A2500AA32C08020160238158010E
06A27F0A9F9908020560248157010B
06A2B00A9DB10802046023815C010C
06A2E10A9ADD08020260268154010D
06A3150A9A6D0802046025815A010F
06A3470A99AF0802046025815E010C
06A3770A97630802046025815500F9
06A3A80A970D0802036026815900FE
06A3D80A9A22080204602881580109
06A4060A9858080203602D815E010B
06A4360A9A600802046028815A00FE
06A4670AA7170802056026815700FB
06A4970ACC4B0802056029815A00FB
06A4C40AD28B080205602A815700FD
06A4ED0AE429080204602A815C010B
06A5190AE7D0080203602A8160010F
06A5420AE1710802036028815700FE
06A56C0AD97C0802026028815800FD
06A59F0AD4FD080204602B815A010D
06A5D80ACC93080203602A815D010E
06A61D0AC3F1080203602B815A011C
06A6630AC538080205602B815E011E
06A6AC0ACB42080205602C815D011E
06A6F20AE754080204602D815C011D
06A7350AE4F1080204602C815A011C
06A7720AE08B080203602B815D0119
06A7B00AD2D2080203602B815E010E
06A7EF0AC5CF080204602D815E010C
06A8320ABDE1080205602F815F010B
06A87D0AB856080204602F815C010A
06A8CB0AB43E080204602D8160011C
06A90E0AB0BA0802036030815D011E
06A9430AADB2080203602F815A011A
06A96A0AA8CC0802056031815D011F
06A98C0AA556080203602F8159011A
06A9AE0AA36B0802056032815D011E
06A9D10AA1D50802046032815F011E
06A9F30AA0DF0802056032815F0129
06AA170AA02C0802056032815E012C
06AA3B0A9F380802036031815C010C
06AA5F0A9E300802036033815C010C
06AA810A9D6C0802056031815C011D
06AAA30A9CCA0802046032815D011C
06AAC30A9C150802066031815D012B
06AAE50A9B4A0802036033815A0129
06AAFE0A9A6F08020360348160010C
06AB1B0A99B50802046033815D010E
06AB380A992D0802036035815E012E
06AB570A98AB080203603381610129
06AB7A0A98260802046036815D00FC
06AB9B0A97AE0802056036815E00FC
06ABC00A97280802046032815B011D
06ABE50A96B70802046037815F011D
06AC0A0A96610802056037815E010C
06AC310A962708020360378160010E
06AC560A962A0802046037815E011C
06AC790A964B08020560388160011C
06AC9A0A96910802036036815C011B
06ACBE0A96DE08020460388161011E
06ACE20A96F20802016038815E011C
06AD060A96F90802036039815D011B
06AD2D0A96E608020560398164011E
06AD510A96A4080202603B815F011D
06AD780A9634080204603A815E0129
06AD9B0A95AA080202603A8162012B
06ADC30A94FE0802056039815A012B
06ADE60A9446080205603B8163012D
06AE0A0A93800802056039815F012A
06AE2C0A92C8080204603B8161012E
06AE520A9237080204603B815E0129
06AE700A91B5080204603A815D012B
06AE910A9166080204603B815D012B
06AEB30A9133080206603B8161011E
06AECE0A92BF080202603B8167011B
06AEED0AA7EE080206603B8166011F
06AF0C0AC070080204603D8161011A
06AF2A0AC0E1080204603D815A012B
06AF460ACFBE080203603C8162012B
06AF640ACE03080202603D815A0117
06AF830AC73D080203603E815C011E
06AF9F0AC036080203603F8161013B
06AFC20ABA82080203603E815D013A
06AFEE0AB4E208020560408163010B
06B01F0AB0EB080203603F8160010B
06B0530AAD87080204603F815F010A
06B0870AAA44080206603F815A010B
06B0BA0AA72C08020360468161010D
06B0E70AA45708020460418162010D
06B1120AA16B0802056040815D0109
06B1390A9EAB08020560408162010D
06B15A0A9CA908020560418160010C
06B17F0A9B2A0802056042815E010C
06B19D0A9A2A0802036040816600FA
06B1BC0A99780802046041816700FD
06B1DA0A98FD08020560418162010C
06B1F50A98A708020460428167010A
06B2150A985D08020560428164010C
06B2300A980C08020660448160010D
06B24F0A97BB0802046045815F010C
06B26E0A979608020460408165010B
06B28C0A977C080206604481670113
06B2A70A977B08020560458165011D
06B2C50A97670802056043815E011C
06B2E30A973108020360438161010A
06B3010A96D608020260468168010C
06B31F0A964808020260438164010D
06B3400A959D08020460458164010E
06B35F0A94D808020560458168011D
06B37C0A946C080203604781640118
06B39A0A9FB608020560478164010A
06B3B70ABC3408020560468164010E
